%YAML 1.1
%TAG !u! tag:unity3d.com,2011:
--- !u!1 &5156668951347464194
GameObject:
  m_ObjectHideFlags: 0
  m_CorrespondingSourceObject: {fileID: 0}
  m_PrefabInstance: {fileID: 0}
  m_PrefabAsset: {fileID: 0}
  serializedVersion: 6
  m_Component:
  - component: {fileID: 524752361824235615}
  m_Layer: 0
  m_Name: D
  m_TagString: Untagged
  m_Icon: {fileID: 0}
  m_NavMeshLayer: 0
  m_StaticEditorFlags: 0
  m_IsActive: 1
--- !u!4 &524752361824235615
Transform:
  m_ObjectHideFlags: 0
  m_CorrespondingSourceObject: {fileID: 0}
  m_PrefabInstance: {fileID: 0}
  m_PrefabAsset: {fileID: 0}
  m_GameObject: {fileID: 5156668951347464194}
  m_LocalRotation: {x: -0, y: -0, z: -0, w: 1}
  m_LocalPosition: {x: -0.49100018, y: -0.501, z: 0}
  m_LocalScale: {x: 1, y: 1, z: 1}
  m_Children:
  - {fileID: 752671526328842827}
  m_Father: {fileID: 0}
  m_RootOrder: 0
  m_LocalEulerAnglesHint: {x: 0, y: 0, z: 0}
--- !u!1001 &5694997499576062289
PrefabInstance:
  m_ObjectHideFlags: 0
  serializedVersion: 2
  m_Modification:
    m_TransformParent: {fileID: 524752361824235615}
    m_Modifications:
    - target: {fileID: -927199367670048503, guid: 8c915c14e11f06e479620e7f84108d5d,
        type: 3}
      propertyPath: m_Name
      value: d
      objectReference: {fileID: 0}
    - target: {fileID: -5975033157549033438, guid: 8c915c14e11f06e479620e7f84108d5d,
        type: 3}
      propertyPath: m_LocalPosition.x
      value: 0.2058
      objectReference: {fileID: 0}
    - target: {fileID: -5975033157549033438, guid: 8c915c14e11f06e479620e7f84108d5d,
        type: 3}
      propertyPath: m_LocalScale.x
      value: 1.3195
      objectReference: {fileID: 0}
    - target: {fileID: -5975033157549033438, guid: 8c915c14e11f06e479620e7f84108d5d,
        type: 3}
      propertyPath: m_LocalPosition.y
      value: 0.1046
      objectReference: {fileID: 0}
    - target: {fileID: -5975033157549033438, guid: 8c915c14e11f06e479620e7f84108d5d,
        type: 3}
      propertyPath: m_LocalScale.y
      value: 1.1032
      objectReference: {fileID: 0}
    - target: {fileID: -4216859302048453862, guid: 8c915c14e11f06e479620e7f84108d5d,
        type: 3}
      propertyPath: m_LocalPosition.x
      value: 0.16499996
      objectReference: {fileID: 0}
    - target: {fileID: -4216859302048453862, guid: 8c915c14e11f06e479620e7f84108d5d,
        type: 3}
      propertyPath: m_LocalPosition.y
      value: 0.273
      objectReference: {fileID: 0}
    - target: {fileID: -4216859302048453862, guid: 8c915c14e11f06e479620e7f84108d5d,
        type: 3}
      propertyPath: m_LocalPosition.z
      value: 0
      objectReference: {fileID: 0}
    - target: {fileID: -4216859302048453862, guid: 8c915c14e11f06e479620e7f84108d5d,
        type: 3}
      propertyPath: m_LocalRotation.x
      value: -0
      objectReference: {fileID: 0}
    - target: {fileID: -4216859302048453862, guid: 8c915c14e11f06e479620e7f84108d5d,
        type: 3}
      propertyPath: m_LocalRotation.y
      value: -0
      objectReference: {fileID: 0}
    - target: {fileID: -4216859302048453862, guid: 8c915c14e11f06e479620e7f84108d5d,
        type: 3}
      propertyPath: m_LocalRotation.z
      value: -0
      objectReference: {fileID: 0}
    - target: {fileID: -4216859302048453862, guid: 8c915c14e11f06e479620e7f84108d5d,
        type: 3}
      propertyPath: m_LocalRotation.w
      value: 1
      objectReference: {fileID: 0}
    - target: {fileID: -4216859302048453862, guid: 8c915c14e11f06e479620e7f84108d5d,
        type: 3}
      propertyPath: m_RootOrder
      value: 0
      objectReference: {fileID: 0}
    - target: {fileID: -4216859302048453862, guid: 8c915c14e11f06e479620e7f84108d5d,
        type: 3}
      propertyPath: m_LocalEulerAnglesHint.x
      value: 0
      objectReference: {fileID: 0}
    - target: {fileID: -4216859302048453862, guid: 8c915c14e11f06e479620e7f84108d5d,
        type: 3}
      propertyPath: m_LocalEulerAnglesHint.y
      value: 0
      objectReference: {fileID: 0}
    - target: {fileID: -4216859302048453862, guid: 8c915c14e11f06e479620e7f84108d5d,
        type: 3}
      propertyPath: m_LocalEulerAnglesHint.z
      value: 0
      objectReference: {fileID: 0}
    - target: {fileID: -4216859302048453862, guid: 8c915c14e11f06e479620e7f84108d5d,
        type: 3}
      propertyPath: m_LocalScale.x
      value: 0.26714
      objectReference: {fileID: 0}
    - target: {fileID: -4216859302048453862, guid: 8c915c14e11f06e479620e7f84108d5d,
        type: 3}
      propertyPath: m_LocalScale.y
      value: 0.26714
      objectReference: {fileID: 0}
    - target: {fileID: -4216859302048453862, guid: 8c915c14e11f06e479620e7f84108d5d,
        type: 3}
      propertyPath: m_LocalScale.z
      value: 0.26714
      objectReference: {fileID: 0}
    - target: {fileID: -2416733968201007103, guid: 8c915c14e11f06e479620e7f84108d5d,
        type: 3}
      propertyPath: m_Materials.Array.data[0]
      value: 
      objectReference: {fileID: 2100000, guid: 47a37081f37a3744fa276512371f3139, type: 2}
    m_RemovedComponents: []
  m_SourcePrefab: {fileID: 100100000, guid: 8c915c14e11f06e479620e7f84108d5d, type: 3}
--- !u!4 &752671526328842827 stripped
Transform:
  m_CorrespondingSourceObject: {fileID: -4216859302048453862, guid: 8c915c14e11f06e479620e7f84108d5d,
    type: 3}
  m_PrefabInstance: {fileID: 5694997499576062289}
  m_PrefabAsset: {fileID: 0}
