# Blender v2.79 (sub 0) OBJ File: 'PIxelAlphabet.blend'
# www.blender.org
mtllib bi.mtl
o Bi_Chunk(Clone).004
v 0.483786 0.142680 -0.110484
v 0.704695 0.142751 -0.110506
v 0.483810 0.142687 0.110431
v 0.704718 0.142758 0.110409
v 0.483738 0.363599 0.110423
v 0.483810 0.142687 0.110431
v 0.704645 0.363670 0.110402
v 0.704718 0.142758 0.110409
v 0.704622 0.363663 -0.110512
v 0.704695 0.142751 -0.110506
v 0.483717 0.363592 -0.110491
v 0.483786 0.142680 -0.110484
v 0.704645 0.363670 0.110402
v 0.704718 0.142758 0.110409
v 0.704622 0.363663 -0.110512
v 0.704695 0.142751 -0.110506
v 0.483667 0.584510 0.110416
v 0.483738 0.363599 0.110423
v 0.704573 0.584581 0.110395
v 0.704645 0.363670 0.110402
v 0.704554 0.584575 -0.110519
v 0.704622 0.363663 -0.110512
v 0.483644 0.584504 -0.110498
v 0.483717 0.363592 -0.110491
v 0.704573 0.584581 0.110395
v 0.704645 0.363670 0.110402
v 0.704554 0.584575 -0.110519
v 0.704622 0.363663 -0.110512
v 0.483597 0.805422 0.110409
v 0.704500 0.805493 0.110387
v 0.483570 0.805415 -0.110505
v 0.704483 0.805486 -0.110526
v 0.483597 0.805422 0.110409
v 0.483667 0.584510 0.110416
v 0.704500 0.805493 0.110387
v 0.704573 0.584581 0.110395
v 0.704483 0.805486 -0.110526
v 0.704554 0.584575 -0.110519
v 0.483570 0.805415 -0.110505
v 0.483644 0.584504 -0.110498
v 0.704500 0.805493 0.110387
v 0.704573 0.584581 0.110395
v 0.704483 0.805486 -0.110526
v 0.704554 0.584575 -0.110519
v 0.262878 0.142610 -0.110462
v 0.483786 0.142680 -0.110484
v 0.262896 0.142616 0.110451
v 0.483810 0.142687 0.110431
v 0.262829 0.363528 0.110445
v 0.262896 0.142616 0.110451
v 0.483738 0.363599 0.110423
v 0.483810 0.142687 0.110431
v 0.483717 0.363592 -0.110491
v 0.483786 0.142680 -0.110484
v 0.262806 0.363521 -0.110469
v 0.262878 0.142610 -0.110462
v 0.262806 0.363521 -0.110469
v 0.262878 0.142610 -0.110462
v 0.262829 0.363528 0.110445
v 0.262896 0.142616 0.110451
v 0.262754 0.584440 0.110438
v 0.262829 0.363528 0.110445
v 0.483667 0.584510 0.110416
v 0.483738 0.363599 0.110423
v 0.483644 0.584504 -0.110498
v 0.483717 0.363592 -0.110491
v 0.262739 0.584433 -0.110476
v 0.262806 0.363521 -0.110469
v 0.262684 0.805351 0.110430
v 0.483597 0.805422 0.110409
v 0.262663 0.805344 -0.110483
v 0.483570 0.805415 -0.110505
v 0.262684 0.805351 0.110430
v 0.262754 0.584440 0.110438
v 0.483597 0.805422 0.110409
v 0.483667 0.584510 0.110416
v 0.483570 0.805415 -0.110505
v 0.483644 0.584504 -0.110498
v 0.262663 0.805344 -0.110483
v 0.262739 0.584433 -0.110476
v 0.041887 0.363451 -0.110448
v 0.262806 0.363521 -0.110469
v 0.041922 0.363458 0.110467
v 0.262829 0.363528 0.110445
v 0.041849 0.584369 0.110460
v 0.041922 0.363458 0.110467
v 0.262754 0.584440 0.110438
v 0.262829 0.363528 0.110445
v 0.262739 0.584433 -0.110476
v 0.262806 0.363521 -0.110469
v 0.041826 0.584362 -0.110455
v 0.041887 0.363451 -0.110448
v 0.041780 0.805280 0.110453
v 0.262684 0.805351 0.110430
v 0.041756 0.805274 -0.110462
v 0.262663 0.805344 -0.110483
v 0.041780 0.805280 0.110453
v 0.041849 0.584369 0.110460
v 0.262684 0.805351 0.110430
v 0.262754 0.584440 0.110438
v 0.262663 0.805344 -0.110483
v 0.262739 0.584433 -0.110476
v 0.041756 0.805274 -0.110462
v 0.041826 0.584362 -0.110455
v -0.178951 0.142468 -0.110420
v 0.041956 0.142540 -0.110441
v -0.178928 0.142476 0.110495
v 0.041992 0.142546 0.110474
v -0.178997 0.363387 0.110488
v -0.178928 0.142476 0.110495
v 0.041922 0.363458 0.110467
v 0.041992 0.142546 0.110474
v 0.041887 0.363451 -0.110448
v 0.041956 0.142540 -0.110441
v -0.179020 0.363380 -0.110427
v -0.178951 0.142468 -0.110420
v 0.041922 0.363458 0.110467
v 0.041992 0.142546 0.110474
v 0.041887 0.363451 -0.110448
v 0.041956 0.142540 -0.110441
v -0.179070 0.584299 0.110480
v -0.178997 0.363387 0.110488
v 0.041849 0.584369 0.110460
v 0.041922 0.363458 0.110467
v 0.041826 0.584362 -0.110455
v 0.041887 0.363451 -0.110448
v -0.179089 0.584291 -0.110433
v -0.179020 0.363380 -0.110427
v -0.179138 0.805210 0.110473
v 0.041780 0.805280 0.110453
v -0.179157 0.805203 -0.110441
v 0.041756 0.805274 -0.110462
v -0.179138 0.805210 0.110473
v -0.179070 0.584299 0.110480
v 0.041780 0.805280 0.110453
v 0.041849 0.584369 0.110460
v 0.041756 0.805274 -0.110462
v 0.041826 0.584362 -0.110455
v -0.179157 0.805203 -0.110441
v -0.179089 0.584291 -0.110433
v -0.179157 0.805203 -0.110441
v -0.179089 0.584291 -0.110433
v -0.179138 0.805210 0.110473
v -0.179070 0.584299 0.110480
v -0.399860 0.142398 -0.110398
v -0.178951 0.142468 -0.110420
v -0.399837 0.142405 0.110516
v -0.178928 0.142476 0.110495
v -0.399908 0.363317 0.110509
v -0.399837 0.142405 0.110516
v -0.178997 0.363387 0.110488
v -0.178928 0.142476 0.110495
v -0.179020 0.363380 -0.110427
v -0.178951 0.142468 -0.110420
v -0.399929 0.363309 -0.110405
v -0.399860 0.142398 -0.110398
v -0.399979 0.584229 0.110502
v -0.179070 0.584299 0.110480
v -0.399996 0.584221 -0.110412
v -0.179089 0.584291 -0.110433
v -0.399979 0.584229 0.110502
v -0.399908 0.363317 0.110509
v -0.179070 0.584299 0.110480
v -0.178997 0.363387 0.110488
v -0.179089 0.584291 -0.110433
v -0.179020 0.363380 -0.110427
v -0.399996 0.584221 -0.110412
v -0.399929 0.363309 -0.110405
v -0.399996 0.584221 -0.110412
v -0.399929 0.363309 -0.110405
v -0.399979 0.584229 0.110502
v -0.399908 0.363317 0.110509
v -0.620813 0.363246 0.110531
v -0.399908 0.363317 0.110509
v -0.620838 0.363238 -0.110383
v -0.399929 0.363309 -0.110405
v -0.620766 0.142327 -0.110377
v -0.399860 0.142398 -0.110398
v -0.620743 0.142334 0.110537
v -0.399837 0.142405 0.110516
v -0.620813 0.363246 0.110531
v -0.620743 0.142334 0.110537
v -0.399908 0.363317 0.110509
v -0.399837 0.142405 0.110516
v -0.399929 0.363309 -0.110405
v -0.399860 0.142398 -0.110398
v -0.620838 0.363238 -0.110383
v -0.620766 0.142327 -0.110377
v -0.620838 0.363238 -0.110383
v -0.620766 0.142327 -0.110377
v -0.620813 0.363246 0.110531
v -0.620743 0.142334 0.110537
v 0.484213 -1.182789 -0.110442
v 0.705122 -1.182719 -0.110463
v 0.484234 -1.182783 0.110472
v 0.705143 -1.182712 0.110450
v 0.484161 -0.961870 0.110465
v 0.484234 -1.182783 0.110472
v 0.705072 -0.961801 0.110444
v 0.705143 -1.182712 0.110450
v 0.705050 -0.961807 -0.110471
v 0.705122 -1.182719 -0.110463
v 0.484138 -0.961877 -0.110449
v 0.484213 -1.182789 -0.110442
v 0.705072 -0.961801 0.110444
v 0.705143 -1.182712 0.110450
v 0.705050 -0.961807 -0.110471
v 0.705122 -1.182719 -0.110463
v 0.484091 -0.740959 0.110458
v 0.484161 -0.961870 0.110465
v 0.704996 -0.740888 0.110437
v 0.705072 -0.961801 0.110444
v 0.704979 -0.740895 -0.110478
v 0.705050 -0.961807 -0.110471
v 0.484072 -0.740966 -0.110456
v 0.484138 -0.961877 -0.110449
v 0.704996 -0.740888 0.110437
v 0.705072 -0.961801 0.110444
v 0.704979 -0.740895 -0.110478
v 0.705050 -0.961807 -0.110471
v 0.484020 -0.520047 0.110451
v 0.484091 -0.740959 0.110458
v 0.704926 -0.519977 0.110430
v 0.704996 -0.740888 0.110437
v 0.704906 -0.519983 -0.110485
v 0.704979 -0.740895 -0.110478
v 0.483999 -0.520055 -0.110463
v 0.484072 -0.740966 -0.110456
v 0.704926 -0.519977 0.110430
v 0.704996 -0.740888 0.110437
v 0.704906 -0.519983 -0.110485
v 0.704979 -0.740895 -0.110478
v 0.483953 -0.299136 0.110444
v 0.484020 -0.520047 0.110451
v 0.704855 -0.299065 0.110422
v 0.704926 -0.519977 0.110430
v 0.704838 -0.299072 -0.110492
v 0.704906 -0.519983 -0.110485
v 0.483931 -0.299143 -0.110470
v 0.483999 -0.520055 -0.110463
v 0.704855 -0.299065 0.110422
v 0.704926 -0.519977 0.110430
v 0.704838 -0.299072 -0.110492
v 0.704906 -0.519983 -0.110485
v 0.483879 -0.078224 0.110437
v 0.483953 -0.299136 0.110444
v 0.704784 -0.078154 0.110415
v 0.704855 -0.299065 0.110422
v 0.704767 -0.078160 -0.110499
v 0.704838 -0.299072 -0.110492
v 0.483858 -0.078232 -0.110477
v 0.483931 -0.299143 -0.110470
v 0.704784 -0.078154 0.110415
v 0.704855 -0.299065 0.110422
v 0.704767 -0.078160 -0.110499
v 0.704838 -0.299072 -0.110492
v 0.483810 0.142687 0.110431
v 0.704718 0.142758 0.110409
v 0.483786 0.142680 -0.110484
v 0.704695 0.142751 -0.110505
v 0.483810 0.142687 0.110431
v 0.483879 -0.078224 0.110437
v 0.704718 0.142758 0.110409
v 0.704784 -0.078154 0.110415
v 0.704695 0.142751 -0.110505
v 0.704767 -0.078160 -0.110499
v 0.483786 0.142680 -0.110484
v 0.483858 -0.078232 -0.110477
v 0.704718 0.142758 0.110409
v 0.704784 -0.078154 0.110415
v 0.704695 0.142751 -0.110505
v 0.704767 -0.078160 -0.110499
v 0.263294 -1.182859 -0.110421
v 0.484213 -1.182789 -0.110442
v 0.263325 -1.182853 0.110494
v 0.484234 -1.182783 0.110472
v 0.263252 -0.961941 0.110487
v 0.263325 -1.182853 0.110494
v 0.484161 -0.961870 0.110465
v 0.484234 -1.182783 0.110472
v 0.484138 -0.961877 -0.110449
v 0.484213 -1.182789 -0.110442
v 0.263233 -0.961948 -0.110428
v 0.263294 -1.182859 -0.110421
v 0.263182 -0.741030 0.110480
v 0.263252 -0.961941 0.110487
v 0.484091 -0.740959 0.110458
v 0.484161 -0.961870 0.110465
v 0.484072 -0.740966 -0.110456
v 0.484138 -0.961877 -0.110449
v 0.263163 -0.741036 -0.110434
v 0.263233 -0.961948 -0.110428
v 0.263115 -0.520119 0.110473
v 0.263182 -0.741030 0.110480
v 0.484020 -0.520047 0.110451
v 0.484091 -0.740959 0.110458
v 0.483999 -0.520055 -0.110463
v 0.484072 -0.740966 -0.110456
v 0.263090 -0.520125 -0.110441
v 0.263163 -0.741036 -0.110434
v 0.263090 -0.520125 -0.110441
v 0.263163 -0.741036 -0.110434
v 0.263115 -0.520119 0.110473
v 0.263182 -0.741030 0.110480
v 0.263042 -0.299207 0.110466
v 0.263115 -0.520119 0.110473
v 0.483953 -0.299136 0.110444
v 0.484020 -0.520047 0.110451
v 0.483931 -0.299143 -0.110470
v 0.483999 -0.520055 -0.110463
v 0.263021 -0.299214 -0.110448
v 0.263090 -0.520125 -0.110441
v 0.263021 -0.299214 -0.110448
v 0.263090 -0.520125 -0.110441
v 0.263042 -0.299207 0.110466
v 0.263115 -0.520119 0.110473
v 0.262968 -0.078295 0.110459
v 0.263042 -0.299207 0.110466
v 0.483879 -0.078224 0.110437
v 0.483953 -0.299136 0.110444
v 0.483858 -0.078232 -0.110477
v 0.483931 -0.299143 -0.110470
v 0.262949 -0.078302 -0.110455
v 0.263021 -0.299214 -0.110448
v 0.262896 0.142616 0.110451
v 0.483810 0.142687 0.110431
v 0.262878 0.142610 -0.110462
v 0.483786 0.142680 -0.110484
v 0.262896 0.142616 0.110451
v 0.262968 -0.078295 0.110459
v 0.483810 0.142687 0.110431
v 0.483879 -0.078224 0.110437
v 0.483786 0.142680 -0.110484
v 0.483858 -0.078232 -0.110477
v 0.262878 0.142610 -0.110462
v 0.262949 -0.078302 -0.110455
v 0.262878 0.142610 -0.110462
v 0.262949 -0.078302 -0.110455
v 0.262896 0.142616 0.110451
v 0.262968 -0.078295 0.110459
v 0.042383 -1.182930 -0.110399
v 0.263294 -1.182859 -0.110421
v 0.042402 -1.182923 0.110515
v 0.263325 -1.182853 0.110494
v 0.042337 -0.962011 0.110508
v 0.042402 -1.182923 0.110515
v 0.263252 -0.961941 0.110487
v 0.263325 -1.182853 0.110494
v 0.263233 -0.961948 -0.110428
v 0.263294 -1.182859 -0.110421
v 0.042313 -0.962018 -0.110407
v 0.042383 -1.182930 -0.110399
v 0.042263 -0.741100 0.110501
v 0.263182 -0.741030 0.110480
v 0.042244 -0.741107 -0.110413
v 0.263163 -0.741036 -0.110434
v 0.042263 -0.741100 0.110501
v 0.042337 -0.962011 0.110508
v 0.263182 -0.741030 0.110480
v 0.263252 -0.961941 0.110487
v 0.263163 -0.741036 -0.110434
v 0.263233 -0.961948 -0.110428
v 0.042244 -0.741107 -0.110413
v 0.042313 -0.962018 -0.110407
v 0.042053 -0.078365 0.110479
v 0.262968 -0.078295 0.110459
v 0.042032 -0.078372 -0.110434
v 0.262949 -0.078302 -0.110455
v 0.042101 -0.299283 -0.110427
v 0.263021 -0.299214 -0.110448
v 0.042122 -0.299276 0.110487
v 0.263042 -0.299207 0.110466
v 0.042053 -0.078365 0.110479
v 0.042122 -0.299276 0.110487
v 0.262968 -0.078295 0.110459
v 0.263042 -0.299207 0.110466
v 0.262949 -0.078302 -0.110455
v 0.263021 -0.299214 -0.110448
v 0.042032 -0.078372 -0.110434
v 0.042101 -0.299283 -0.110427
v -0.178524 -1.183001 -0.110378
v 0.042383 -1.182930 -0.110399
v -0.178501 -1.182994 0.110536
v 0.042402 -1.182923 0.110515
v -0.178570 -0.962082 0.110530
v -0.178501 -1.182994 0.110536
v 0.042337 -0.962011 0.110508
v 0.042402 -1.182923 0.110515
v 0.042313 -0.962018 -0.110407
v 0.042383 -1.182930 -0.110399
v -0.178591 -0.962090 -0.110384
v -0.178524 -1.183001 -0.110378
v -0.178591 -0.962090 -0.110384
v -0.178524 -1.183001 -0.110378
v -0.178570 -0.962082 0.110530
v -0.178501 -1.182994 0.110536
v -0.178642 -0.741171 0.110523
v -0.178570 -0.962082 0.110530
v 0.042263 -0.741100 0.110501
v 0.042337 -0.962011 0.110508
v 0.042244 -0.741107 -0.110413
v 0.042313 -0.962018 -0.110407
v -0.178661 -0.741178 -0.110392
v -0.178591 -0.962090 -0.110384
v -0.178715 -0.520259 0.110516
v 0.042194 -0.520188 0.110494
v -0.178738 -0.520266 -0.110399
v 0.042171 -0.520195 -0.110420
v -0.178715 -0.520259 0.110516
v -0.178642 -0.741171 0.110523
v 0.042194 -0.520188 0.110494
v 0.042263 -0.741100 0.110501
v 0.042171 -0.520195 -0.110420
v 0.042244 -0.741107 -0.110413
v -0.178738 -0.520266 -0.110399
v -0.178661 -0.741178 -0.110392
v 0.042194 -0.520188 0.110494
v 0.042263 -0.741100 0.110501
v 0.042171 -0.520195 -0.110420
v 0.042244 -0.741107 -0.110413
v -0.178856 -0.078436 0.110501
v 0.042053 -0.078365 0.110479
v -0.178875 -0.078443 -0.110412
v 0.042032 -0.078372 -0.110434
v -0.178806 -0.299354 -0.110406
v 0.042101 -0.299283 -0.110427
v -0.178783 -0.299348 0.110508
v 0.042122 -0.299276 0.110487
v -0.178856 -0.078436 0.110501
v -0.178783 -0.299348 0.110508
v 0.042053 -0.078365 0.110479
v 0.042122 -0.299276 0.110487
v 0.042032 -0.078372 -0.110434
v 0.042101 -0.299283 -0.110427
v -0.178875 -0.078443 -0.110412
v -0.178806 -0.299354 -0.110406
v -0.399502 -0.962160 -0.110363
v -0.178591 -0.962090 -0.110384
v -0.399483 -0.962153 0.110551
v -0.178570 -0.962082 0.110530
v -0.399553 -0.741241 0.110544
v -0.399483 -0.962153 0.110551
v -0.178642 -0.741171 0.110523
v -0.178570 -0.962082 0.110530
v -0.178661 -0.741178 -0.110392
v -0.178591 -0.962090 -0.110384
v -0.399574 -0.741248 -0.110370
v -0.399502 -0.962160 -0.110363
v -0.399574 -0.741248 -0.110370
v -0.399502 -0.962160 -0.110363
v -0.399553 -0.741241 0.110544
v -0.399483 -0.962153 0.110551
v -0.399628 -0.520330 0.110537
v -0.399553 -0.741241 0.110544
v -0.178715 -0.520259 0.110516
v -0.178642 -0.741171 0.110523
v -0.178738 -0.520266 -0.110399
v -0.178661 -0.741178 -0.110392
v -0.399643 -0.520337 -0.110377
v -0.399574 -0.741248 -0.110370
v -0.399696 -0.299418 0.110530
v -0.399628 -0.520330 0.110537
v -0.178783 -0.299348 0.110508
v -0.178715 -0.520259 0.110516
v -0.178806 -0.299354 -0.110406
v -0.178738 -0.520266 -0.110399
v -0.399717 -0.299425 -0.110384
v -0.399643 -0.520337 -0.110377
v -0.178783 -0.299348 0.110508
v -0.178715 -0.520259 0.110516
v -0.178806 -0.299354 -0.110406
v -0.178738 -0.520266 -0.110399
v -0.399769 -0.078506 0.110523
v -0.399696 -0.299418 0.110530
v -0.178856 -0.078436 0.110501
v -0.178783 -0.299348 0.110508
v -0.178875 -0.078443 -0.110412
v -0.178806 -0.299354 -0.110406
v -0.399786 -0.078514 -0.110391
v -0.399717 -0.299425 -0.110384
v -0.399786 -0.078514 -0.110391
v -0.399717 -0.299425 -0.110384
v -0.399769 -0.078506 0.110523
v -0.399696 -0.299418 0.110530
v -0.399837 0.142405 0.110516
v -0.178928 0.142476 0.110495
v -0.399860 0.142398 -0.110398
v -0.178951 0.142468 -0.110420
v -0.399837 0.142405 0.110516
v -0.399769 -0.078506 0.110523
v -0.178928 0.142476 0.110495
v -0.178856 -0.078436 0.110501
v -0.178951 0.142468 -0.110420
v -0.178875 -0.078443 -0.110412
v -0.399860 0.142398 -0.110398
v -0.399786 -0.078514 -0.110391
v -0.178928 0.142476 0.110495
v -0.178856 -0.078436 0.110501
v -0.178951 0.142468 -0.110420
v -0.178875 -0.078443 -0.110412
v -0.620480 -0.741319 -0.110348
v -0.399574 -0.741248 -0.110370
v -0.620462 -0.741312 0.110566
v -0.399553 -0.741241 0.110544
v -0.620533 -0.520401 0.110559
v -0.620462 -0.741312 0.110566
v -0.399628 -0.520330 0.110537
v -0.399553 -0.741241 0.110544
v -0.399643 -0.520337 -0.110377
v -0.399574 -0.741248 -0.110370
v -0.620556 -0.520408 -0.110356
v -0.620480 -0.741319 -0.110348
v -0.620556 -0.520408 -0.110356
v -0.620480 -0.741319 -0.110348
v -0.620533 -0.520401 0.110559
v -0.620462 -0.741312 0.110566
v -0.620604 -0.299489 0.110552
v -0.399696 -0.299418 0.110530
v -0.620626 -0.299496 -0.110362
v -0.399717 -0.299425 -0.110384
v -0.620604 -0.299489 0.110552
v -0.620533 -0.520401 0.110559
v -0.399696 -0.299418 0.110530
v -0.399628 -0.520330 0.110537
v -0.399717 -0.299425 -0.110384
v -0.399643 -0.520337 -0.110377
v -0.620626 -0.299496 -0.110362
v -0.620556 -0.520408 -0.110356
v -0.620626 -0.299496 -0.110362
v -0.620556 -0.520408 -0.110356
v -0.620604 -0.299489 0.110552
v -0.620533 -0.520401 0.110559
v -0.620743 0.142334 0.110537
v -0.399837 0.142405 0.110516
v -0.620766 0.142327 -0.110377
v -0.399860 0.142398 -0.110398
v -0.620699 -0.078584 -0.110369
v -0.399786 -0.078514 -0.110391
v -0.620676 -0.078578 0.110545
v -0.399769 -0.078506 0.110523
v -0.620743 0.142334 0.110537
v -0.620676 -0.078578 0.110545
v -0.399837 0.142405 0.110516
v -0.399769 -0.078506 0.110523
v -0.399860 0.142398 -0.110398
v -0.399786 -0.078514 -0.110391
v -0.620766 0.142327 -0.110377
v -0.620699 -0.078584 -0.110369
v -0.620766 0.142327 -0.110377
v -0.620699 -0.078584 -0.110369
v -0.620743 0.142334 0.110537
v -0.620676 -0.078578 0.110545
v -0.632854 1.026609 -0.110598
v -0.411940 1.026680 -0.110619
v -0.632833 1.026617 0.110317
v -0.411924 1.026687 0.110295
v -0.632902 1.247528 0.110310
v -0.632833 1.026617 0.110317
v -0.411989 1.247599 0.110288
v -0.411924 1.026687 0.110295
v -0.412012 1.247592 -0.110626
v -0.411940 1.026680 -0.110619
v -0.632923 1.247521 -0.110605
v -0.632854 1.026609 -0.110598
v -0.411989 1.247599 0.110288
v -0.411924 1.026687 0.110295
v -0.412012 1.247592 -0.110626
v -0.411940 1.026680 -0.110619
v -0.632975 1.468439 0.110302
v -0.412062 1.468510 0.110282
v -0.632996 1.468432 -0.110612
v -0.412085 1.468503 -0.110634
v -0.632975 1.468439 0.110302
v -0.632902 1.247528 0.110310
v -0.412062 1.468510 0.110282
v -0.411989 1.247599 0.110288
v -0.412085 1.468503 -0.110634
v -0.412012 1.247592 -0.110626
v -0.632996 1.468432 -0.110612
v -0.632923 1.247521 -0.110605
v -0.412062 1.468510 0.110282
v -0.411989 1.247599 0.110288
v -0.412085 1.468503 -0.110634
v -0.412012 1.247592 -0.110626
v -0.853689 0.805626 -0.110569
v -0.632780 0.805697 -0.110591
v -0.853666 0.805634 0.110345
v -0.632759 0.805703 0.110324
v -0.853739 1.026546 0.110338
v -0.853666 0.805634 0.110345
v -0.632833 1.026617 0.110317
v -0.632759 0.805703 0.110324
v -0.632854 1.026609 -0.110598
v -0.632780 0.805697 -0.110591
v -0.853762 1.026538 -0.110575
v -0.853689 0.805626 -0.110569
v -0.853762 1.026538 -0.110575
v -0.853689 0.805626 -0.110569
v -0.853739 1.026546 0.110338
v -0.853666 0.805634 0.110345
v -0.632833 1.026617 0.110317
v -0.632759 0.805703 0.110324
v -0.632854 1.026609 -0.110598
v -0.632780 0.805697 -0.110591
v -0.853811 1.247456 0.110331
v -0.853739 1.026546 0.110338
v -0.632902 1.247528 0.110310
v -0.632833 1.026617 0.110317
v -0.632923 1.247521 -0.110605
v -0.632854 1.026609 -0.110598
v -0.853828 1.247450 -0.110583
v -0.853762 1.026538 -0.110575
v -0.853828 1.247450 -0.110583
v -0.853762 1.026538 -0.110575
v -0.853811 1.247456 0.110331
v -0.853739 1.026546 0.110338
v -0.853884 1.468368 0.110324
v -0.632975 1.468439 0.110302
v -0.853903 1.468360 -0.110590
v -0.632996 1.468432 -0.110612
v -0.853884 1.468368 0.110324
v -0.853811 1.247456 0.110331
v -0.632975 1.468439 0.110302
v -0.632902 1.247528 0.110310
v -0.632996 1.468432 -0.110612
v -0.632923 1.247521 -0.110605
v -0.853903 1.468360 -0.110590
v -0.853828 1.247450 -0.110583
v -0.853903 1.468360 -0.110590
v -0.853828 1.247450 -0.110583
v -0.853884 1.468368 0.110324
v -0.853811 1.247456 0.110331
vt 0.001953 0.001953
vt 0.001953 0.001953
vt 0.001953 0.001953
vt 0.001953 0.001953
vt 0.001953 0.001953
vt 0.001953 0.001953
vt 0.001953 0.001953
vt 0.001953 0.001953
vt 0.001953 0.001953
vt 0.001953 0.001953
vt 0.001953 0.001953
vt 0.001953 0.001953
vt 0.001953 0.001953
vt 0.001953 0.001953
vt 0.001953 0.001953
vt 0.001953 0.001953
vt 0.001953 0.001953
vt 0.001953 0.001953
vt 0.001953 0.001953
vt 0.001953 0.001953
vt 0.001953 0.001953
vt 0.001953 0.001953
vt 0.001953 0.001953
vt 0.001953 0.001953
vt 0.001953 0.001953
vt 0.001953 0.001953
vt 0.001953 0.001953
vt 0.001953 0.001953
vt 0.001953 0.001953
vt 0.001953 0.001953
vt 0.001953 0.001953
vt 0.001953 0.001953
vt 0.001953 0.001953
vt 0.001953 0.001953
vt 0.001953 0.001953
vt 0.001953 0.001953
vt 0.001953 0.001953
vt 0.001953 0.001953
vt 0.001953 0.001953
vt 0.001953 0.001953
vt 0.001953 0.001953
vt 0.001953 0.001953
vt 0.001953 0.001953
vt 0.001953 0.001953
vt 0.001953 0.001953
vt 0.001953 0.001953
vt 0.001953 0.001953
vt 0.001953 0.001953
vt 0.001953 0.001953
vt 0.001953 0.001953
vt 0.001953 0.001953
vt 0.001953 0.001953
vt 0.001953 0.001953
vt 0.001953 0.001953
vt 0.001953 0.001953
vt 0.001953 0.001953
vt 0.001953 0.001953
vt 0.001953 0.001953
vt 0.001953 0.001953
vt 0.001953 0.001953
vt 0.001953 0.001953
vt 0.001953 0.001953
vt 0.001953 0.001953
vt 0.001953 0.001953
vt 0.001953 0.001953
vt 0.001953 0.001953
vt 0.001953 0.001953
vt 0.001953 0.001953
vt 0.001953 0.001953
vt 0.001953 0.001953
vt 0.001953 0.001953
vt 0.001953 0.001953
vt 0.001953 0.001953
vt 0.001953 0.001953
vt 0.001953 0.001953
vt 0.001953 0.001953
vt 0.001953 0.001953
vt 0.001953 0.001953
vt 0.001953 0.001953
vt 0.001953 0.001953
vt 0.001953 0.001953
vt 0.001953 0.001953
vt 0.001953 0.001953
vt 0.001953 0.001953
vt 0.001953 0.001953
vt 0.001953 0.001953
vt 0.001953 0.001953
vt 0.001953 0.001953
vt 0.001953 0.001953
vt 0.001953 0.001953
vt 0.001953 0.001953
vt 0.001953 0.001953
vt 0.001953 0.001953
vt 0.001953 0.001953
vt 0.001953 0.001953
vt 0.001953 0.001953
vt 0.001953 0.001953
vt 0.001953 0.001953
vt 0.001953 0.001953
vt 0.001953 0.001953
vt 0.001953 0.001953
vt 0.001953 0.001953
vt 0.001953 0.001953
vt 0.001953 0.001953
vt 0.001953 0.001953
vt 0.001953 0.001953
vt 0.001953 0.001953
vt 0.001953 0.001953
vt 0.001953 0.001953
vt 0.001953 0.001953
vt 0.001953 0.001953
vt 0.001953 0.001953
vt 0.001953 0.001953
vt 0.001953 0.001953
vt 0.001953 0.001953
vt 0.001953 0.001953
vt 0.001953 0.001953
vt 0.001953 0.001953
vt 0.001953 0.001953
vt 0.001953 0.001953
vt 0.001953 0.001953
vt 0.001953 0.001953
vt 0.001953 0.001953
vt 0.001953 0.001953
vt 0.001953 0.001953
vt 0.001953 0.001953
vt 0.001953 0.001953
vt 0.001953 0.001953
vt 0.001953 0.001953
vt 0.001953 0.001953
vt 0.001953 0.001953
vt 0.001953 0.001953
vt 0.001953 0.001953
vt 0.001953 0.001953
vt 0.001953 0.001953
vt 0.001953 0.001953
vt 0.001953 0.001953
vt 0.001953 0.001953
vt 0.001953 0.001953
vt 0.001953 0.001953
vt 0.001953 0.001953
vt 0.001953 0.001953
vt 0.001953 0.001953
vt 0.001953 0.001953
vt 0.001953 0.001953
vt 0.001953 0.001953
vt 0.001953 0.001953
vt 0.001953 0.001953
vt 0.001953 0.001953
vt 0.001953 0.001953
vt 0.001953 0.001953
vt 0.001953 0.001953
vt 0.001953 0.001953
vt 0.001953 0.001953
vt 0.001953 0.001953
vt 0.001953 0.001953
vt 0.001953 0.001953
vt 0.001953 0.001953
vt 0.001953 0.001953
vt 0.001953 0.001953
vt 0.001953 0.001953
vt 0.001953 0.001953
vt 0.001953 0.001953
vt 0.001953 0.001953
vt 0.001953 0.001953
vt 0.001953 0.001953
vt 0.001953 0.001953
vt 0.001953 0.001953
vt 0.001953 0.001953
vt 0.001953 0.001953
vt 0.001953 0.001953
vt 0.001953 0.001953
vt 0.001953 0.001953
vt 0.001953 0.001953
vt 0.001953 0.001953
vt 0.001953 0.001953
vt 0.001953 0.001953
vt 0.001953 0.001953
vt 0.001953 0.001953
vt 0.001953 0.001953
vt 0.001953 0.001953
vt 0.001953 0.001953
vt 0.001953 0.001953
vt 0.001953 0.001953
vt 0.001953 0.001953
vt 0.001953 0.001953
vt 0.001953 0.001953
vt 0.001953 0.001953
vt 0.001953 0.001953
vt 0.001953 0.001953
vt 0.001953 0.001953
vt 0.001953 0.001953
vt 0.001953 0.001953
vt 0.001953 0.001953
vt 0.001953 0.001953
vt 0.001953 0.001953
vt 0.001953 0.001953
vt 0.001953 0.001953
vt 0.001953 0.001953
vt 0.001953 0.001953
vt 0.001953 0.001953
vt 0.001953 0.001953
vt 0.001953 0.001953
vt 0.001953 0.001953
vt 0.001953 0.001953
vt 0.001953 0.001953
vt 0.001953 0.001953
vt 0.001953 0.001953
vt 0.001953 0.001953
vt 0.001953 0.001953
vt 0.001953 0.001953
vt 0.001953 0.001953
vt 0.001953 0.001953
vt 0.001953 0.001953
vt 0.001953 0.001953
vt 0.001953 0.001953
vt 0.001953 0.001953
vt 0.001953 0.001953
vt 0.001953 0.001953
vt 0.001953 0.001953
vt 0.001953 0.001953
vt 0.001953 0.001953
vt 0.001953 0.001953
vt 0.001953 0.001953
vt 0.001953 0.001953
vt 0.001953 0.001953
vt 0.001953 0.001953
vt 0.001953 0.001953
vt 0.001953 0.001953
vt 0.001953 0.001953
vt 0.001953 0.001953
vt 0.001953 0.001953
vt 0.001953 0.001953
vt 0.001953 0.001953
vt 0.001953 0.001953
vt 0.001953 0.001953
vt 0.001953 0.001953
vt 0.001953 0.001953
vt 0.001953 0.001953
vt 0.001953 0.001953
vt 0.001953 0.001953
vt 0.001953 0.001953
vt 0.001953 0.001953
vt 0.001953 0.001953
vt 0.001953 0.001953
vt 0.001953 0.001953
vt 0.001953 0.001953
vt 0.001953 0.001953
vt 0.001953 0.001953
vt 0.001953 0.001953
vt 0.001953 0.001953
vt 0.001953 0.001953
vt 0.001953 0.001953
vt 0.001953 0.001953
vt 0.001953 0.001953
vt 0.001953 0.001953
vt 0.001953 0.001953
vt 0.001953 0.001953
vt 0.001953 0.001953
vt 0.001953 0.001953
vt 0.001953 0.001953
vt 0.001953 0.001953
vt 0.001953 0.001953
vt 0.001953 0.001953
vt 0.001953 0.001953
vt 0.001953 0.001953
vt 0.001953 0.001953
vt 0.001953 0.001953
vt 0.001953 0.001953
vt 0.001953 0.001953
vt 0.001953 0.001953
vt 0.001953 0.001953
vt 0.001953 0.001953
vt 0.001953 0.001953
vt 0.001953 0.001953
vt 0.001953 0.001953
vt 0.001953 0.001953
vt 0.001953 0.001953
vt 0.001953 0.001953
vt 0.001953 0.001953
vt 0.001953 0.001953
vt 0.001953 0.001953
vt 0.001953 0.001953
vt 0.001953 0.001953
vt 0.001953 0.001953
vt 0.001953 0.001953
vt 0.001953 0.001953
vt 0.001953 0.001953
vt 0.001953 0.001953
vt 0.001953 0.001953
vt 0.001953 0.001953
vt 0.001953 0.001953
vt 0.001953 0.001953
vt 0.001953 0.001953
vt 0.001953 0.001953
vt 0.001953 0.001953
vt 0.001953 0.001953
vt 0.001953 0.001953
vt 0.001953 0.001953
vt 0.001953 0.001953
vt 0.001953 0.001953
vt 0.001953 0.001953
vt 0.001953 0.001953
vt 0.001953 0.001953
vt 0.001953 0.001953
vt 0.001953 0.001953
vt 0.001953 0.001953
vt 0.001953 0.001953
vt 0.001953 0.001953
vt 0.001953 0.001953
vt 0.001953 0.001953
vt 0.001953 0.001953
vt 0.001953 0.001953
vt 0.001953 0.001953
vt 0.001953 0.001953
vt 0.001953 0.001953
vt 0.001953 0.001953
vt 0.001953 0.001953
vt 0.001953 0.001953
vt 0.001953 0.001953
vt 0.001953 0.001953
vt 0.001953 0.001953
vt 0.001953 0.001953
vt 0.001953 0.001953
vt 0.001953 0.001953
vt 0.001953 0.001953
vt 0.001953 0.001953
vt 0.001953 0.001953
vt 0.001953 0.001953
vt 0.001953 0.001953
vt 0.001953 0.001953
vt 0.001953 0.001953
vt 0.001953 0.001953
vt 0.001953 0.001953
vt 0.001953 0.001953
vt 0.001953 0.001953
vt 0.001953 0.001953
vt 0.001953 0.001953
vt 0.001953 0.001953
vt 0.001953 0.001953
vt 0.001953 0.001953
vt 0.001953 0.001953
vt 0.001953 0.001953
vt 0.001953 0.001953
vt 0.001953 0.001953
vt 0.001953 0.001953
vt 0.001953 0.001953
vt 0.001953 0.001953
vt 0.001953 0.001953
vt 0.001953 0.001953
vt 0.001953 0.001953
vt 0.001953 0.001953
vt 0.001953 0.001953
vt 0.001953 0.001953
vt 0.001953 0.001953
vt 0.001953 0.001953
vt 0.001953 0.001953
vt 0.001953 0.001953
vt 0.001953 0.001953
vt 0.001953 0.001953
vt 0.001953 0.001953
vt 0.001953 0.001953
vt 0.001953 0.001953
vt 0.001953 0.001953
vt 0.001953 0.001953
vt 0.001953 0.001953
vt 0.001953 0.001953
vt 0.001953 0.001953
vt 0.001953 0.001953
vt 0.001953 0.001953
vt 0.001953 0.001953
vt 0.001953 0.001953
vt 0.001953 0.001953
vt 0.001953 0.001953
vt 0.001953 0.001953
vt 0.001953 0.001953
vt 0.001953 0.001953
vt 0.001953 0.001953
vt 0.001953 0.001953
vt 0.001953 0.001953
vt 0.001953 0.001953
vt 0.001953 0.001953
vt 0.001953 0.001953
vt 0.001953 0.001953
vt 0.001953 0.001953
vt 0.001953 0.001953
vt 0.001953 0.001953
vt 0.001953 0.001953
vt 0.001953 0.001953
vt 0.001953 0.001953
vt 0.001953 0.001953
vt 0.001953 0.001953
vt 0.001953 0.001953
vt 0.001953 0.001953
vt 0.001953 0.001953
vt 0.001953 0.001953
vt 0.001953 0.001953
vt 0.001953 0.001953
vt 0.001953 0.001953
vt 0.001953 0.001953
vt 0.001953 0.001953
vt 0.001953 0.001953
vt 0.001953 0.001953
vt 0.001953 0.001953
vt 0.001953 0.001953
vt 0.001953 0.001953
vt 0.001953 0.001953
vt 0.001953 0.001953
vt 0.001953 0.001953
vt 0.001953 0.001953
vt 0.001953 0.001953
vt 0.001953 0.001953
vt 0.001953 0.001953
vt 0.001953 0.001953
vt 0.001953 0.001953
vt 0.001953 0.001953
vt 0.001953 0.001953
vt 0.001953 0.001953
vt 0.001953 0.001953
vt 0.001953 0.001953
vt 0.001953 0.001953
vt 0.001953 0.001953
vt 0.001953 0.001953
vt 0.001953 0.001953
vt 0.001953 0.001953
vt 0.001953 0.001953
vt 0.001953 0.001953
vt 0.001953 0.001953
vt 0.001953 0.001953
vt 0.001953 0.001953
vt 0.001953 0.001953
vt 0.001953 0.001953
vt 0.001953 0.001953
vt 0.001953 0.001953
vt 0.001953 0.001953
vt 0.001953 0.001953
vt 0.001953 0.001953
vt 0.001953 0.001953
vt 0.001953 0.001953
vt 0.001953 0.001953
vt 0.001953 0.001953
vt 0.001953 0.001953
vt 0.001953 0.001953
vt 0.001953 0.001953
vt 0.001953 0.001953
vt 0.001953 0.001953
vt 0.001953 0.001953
vt 0.001953 0.001953
vt 0.001953 0.001953
vt 0.001953 0.001953
vt 0.001953 0.001953
vt 0.001953 0.001953
vt 0.001953 0.001953
vt 0.001953 0.001953
vt 0.001953 0.001953
vt 0.001953 0.001953
vt 0.001953 0.001953
vt 0.001953 0.001953
vt 0.001953 0.001953
vt 0.001953 0.001953
vt 0.001953 0.001953
vt 0.001953 0.001953
vt 0.001953 0.001953
vt 0.001953 0.001953
vt 0.001953 0.001953
vt 0.001953 0.001953
vt 0.001953 0.001953
vt 0.001953 0.001953
vt 0.001953 0.001953
vt 0.001953 0.001953
vt 0.001953 0.001953
vt 0.001953 0.001953
vt 0.001953 0.001953
vt 0.001953 0.001953
vt 0.001953 0.001953
vt 0.001953 0.001953
vt 0.001953 0.001953
vt 0.001953 0.001953
vt 0.001953 0.001953
vt 0.001953 0.001953
vt 0.001953 0.001953
vt 0.001953 0.001953
vt 0.001953 0.001953
vt 0.001953 0.001953
vt 0.001953 0.001953
vt 0.001953 0.001953
vt 0.001953 0.001953
vt 0.001953 0.001953
vt 0.001953 0.001953
vt 0.001953 0.001953
vt 0.001953 0.001953
vt 0.001953 0.001953
vt 0.001953 0.001953
vt 0.001953 0.001953
vt 0.001953 0.001953
vt 0.001953 0.001953
vt 0.001953 0.001953
vt 0.001953 0.001953
vt 0.001953 0.001953
vt 0.001953 0.001953
vt 0.001953 0.001953
vt 0.001953 0.001953
vt 0.001953 0.001953
vt 0.001953 0.001953
vt 0.001953 0.001953
vt 0.001953 0.001953
vt 0.001953 0.001953
vt 0.001953 0.001953
vt 0.001953 0.001953
vt 0.001953 0.001953
vt 0.001953 0.001953
vt 0.001953 0.001953
vt 0.001953 0.001953
vt 0.001953 0.001953
vt 0.001953 0.001953
vt 0.001953 0.001953
vt 0.001953 0.001953
vt 0.001953 0.001953
vt 0.001953 0.001953
vt 0.001953 0.001953
vt 0.001953 0.001953
vt 0.001953 0.001953
vt 0.001953 0.001953
vt 0.001953 0.001953
vt 0.001953 0.001953
vt 0.001953 0.001953
vt 0.001953 0.001953
vt 0.001953 0.001953
vt 0.001953 0.001953
vt 0.001953 0.001953
vt 0.001953 0.001953
vt 0.001953 0.001953
vt 0.001953 0.001953
vt 0.001953 0.001953
vt 0.001953 0.001953
vt 0.001953 0.001953
vt 0.001953 0.001953
vt 0.001953 0.001953
vt 0.001953 0.001953
vt 0.001953 0.001953
vt 0.001953 0.001953
vt 0.001953 0.001953
vt 0.001953 0.001953
vt 0.001953 0.001953
vt 0.001953 0.001953
vt 0.001953 0.001953
vt 0.001953 0.001953
vt 0.001953 0.001953
vt 0.001953 0.001953
vt 0.001953 0.001953
vt 0.001953 0.001953
vt 0.001953 0.001953
vt 0.001953 0.001953
vt 0.001953 0.001953
vt 0.001953 0.001953
vt 0.001953 0.001953
vt 0.001953 0.001953
vt 0.001953 0.001953
vt 0.001953 0.001953
vt 0.001953 0.001953
vt 0.001953 0.001953
vt 0.001953 0.001953
vt 0.001953 0.001953
vt 0.001953 0.001953
vt 0.001953 0.001953
vt 0.001953 0.001953
vt 0.001953 0.001953
vt 0.001953 0.001953
vt 0.001953 0.001953
vt 0.001953 0.001953
vt 0.001953 0.001953
vt 0.001953 0.001953
vt 0.001953 0.001953
vt 0.001953 0.001953
vt 0.001953 0.001953
vt 0.001953 0.001953
vt 0.001953 0.001953
vt 0.001953 0.001953
vt 0.001953 0.001953
vt 0.001953 0.001953
vt 0.001953 0.001953
vt 0.001953 0.001953
vt 0.001953 0.001953
vt 0.001953 0.001953
vt 0.001953 0.001953
vt 0.001953 0.001953
vt 0.001953 0.001953
vt 0.001953 0.001953
vt 0.001953 0.001953
vt 0.001953 0.001953
vt 0.001953 0.001953
vt 0.001953 0.001953
vt 0.001953 0.001953
vt 0.001953 0.001953
vt 0.001953 0.001953
vt 0.001953 0.001953
vt 0.001953 0.001953
vt 0.001953 0.001953
vt 0.001953 0.001953
vt 0.001953 0.001953
vt 0.001953 0.001953
vt 0.001953 0.001953
vt 0.001953 0.001953
vt 0.001953 0.001953
vt 0.001953 0.001953
vt 0.001953 0.001953
vt 0.001953 0.001953
vt 0.001953 0.001953
vt 0.001953 0.001953
vt 0.001953 0.001953
vt 0.001953 0.001953
vt 0.001953 0.001953
vt 0.001953 0.001953
vt 0.001953 0.001953
vt 0.001953 0.001953
vt 0.001953 0.001953
vt 0.001953 0.001953
vt 0.001953 0.001953
vt 0.001953 0.001953
vt 0.001953 0.001953
vt 0.001953 0.001953
vt 0.001953 0.001953
vt 0.001953 0.001953
vt 0.001953 0.001953
vt 0.001953 0.001953
vt 0.001953 0.001953
vt 0.001953 0.001953
vt 0.001953 0.001953
vt 0.001953 0.001953
vt 0.001953 0.001953
vt 0.001953 0.001953
vt 0.001953 0.001953
vn 0.0003 -1.0000 0.0000
vn 0.0001 0.0000 1.0000
vn -0.0001 -0.0000 -1.0000
vn 1.0000 0.0003 -0.0001
vn -0.0003 1.0000 -0.0000
vn -1.0000 -0.0003 0.0001
vn 1.0000 0.0003 -0.0002
usemtl VRVox/StandardVertex
s 1
f 1/1/1 2/2/1 3/3/1
f 3/3/1 2/2/1 4/4/1
f 5/5/2 6/6/2 7/7/2
f 7/7/2 6/6/2 8/8/2
f 9/9/3 10/10/3 11/11/3
f 11/11/3 10/10/3 12/12/3
f 13/13/4 14/14/4 15/15/4
f 15/15/4 14/14/4 16/16/4
f 17/17/2 18/18/2 19/19/2
f 19/19/2 18/18/2 20/20/2
f 21/21/3 22/22/3 23/23/3
f 23/23/3 22/22/3 24/24/3
f 25/25/4 26/26/4 27/27/4
f 27/27/4 26/26/4 28/28/4
f 29/29/5 30/30/5 31/31/5
f 31/31/5 30/30/5 32/32/5
f 33/33/2 34/34/2 35/35/2
f 35/35/2 34/34/2 36/36/2
f 37/37/3 38/38/3 39/39/3
f 39/39/3 38/38/3 40/40/3
f 41/41/4 42/42/4 43/43/4
f 43/43/4 42/42/4 44/44/4
f 45/45/1 46/46/1 47/47/1
f 47/47/1 46/46/1 48/48/1
f 49/49/2 50/50/2 51/51/2
f 51/51/2 50/50/2 52/52/2
f 53/53/3 54/54/3 55/55/3
f 55/55/3 54/54/3 56/56/3
f 57/57/6 58/58/6 59/59/6
f 59/59/6 58/58/6 60/60/6
f 61/61/2 62/62/2 63/63/2
f 63/63/2 62/62/2 64/64/2
f 65/65/3 66/66/3 67/67/3
f 67/67/3 66/66/3 68/68/3
f 69/69/5 70/70/5 71/71/5
f 71/71/5 70/70/5 72/72/5
f 73/73/2 74/74/2 75/75/2
f 75/75/2 74/74/2 76/76/2
f 77/77/3 78/78/3 79/79/3
f 79/79/3 78/78/3 80/80/3
f 81/81/1 82/82/1 83/83/1
f 83/83/1 82/82/1 84/84/1
f 85/85/2 86/86/2 87/87/2
f 87/87/2 86/86/2 88/88/2
f 89/89/3 90/90/3 91/91/3
f 91/91/3 90/90/3 92/92/3
f 93/93/5 94/94/5 95/95/5
f 95/95/5 94/94/5 96/96/5
f 97/97/2 98/98/2 99/99/2
f 99/99/2 98/98/2 100/100/2
f 101/101/3 102/102/3 103/103/3
f 103/103/3 102/102/3 104/104/3
f 105/105/1 106/106/1 107/107/1
f 107/107/1 106/106/1 108/108/1
f 109/109/2 110/110/2 111/111/2
f 111/111/2 110/110/2 112/112/2
f 113/113/3 114/114/3 115/115/3
f 115/115/3 114/114/3 116/116/3
f 117/117/7 118/118/7 119/119/7
f 119/119/7 118/118/7 120/120/7
f 121/121/2 122/122/2 123/123/2
f 123/123/2 122/122/2 124/124/2
f 125/125/3 126/126/3 127/127/3
f 127/127/3 126/126/3 128/128/3
f 129/129/5 130/130/5 131/131/5
f 131/131/5 130/130/5 132/132/5
f 133/133/2 134/134/2 135/135/2
f 135/135/2 134/134/2 136/136/2
f 137/137/3 138/138/3 139/139/3
f 139/139/3 138/138/3 140/140/3
f 141/141/6 142/142/6 143/143/6
f 143/143/6 142/142/6 144/144/6
f 145/145/1 146/146/1 147/147/1
f 147/147/1 146/146/1 148/148/1
f 149/149/2 150/150/2 151/151/2
f 151/151/2 150/150/2 152/152/2
f 153/153/3 154/154/3 155/155/3
f 155/155/3 154/154/3 156/156/3
f 157/157/5 158/158/5 159/159/5
f 159/159/5 158/158/5 160/160/5
f 161/161/2 162/162/2 163/163/2
f 163/163/2 162/162/2 164/164/2
f 165/165/3 166/166/3 167/167/3
f 167/167/3 166/166/3 168/168/3
f 169/169/6 170/170/6 171/171/6
f 171/171/6 170/170/6 172/172/6
f 173/173/5 174/174/5 175/175/5
f 175/175/5 174/174/5 176/176/5
f 177/177/1 178/178/1 179/179/1
f 179/179/1 178/178/1 180/180/1
f 181/181/2 182/182/2 183/183/2
f 183/183/2 182/182/2 184/184/2
f 185/185/3 186/186/3 187/187/3
f 187/187/3 186/186/3 188/188/3
f 189/189/6 190/190/6 191/191/6
f 191/191/6 190/190/6 192/192/6
f 193/193/1 194/194/1 195/195/1
f 195/195/1 194/194/1 196/196/1
f 197/197/2 198/198/2 199/199/2
f 199/199/2 198/198/2 200/200/2
f 201/201/3 202/202/3 203/203/3
f 203/203/3 202/202/3 204/204/3
f 205/205/4 206/206/4 207/207/4
f 207/207/4 206/206/4 208/208/4
f 209/209/2 210/210/2 211/211/2
f 211/211/2 210/210/2 212/212/2
f 213/213/3 214/214/3 215/215/3
f 215/215/3 214/214/3 216/216/3
f 217/217/4 218/218/4 219/219/4
f 219/219/4 218/218/4 220/220/4
f 221/221/2 222/222/2 223/223/2
f 223/223/2 222/222/2 224/224/2
f 225/225/3 226/226/3 227/227/3
f 227/227/3 226/226/3 228/228/3
f 229/229/4 230/230/4 231/231/4
f 231/231/4 230/230/4 232/232/4
f 233/233/2 234/234/2 235/235/2
f 235/235/2 234/234/2 236/236/2
f 237/237/3 238/238/3 239/239/3
f 239/239/3 238/238/3 240/240/3
f 241/241/4 242/242/4 243/243/4
f 243/243/4 242/242/4 244/244/4
f 245/245/2 246/246/2 247/247/2
f 247/247/2 246/246/2 248/248/2
f 249/249/3 250/250/3 251/251/3
f 251/251/3 250/250/3 252/252/3
f 253/253/4 254/254/4 255/255/4
f 255/255/4 254/254/4 256/256/4
f 257/257/5 258/258/5 259/259/5
f 259/259/5 258/258/5 260/260/5
f 261/261/2 262/262/2 263/263/2
f 263/263/2 262/262/2 264/264/2
f 265/265/3 266/266/3 267/267/3
f 267/267/3 266/266/3 268/268/3
f 269/269/4 270/270/4 271/271/4
f 271/271/4 270/270/4 272/272/4
f 273/273/1 274/274/1 275/275/1
f 275/275/1 274/274/1 276/276/1
f 277/277/2 278/278/2 279/279/2
f 279/279/2 278/278/2 280/280/2
f 281/281/3 282/282/3 283/283/3
f 283/283/3 282/282/3 284/284/3
f 285/285/2 286/286/2 287/287/2
f 287/287/2 286/286/2 288/288/2
f 289/289/3 290/290/3 291/291/3
f 291/291/3 290/290/3 292/292/3
f 293/293/2 294/294/2 295/295/2
f 295/295/2 294/294/2 296/296/2
f 297/297/3 298/298/3 299/299/3
f 299/299/3 298/298/3 300/300/3
f 301/301/6 302/302/6 303/303/6
f 303/303/6 302/302/6 304/304/6
f 305/305/2 306/306/2 307/307/2
f 307/307/2 306/306/2 308/308/2
f 309/309/3 310/310/3 311/311/3
f 311/311/3 310/310/3 312/312/3
f 313/313/6 314/314/6 315/315/6
f 315/315/6 314/314/6 316/316/6
f 317/317/2 318/318/2 319/319/2
f 319/319/2 318/318/2 320/320/2
f 321/321/3 322/322/3 323/323/3
f 323/323/3 322/322/3 324/324/3
f 325/325/5 326/326/5 327/327/5
f 327/327/5 326/326/5 328/328/5
f 329/329/2 330/330/2 331/331/2
f 331/331/2 330/330/2 332/332/2
f 333/333/3 334/334/3 335/335/3
f 335/335/3 334/334/3 336/336/3
f 337/337/6 338/338/6 339/339/6
f 339/339/6 338/338/6 340/340/6
f 341/341/1 342/342/1 343/343/1
f 343/343/1 342/342/1 344/344/1
f 345/345/2 346/346/2 347/347/2
f 347/347/2 346/346/2 348/348/2
f 349/349/3 350/350/3 351/351/3
f 351/351/3 350/350/3 352/352/3
f 353/353/5 354/354/5 355/355/5
f 355/355/5 354/354/5 356/356/5
f 357/357/2 358/358/2 359/359/2
f 359/359/2 358/358/2 360/360/2
f 361/361/3 362/362/3 363/363/3
f 363/363/3 362/362/3 364/364/3
f 365/365/5 366/366/5 367/367/5
f 367/367/5 366/366/5 368/368/5
f 369/369/1 370/370/1 371/371/1
f 371/371/1 370/370/1 372/372/1
f 373/373/2 374/374/2 375/375/2
f 375/375/2 374/374/2 376/376/2
f 377/377/3 378/378/3 379/379/3
f 379/379/3 378/378/3 380/380/3
f 381/381/1 382/382/1 383/383/1
f 383/383/1 382/382/1 384/384/1
f 385/385/2 386/386/2 387/387/2
f 387/387/2 386/386/2 388/388/2
f 389/389/3 390/390/3 391/391/3
f 391/391/3 390/390/3 392/392/3
f 393/393/6 394/394/6 395/395/6
f 395/395/6 394/394/6 396/396/6
f 397/397/2 398/398/2 399/399/2
f 399/399/2 398/398/2 400/400/2
f 401/401/3 402/402/3 403/403/3
f 403/403/3 402/402/3 404/404/3
f 405/405/5 406/406/5 407/407/5
f 407/407/5 406/406/5 408/408/5
f 409/409/2 410/410/2 411/411/2
f 411/411/2 410/410/2 412/412/2
f 413/413/3 414/414/3 415/415/3
f 415/415/3 414/414/3 416/416/3
f 417/417/4 418/418/4 419/419/4
f 419/419/4 418/418/4 420/420/4
f 421/421/5 422/422/5 423/423/5
f 423/423/5 422/422/5 424/424/5
f 425/425/1 426/426/1 427/427/1
f 427/427/1 426/426/1 428/428/1
f 429/429/2 430/430/2 431/431/2
f 431/431/2 430/430/2 432/432/2
f 433/433/3 434/434/3 435/435/3
f 435/435/3 434/434/3 436/436/3
f 437/437/1 438/438/1 439/439/1
f 439/439/1 438/438/1 440/440/1
f 441/441/2 442/442/2 443/443/2
f 443/443/2 442/442/2 444/444/2
f 445/445/3 446/446/3 447/447/3
f 447/447/3 446/446/3 448/448/3
f 449/449/6 450/450/6 451/451/6
f 451/451/6 450/450/6 452/452/6
f 453/453/2 454/454/2 455/455/2
f 455/455/2 454/454/2 456/456/2
f 457/457/3 458/458/3 459/459/3
f 459/459/3 458/458/3 460/460/3
f 461/461/2 462/462/2 463/463/2
f 463/463/2 462/462/2 464/464/2
f 465/465/3 466/466/3 467/467/3
f 467/467/3 466/466/3 468/468/3
f 469/469/4 470/470/4 471/471/4
f 471/471/4 470/470/4 472/472/4
f 473/473/2 474/474/2 475/475/2
f 475/475/2 474/474/2 476/476/2
f 477/477/3 478/478/3 479/479/3
f 479/479/3 478/478/3 480/480/3
f 481/481/6 482/482/6 483/483/6
f 483/483/6 482/482/6 484/484/6
f 485/485/5 486/486/5 487/487/5
f 487/487/5 486/486/5 488/488/5
f 489/489/2 490/490/2 491/491/2
f 491/491/2 490/490/2 492/492/2
f 493/493/3 494/494/3 495/495/3
f 495/495/3 494/494/3 496/496/3
f 497/497/4 498/498/4 499/499/4
f 499/499/4 498/498/4 500/500/4
f 501/501/1 502/502/1 503/503/1
f 503/503/1 502/502/1 504/504/1
f 505/505/2 506/506/2 507/507/2
f 507/507/2 506/506/2 508/508/2
f 509/509/3 510/510/3 511/511/3
f 511/511/3 510/510/3 512/512/3
f 513/513/6 514/514/6 515/515/6
f 515/515/6 514/514/6 516/516/6
f 517/517/5 518/518/5 519/519/5
f 519/519/5 518/518/5 520/520/5
f 521/521/2 522/522/2 523/523/2
f 523/523/2 522/522/2 524/524/2
f 525/525/3 526/526/3 527/527/3
f 527/527/3 526/526/3 528/528/3
f 529/529/6 530/530/6 531/531/6
f 531/531/6 530/530/6 532/532/6
f 533/533/5 534/534/5 535/535/5
f 535/535/5 534/534/5 536/536/5
f 537/537/1 538/538/1 539/539/1
f 539/539/1 538/538/1 540/540/1
f 541/541/2 542/542/2 543/543/2
f 543/543/2 542/542/2 544/544/2
f 545/545/3 546/546/3 547/547/3
f 547/547/3 546/546/3 548/548/3
f 549/549/6 550/550/6 551/551/6
f 551/551/6 550/550/6 552/552/6
f 553/553/1 554/554/1 555/555/1
f 555/555/1 554/554/1 556/556/1
f 557/557/2 558/558/2 559/559/2
f 559/559/2 558/558/2 560/560/2
f 561/561/3 562/562/3 563/563/3
f 563/563/3 562/562/3 564/564/3
f 565/565/4 566/566/4 567/567/4
f 567/567/4 566/566/4 568/568/4
f 569/569/5 570/570/5 571/571/5
f 571/571/5 570/570/5 572/572/5
f 573/573/2 574/574/2 575/575/2
f 575/575/2 574/574/2 576/576/2
f 577/577/3 578/578/3 579/579/3
f 579/579/3 578/578/3 580/580/3
f 581/581/4 582/582/4 583/583/4
f 583/583/4 582/582/4 584/584/4
f 585/585/1 586/586/1 587/587/1
f 587/587/1 586/586/1 588/588/1
f 589/589/2 590/590/2 591/591/2
f 591/591/2 590/590/2 592/592/2
f 593/593/3 594/594/3 595/595/3
f 595/595/3 594/594/3 596/596/3
f 597/597/6 598/598/6 599/599/6
f 599/599/6 598/598/6 600/600/6
f 601/601/4 602/602/4 603/603/4
f 603/603/4 602/602/4 604/604/4
f 605/605/2 606/606/2 607/607/2
f 607/607/2 606/606/2 608/608/2
f 609/609/3 610/610/3 611/611/3
f 611/611/3 610/610/3 612/612/3
f 613/613/6 614/614/6 615/615/6
f 615/615/6 614/614/6 616/616/6
f 617/617/5 618/618/5 619/619/5
f 619/619/5 618/618/5 620/620/5
f 621/621/2 622/622/2 623/623/2
f 623/623/2 622/622/2 624/624/2
f 625/625/3 626/626/3 627/627/3
f 627/627/3 626/626/3 628/628/3
f 629/629/6 630/630/6 631/631/6
f 631/631/6 630/630/6 632/632/6
