# Blender v2.79 (sub 0) OBJ File: 'PIxelAlphabet.blend'
# www.blender.org
mtllib fi.mtl
o Fi_Chunk(Clone).012
v 0.461933 -0.022087 -0.110350
v 0.682840 -0.022016 -0.110372
v 0.461956 -0.022080 0.110564
v 0.682867 -0.022009 0.110543
v 0.461882 0.198832 0.110557
v 0.461956 -0.022080 0.110564
v 0.682795 0.198902 0.110536
v 0.682867 -0.022009 0.110543
v 0.682775 0.198895 -0.110378
v 0.682840 -0.022016 -0.110372
v 0.461864 0.198825 -0.110357
v 0.461933 -0.022087 -0.110350
v 0.682795 0.198902 0.110536
v 0.682867 -0.022009 0.110543
v 0.682775 0.198895 -0.110378
v 0.682840 -0.022016 -0.110372
v 0.461811 0.419743 0.110550
v 0.682720 0.419814 0.110528
v 0.461788 0.419736 -0.110364
v 0.682703 0.419807 -0.110385
v 0.461811 0.419743 0.110550
v 0.461882 0.198832 0.110557
v 0.682720 0.419814 0.110528
v 0.682795 0.198902 0.110536
v 0.682703 0.419807 -0.110385
v 0.682775 0.198895 -0.110378
v 0.461788 0.419736 -0.110364
v 0.461864 0.198825 -0.110357
v 0.682720 0.419814 0.110528
v 0.682795 0.198902 0.110536
v 0.682703 0.419807 -0.110385
v 0.682775 0.198895 -0.110378
v 0.241022 -0.022158 -0.110329
v 0.461933 -0.022087 -0.110350
v 0.241047 -0.022151 0.110585
v 0.461956 -0.022080 0.110564
v 0.240973 0.198761 0.110579
v 0.241047 -0.022151 0.110585
v 0.461882 0.198832 0.110557
v 0.461956 -0.022080 0.110564
v 0.461864 0.198825 -0.110357
v 0.461933 -0.022087 -0.110350
v 0.240950 0.198755 -0.110335
v 0.241022 -0.022158 -0.110329
v 0.240950 0.198755 -0.110335
v 0.241022 -0.022158 -0.110329
v 0.240973 0.198761 0.110579
v 0.241047 -0.022151 0.110585
v 0.240904 0.419673 0.110571
v 0.240973 0.198761 0.110579
v 0.461811 0.419743 0.110550
v 0.461882 0.198832 0.110557
v 0.461788 0.419736 -0.110364
v 0.461864 0.198825 -0.110357
v 0.240879 0.419666 -0.110342
v 0.240950 0.198755 -0.110335
v 0.240831 0.640584 0.110565
v 0.461744 0.640655 0.110543
v 0.240808 0.640577 -0.110349
v 0.461720 0.640648 -0.110371
v 0.240831 0.640584 0.110565
v 0.240904 0.419673 0.110571
v 0.461744 0.640655 0.110543
v 0.461811 0.419743 0.110550
v 0.461720 0.640648 -0.110371
v 0.461788 0.419736 -0.110364
v 0.240808 0.640577 -0.110349
v 0.240879 0.419666 -0.110342
v 0.461744 0.640655 0.110543
v 0.461811 0.419743 0.110550
v 0.461720 0.640648 -0.110371
v 0.461788 0.419736 -0.110364
v 0.020039 0.198684 -0.110315
v 0.240950 0.198755 -0.110335
v 0.020060 0.198690 0.110600
v 0.240973 0.198761 0.110579
v 0.019989 0.419602 0.110593
v 0.020060 0.198690 0.110600
v 0.240904 0.419673 0.110571
v 0.240973 0.198761 0.110579
v 0.240879 0.419666 -0.110342
v 0.240950 0.198755 -0.110335
v 0.019966 0.419595 -0.110321
v 0.020039 0.198684 -0.110315
v 0.019918 0.640513 0.110586
v 0.240831 0.640584 0.110565
v 0.019896 0.640507 -0.110328
v 0.240808 0.640577 -0.110349
v 0.019918 0.640513 0.110586
v 0.019989 0.419602 0.110593
v 0.240831 0.640584 0.110565
v 0.240904 0.419673 0.110571
v 0.240808 0.640577 -0.110349
v 0.240879 0.419666 -0.110342
v 0.019896 0.640507 -0.110328
v 0.019966 0.419595 -0.110321
v -0.200874 0.198613 -0.110293
v 0.020039 0.198684 -0.110315
v -0.200846 0.198620 0.110622
v 0.020060 0.198690 0.110600
v -0.200920 0.419532 0.110614
v -0.200846 0.198620 0.110622
v 0.019989 0.419602 0.110593
v 0.020060 0.198690 0.110600
v 0.019966 0.419595 -0.110321
v 0.020039 0.198684 -0.110315
v -0.200943 0.419524 -0.110299
v -0.200874 0.198613 -0.110293
v -0.200993 0.640443 0.110607
v 0.019918 0.640513 0.110586
v -0.201012 0.640436 -0.110306
v 0.019896 0.640507 -0.110328
v -0.200993 0.640443 0.110607
v -0.200920 0.419532 0.110614
v 0.019918 0.640513 0.110586
v 0.019989 0.419602 0.110593
v 0.019896 0.640507 -0.110328
v 0.019966 0.419595 -0.110321
v -0.201012 0.640436 -0.110306
v -0.200943 0.419524 -0.110299
v -0.421783 0.198543 -0.110271
v -0.200874 0.198613 -0.110293
v -0.421761 0.198549 0.110643
v -0.200846 0.198620 0.110622
v -0.421833 0.419461 0.110636
v -0.421761 0.198549 0.110643
v -0.200920 0.419532 0.110614
v -0.200846 0.198620 0.110622
v -0.200943 0.419524 -0.110299
v -0.200874 0.198613 -0.110293
v -0.421854 0.419454 -0.110278
v -0.421783 0.198543 -0.110271
v -0.421902 0.640372 0.110629
v -0.200993 0.640443 0.110607
v -0.421926 0.640366 -0.110285
v -0.201012 0.640436 -0.110306
v -0.421902 0.640372 0.110629
v -0.421833 0.419461 0.110636
v -0.200993 0.640443 0.110607
v -0.200920 0.419532 0.110614
v -0.201012 0.640436 -0.110306
v -0.200943 0.419524 -0.110299
v -0.421926 0.640366 -0.110285
v -0.421854 0.419454 -0.110278
v -0.642694 0.198472 -0.110250
v -0.421783 0.198543 -0.110271
v -0.642675 0.198479 0.110665
v -0.421761 0.198549 0.110643
v -0.642744 0.419391 0.110657
v -0.642675 0.198479 0.110665
v -0.421833 0.419461 0.110636
v -0.421761 0.198549 0.110643
v -0.421854 0.419454 -0.110278
v -0.421783 0.198543 -0.110271
v -0.642767 0.419384 -0.110257
v -0.642694 0.198472 -0.110250
v -0.642767 0.419384 -0.110257
v -0.642694 0.198472 -0.110250
v -0.642744 0.419391 0.110657
v -0.642675 0.198479 0.110665
v -0.642817 0.640302 0.110650
v -0.421902 0.640372 0.110629
v -0.642836 0.640295 -0.110263
v -0.421926 0.640366 -0.110285
v -0.642817 0.640302 0.110650
v -0.642744 0.419391 0.110657
v -0.421902 0.640372 0.110629
v -0.421833 0.419461 0.110636
v -0.421926 0.640366 -0.110285
v -0.421854 0.419454 -0.110278
v -0.642836 0.640295 -0.110263
v -0.642767 0.419384 -0.110257
v -0.642836 0.640295 -0.110263
v -0.642767 0.419384 -0.110257
v -0.642817 0.640302 0.110650
v -0.642744 0.419391 0.110657
v 0.462355 -1.347556 -0.110308
v 0.683268 -1.347486 -0.110330
v 0.462376 -1.347548 0.110606
v 0.683289 -1.347479 0.110584
v 0.462305 -1.126637 0.110599
v 0.462376 -1.347548 0.110606
v 0.683216 -1.126567 0.110577
v 0.683289 -1.347479 0.110584
v 0.683195 -1.126575 -0.110337
v 0.683268 -1.347486 -0.110330
v 0.462284 -1.126644 -0.110315
v 0.462355 -1.347556 -0.110308
v 0.683216 -1.126567 0.110577
v 0.683289 -1.347479 0.110584
v 0.683195 -1.126575 -0.110337
v 0.683268 -1.347486 -0.110330
v 0.462234 -0.905725 0.110592
v 0.462305 -1.126637 0.110599
v 0.683149 -0.905656 0.110571
v 0.683216 -1.126567 0.110577
v 0.683126 -0.905662 -0.110344
v 0.683195 -1.126575 -0.110337
v 0.462214 -0.905733 -0.110322
v 0.462284 -1.126644 -0.110315
v 0.683149 -0.905656 0.110571
v 0.683216 -1.126567 0.110577
v 0.683126 -0.905662 -0.110344
v 0.683195 -1.126575 -0.110337
v 0.462164 -0.684814 0.110585
v 0.462234 -0.905725 0.110592
v 0.683075 -0.684744 0.110563
v 0.683149 -0.905656 0.110571
v 0.683054 -0.684751 -0.110351
v 0.683126 -0.905662 -0.110344
v 0.462143 -0.684821 -0.110329
v 0.462214 -0.905733 -0.110322
v 0.683075 -0.684744 0.110563
v 0.683149 -0.905656 0.110571
v 0.683054 -0.684751 -0.110351
v 0.683126 -0.905662 -0.110344
v 0.462091 -0.463903 0.110578
v 0.462164 -0.684814 0.110585
v 0.683002 -0.463832 0.110556
v 0.683075 -0.684744 0.110563
v 0.682985 -0.463840 -0.110358
v 0.683054 -0.684751 -0.110351
v 0.462069 -0.463910 -0.110336
v 0.462143 -0.684821 -0.110329
v 0.683002 -0.463832 0.110556
v 0.683075 -0.684744 0.110563
v 0.682985 -0.463840 -0.110358
v 0.683054 -0.684751 -0.110351
v 0.462027 -0.242991 0.110572
v 0.462091 -0.463903 0.110578
v 0.682932 -0.242920 0.110550
v 0.683002 -0.463832 0.110556
v 0.682913 -0.242928 -0.110365
v 0.682985 -0.463840 -0.110358
v 0.462000 -0.242998 -0.110343
v 0.462069 -0.463910 -0.110336
v 0.682932 -0.242920 0.110550
v 0.683002 -0.463832 0.110556
v 0.682913 -0.242928 -0.110365
v 0.682985 -0.463840 -0.110358
v 0.461954 -0.022079 0.110564
v 0.682863 -0.022009 0.110543
v 0.461931 -0.022086 -0.110350
v 0.682838 -0.022016 -0.110372
v 0.461954 -0.022079 0.110564
v 0.462027 -0.242991 0.110572
v 0.682863 -0.022009 0.110543
v 0.682932 -0.242920 0.110550
v 0.682838 -0.022016 -0.110372
v 0.682913 -0.242928 -0.110365
v 0.461931 -0.022086 -0.110350
v 0.462000 -0.242998 -0.110343
v 0.682863 -0.022009 0.110543
v 0.682932 -0.242920 0.110550
v 0.682838 -0.022016 -0.110372
v 0.682913 -0.242928 -0.110365
v 0.241444 -1.347626 -0.110287
v 0.462355 -1.347556 -0.110308
v 0.241463 -1.347620 0.110627
v 0.462376 -1.347548 0.110606
v 0.241394 -1.126708 0.110620
v 0.241463 -1.347620 0.110627
v 0.462305 -1.126637 0.110599
v 0.462376 -1.347548 0.110606
v 0.462284 -1.126644 -0.110315
v 0.462355 -1.347556 -0.110308
v 0.241373 -1.126715 -0.110294
v 0.241444 -1.347626 -0.110287
v 0.241373 -1.126715 -0.110294
v 0.241444 -1.347626 -0.110287
v 0.241394 -1.126708 0.110620
v 0.241463 -1.347620 0.110627
v 0.241322 -0.905797 0.110613
v 0.241394 -1.126708 0.110620
v 0.462234 -0.905725 0.110592
v 0.462305 -1.126637 0.110599
v 0.462214 -0.905733 -0.110322
v 0.462284 -1.126644 -0.110315
v 0.241302 -0.905803 -0.110301
v 0.241373 -1.126715 -0.110294
v 0.241302 -0.905803 -0.110301
v 0.241373 -1.126715 -0.110294
v 0.241322 -0.905797 0.110613
v 0.241394 -1.126708 0.110620
v 0.241255 -0.684885 0.110606
v 0.241322 -0.905797 0.110613
v 0.462164 -0.684814 0.110585
v 0.462234 -0.905725 0.110592
v 0.462143 -0.684821 -0.110329
v 0.462214 -0.905733 -0.110322
v 0.241232 -0.684892 -0.110308
v 0.241302 -0.905803 -0.110301
v 0.241232 -0.684892 -0.110308
v 0.241302 -0.905803 -0.110301
v 0.241255 -0.684885 0.110606
v 0.241322 -0.905797 0.110613
v 0.241180 -0.463973 0.110599
v 0.241255 -0.684885 0.110606
v 0.462091 -0.463903 0.110578
v 0.462164 -0.684814 0.110585
v 0.462069 -0.463910 -0.110336
v 0.462143 -0.684821 -0.110329
v 0.241159 -0.463980 -0.110314
v 0.241232 -0.684892 -0.110308
v 0.241112 -0.243062 0.110593
v 0.241180 -0.463973 0.110599
v 0.462027 -0.242991 0.110572
v 0.462091 -0.463903 0.110578
v 0.462000 -0.242998 -0.110343
v 0.462069 -0.463910 -0.110336
v 0.241091 -0.243069 -0.110322
v 0.241159 -0.463980 -0.110314
v 0.241045 -0.022151 0.110586
v 0.461954 -0.022079 0.110564
v 0.241020 -0.022157 -0.110328
v 0.461931 -0.022086 -0.110350
v 0.241045 -0.022151 0.110586
v 0.241112 -0.243062 0.110593
v 0.461954 -0.022079 0.110564
v 0.462027 -0.242991 0.110572
v 0.461931 -0.022086 -0.110350
v 0.462000 -0.242998 -0.110343
v 0.241020 -0.022157 -0.110328
v 0.241091 -0.243069 -0.110322
v 0.241020 -0.022157 -0.110328
v 0.241091 -0.243069 -0.110322
v 0.241045 -0.022151 0.110586
v 0.241112 -0.243062 0.110593
v 0.020321 -0.684962 -0.110286
v 0.241232 -0.684892 -0.110308
v 0.020340 -0.684956 0.110628
v 0.241255 -0.684885 0.110606
v 0.020269 -0.464044 0.110621
v 0.020340 -0.684956 0.110628
v 0.241180 -0.463973 0.110599
v 0.241255 -0.684885 0.110606
v 0.241159 -0.463980 -0.110314
v 0.241232 -0.684892 -0.110308
v 0.020248 -0.464051 -0.110293
v 0.020321 -0.684962 -0.110286
v 0.020197 -0.243133 0.110613
v 0.241112 -0.243062 0.110593
v 0.020176 -0.243139 -0.110300
v 0.241091 -0.243069 -0.110322
v 0.020197 -0.243133 0.110613
v 0.020269 -0.464044 0.110621
v 0.241112 -0.243062 0.110593
v 0.241180 -0.463973 0.110599
v 0.241091 -0.243069 -0.110322
v 0.241159 -0.463980 -0.110314
v 0.020176 -0.243139 -0.110300
v 0.020248 -0.464051 -0.110293
v -0.200588 -0.685033 -0.110265
v 0.020321 -0.684962 -0.110286
v -0.200569 -0.685026 0.110649
v 0.020340 -0.684956 0.110628
v -0.200638 -0.464114 0.110642
v -0.200569 -0.685026 0.110649
v 0.020269 -0.464044 0.110621
v 0.020340 -0.684956 0.110628
v 0.020248 -0.464051 -0.110293
v 0.020321 -0.684962 -0.110286
v -0.200661 -0.464121 -0.110272
v -0.200588 -0.685033 -0.110265
v -0.200710 -0.243203 0.110635
v 0.020197 -0.243133 0.110613
v -0.200731 -0.243210 -0.110279
v 0.020176 -0.243139 -0.110300
v -0.200710 -0.243203 0.110635
v -0.200638 -0.464114 0.110642
v 0.020197 -0.243133 0.110613
v 0.020269 -0.464044 0.110621
v 0.020176 -0.243139 -0.110300
v 0.020248 -0.464051 -0.110293
v -0.200731 -0.243210 -0.110279
v -0.200661 -0.464121 -0.110272
v -0.421499 -0.685103 -0.110243
v -0.200588 -0.685033 -0.110265
v -0.421480 -0.685097 0.110671
v -0.200569 -0.685026 0.110649
v -0.421553 -0.464185 0.110664
v -0.421480 -0.685097 0.110671
v -0.200638 -0.464114 0.110642
v -0.200569 -0.685026 0.110649
v -0.200661 -0.464121 -0.110272
v -0.200588 -0.685033 -0.110265
v -0.421570 -0.464192 -0.110250
v -0.421499 -0.685103 -0.110243
v -0.421570 -0.464192 -0.110250
v -0.421499 -0.685103 -0.110243
v -0.421553 -0.464185 0.110664
v -0.421480 -0.685097 0.110671
v -0.421618 -0.243274 0.110657
v -0.200710 -0.243203 0.110635
v -0.421644 -0.243280 -0.110257
v -0.200731 -0.243210 -0.110279
v -0.421618 -0.243274 0.110657
v -0.421553 -0.464185 0.110664
v -0.200710 -0.243203 0.110635
v -0.200638 -0.464114 0.110642
v -0.200731 -0.243210 -0.110279
v -0.200661 -0.464121 -0.110272
v -0.421644 -0.243280 -0.110257
v -0.421570 -0.464192 -0.110250
v -0.421644 -0.243280 -0.110257
v -0.421570 -0.464192 -0.110250
v -0.421618 -0.243274 0.110657
v -0.421553 -0.464185 0.110664
v -0.865021 0.864172 -0.111172
v -0.644106 0.864242 -0.111193
v -0.865000 0.864179 0.109742
v -0.644091 0.864250 0.109720
v -0.865068 1.085090 0.109735
v -0.865000 0.864179 0.109742
v -0.644156 1.085161 0.109713
v -0.644091 0.864250 0.109720
v -0.644178 1.085155 -0.111200
v -0.644106 0.864242 -0.111193
v -0.865089 1.085083 -0.111179
v -0.865021 0.864172 -0.111172
v -0.644156 1.085161 0.109713
v -0.644091 0.864250 0.109720
v -0.644178 1.085155 -0.111200
v -0.644106 0.864242 -0.111193
v -0.865141 1.306002 0.109728
v -0.644228 1.306072 0.109707
v -0.865162 1.305995 -0.111186
v -0.644251 1.306066 -0.111208
v -0.865141 1.306002 0.109728
v -0.865068 1.085090 0.109735
v -0.644228 1.306072 0.109707
v -0.644156 1.085161 0.109713
v -0.644251 1.306066 -0.111208
v -0.644178 1.085155 -0.111200
v -0.865162 1.305995 -0.111186
v -0.865089 1.085083 -0.111179
v -0.644228 1.306072 0.109707
v -0.644156 1.085161 0.109713
v -0.644251 1.306066 -0.111208
v -0.644178 1.085155 -0.111200
v -1.085855 0.643188 -0.111143
v -0.864946 0.643260 -0.111165
v -1.085833 0.643196 0.109771
v -0.864925 0.643266 0.109749
v -1.085905 0.864108 0.109764
v -1.085833 0.643196 0.109771
v -0.865000 0.864179 0.109742
v -0.864925 0.643266 0.109749
v -0.865021 0.864172 -0.111172
v -0.864946 0.643260 -0.111165
v -1.085928 0.864100 -0.111150
v -1.085855 0.643188 -0.111143
v -1.085928 0.864100 -0.111150
v -1.085855 0.643188 -0.111143
v -1.085905 0.864108 0.109764
v -1.085833 0.643196 0.109771
v -0.865000 0.864179 0.109742
v -0.864925 0.643266 0.109749
v -0.865021 0.864172 -0.111172
v -0.864946 0.643260 -0.111165
v -1.085978 1.085019 0.109757
v -1.085905 0.864108 0.109764
v -0.865068 1.085090 0.109735
v -0.865000 0.864179 0.109742
v -0.865089 1.085083 -0.111179
v -0.865021 0.864172 -0.111172
v -1.085995 1.085012 -0.111157
v -1.085928 0.864100 -0.111150
v -1.085995 1.085012 -0.111157
v -1.085928 0.864100 -0.111150
v -1.085978 1.085019 0.109757
v -1.085905 0.864108 0.109764
v -1.086050 1.305931 0.109750
v -0.865141 1.306002 0.109728
v -1.086069 1.305923 -0.111164
v -0.865162 1.305995 -0.111186
v -1.086050 1.305931 0.109750
v -1.085978 1.085019 0.109757
v -0.865141 1.306002 0.109728
v -0.865068 1.085090 0.109735
v -0.865162 1.305995 -0.111186
v -0.865089 1.085083 -0.111179
v -1.086069 1.305923 -0.111164
v -1.085995 1.085012 -0.111157
v -1.086069 1.305923 -0.111164
v -1.085995 1.085012 -0.111157
v -1.086050 1.305931 0.109750
v -1.085978 1.085019 0.109757
vt 0.001953 0.001953
vt 0.001953 0.001953
vt 0.001953 0.001953
vt 0.001953 0.001953
vt 0.001953 0.001953
vt 0.001953 0.001953
vt 0.001953 0.001953
vt 0.001953 0.001953
vt 0.001953 0.001953
vt 0.001953 0.001953
vt 0.001953 0.001953
vt 0.001953 0.001953
vt 0.001953 0.001953
vt 0.001953 0.001953
vt 0.001953 0.001953
vt 0.001953 0.001953
vt 0.001953 0.001953
vt 0.001953 0.001953
vt 0.001953 0.001953
vt 0.001953 0.001953
vt 0.001953 0.001953
vt 0.001953 0.001953
vt 0.001953 0.001953
vt 0.001953 0.001953
vt 0.001953 0.001953
vt 0.001953 0.001953
vt 0.001953 0.001953
vt 0.001953 0.001953
vt 0.001953 0.001953
vt 0.001953 0.001953
vt 0.001953 0.001953
vt 0.001953 0.001953
vt 0.001953 0.001953
vt 0.001953 0.001953
vt 0.001953 0.001953
vt 0.001953 0.001953
vt 0.001953 0.001953
vt 0.001953 0.001953
vt 0.001953 0.001953
vt 0.001953 0.001953
vt 0.001953 0.001953
vt 0.001953 0.001953
vt 0.001953 0.001953
vt 0.001953 0.001953
vt 0.001953 0.001953
vt 0.001953 0.001953
vt 0.001953 0.001953
vt 0.001953 0.001953
vt 0.001953 0.001953
vt 0.001953 0.001953
vt 0.001953 0.001953
vt 0.001953 0.001953
vt 0.001953 0.001953
vt 0.001953 0.001953
vt 0.001953 0.001953
vt 0.001953 0.001953
vt 0.001953 0.001953
vt 0.001953 0.001953
vt 0.001953 0.001953
vt 0.001953 0.001953
vt 0.001953 0.001953
vt 0.001953 0.001953
vt 0.001953 0.001953
vt 0.001953 0.001953
vt 0.001953 0.001953
vt 0.001953 0.001953
vt 0.001953 0.001953
vt 0.001953 0.001953
vt 0.001953 0.001953
vt 0.001953 0.001953
vt 0.001953 0.001953
vt 0.001953 0.001953
vt 0.001953 0.001953
vt 0.001953 0.001953
vt 0.001953 0.001953
vt 0.001953 0.001953
vt 0.001953 0.001953
vt 0.001953 0.001953
vt 0.001953 0.001953
vt 0.001953 0.001953
vt 0.001953 0.001953
vt 0.001953 0.001953
vt 0.001953 0.001953
vt 0.001953 0.001953
vt 0.001953 0.001953
vt 0.001953 0.001953
vt 0.001953 0.001953
vt 0.001953 0.001953
vt 0.001953 0.001953
vt 0.001953 0.001953
vt 0.001953 0.001953
vt 0.001953 0.001953
vt 0.001953 0.001953
vt 0.001953 0.001953
vt 0.001953 0.001953
vt 0.001953 0.001953
vt 0.001953 0.001953
vt 0.001953 0.001953
vt 0.001953 0.001953
vt 0.001953 0.001953
vt 0.001953 0.001953
vt 0.001953 0.001953
vt 0.001953 0.001953
vt 0.001953 0.001953
vt 0.001953 0.001953
vt 0.001953 0.001953
vt 0.001953 0.001953
vt 0.001953 0.001953
vt 0.001953 0.001953
vt 0.001953 0.001953
vt 0.001953 0.001953
vt 0.001953 0.001953
vt 0.001953 0.001953
vt 0.001953 0.001953
vt 0.001953 0.001953
vt 0.001953 0.001953
vt 0.001953 0.001953
vt 0.001953 0.001953
vt 0.001953 0.001953
vt 0.001953 0.001953
vt 0.001953 0.001953
vt 0.001953 0.001953
vt 0.001953 0.001953
vt 0.001953 0.001953
vt 0.001953 0.001953
vt 0.001953 0.001953
vt 0.001953 0.001953
vt 0.001953 0.001953
vt 0.001953 0.001953
vt 0.001953 0.001953
vt 0.001953 0.001953
vt 0.001953 0.001953
vt 0.001953 0.001953
vt 0.001953 0.001953
vt 0.001953 0.001953
vt 0.001953 0.001953
vt 0.001953 0.001953
vt 0.001953 0.001953
vt 0.001953 0.001953
vt 0.001953 0.001953
vt 0.001953 0.001953
vt 0.001953 0.001953
vt 0.001953 0.001953
vt 0.001953 0.001953
vt 0.001953 0.001953
vt 0.001953 0.001953
vt 0.001953 0.001953
vt 0.001953 0.001953
vt 0.001953 0.001953
vt 0.001953 0.001953
vt 0.001953 0.001953
vt 0.001953 0.001953
vt 0.001953 0.001953
vt 0.001953 0.001953
vt 0.001953 0.001953
vt 0.001953 0.001953
vt 0.001953 0.001953
vt 0.001953 0.001953
vt 0.001953 0.001953
vt 0.001953 0.001953
vt 0.001953 0.001953
vt 0.001953 0.001953
vt 0.001953 0.001953
vt 0.001953 0.001953
vt 0.001953 0.001953
vt 0.001953 0.001953
vt 0.001953 0.001953
vt 0.001953 0.001953
vt 0.001953 0.001953
vt 0.001953 0.001953
vt 0.001953 0.001953
vt 0.001953 0.001953
vt 0.001953 0.001953
vt 0.001953 0.001953
vt 0.001953 0.001953
vt 0.001953 0.001953
vt 0.001953 0.001953
vt 0.001953 0.001953
vt 0.001953 0.001953
vt 0.001953 0.001953
vt 0.001953 0.001953
vt 0.001953 0.001953
vt 0.001953 0.001953
vt 0.001953 0.001953
vt 0.001953 0.001953
vt 0.001953 0.001953
vt 0.001953 0.001953
vt 0.001953 0.001953
vt 0.001953 0.001953
vt 0.001953 0.001953
vt 0.001953 0.001953
vt 0.001953 0.001953
vt 0.001953 0.001953
vt 0.001953 0.001953
vt 0.001953 0.001953
vt 0.001953 0.001953
vt 0.001953 0.001953
vt 0.001953 0.001953
vt 0.001953 0.001953
vt 0.001953 0.001953
vt 0.001953 0.001953
vt 0.001953 0.001953
vt 0.001953 0.001953
vt 0.001953 0.001953
vt 0.001953 0.001953
vt 0.001953 0.001953
vt 0.001953 0.001953
vt 0.001953 0.001953
vt 0.001953 0.001953
vt 0.001953 0.001953
vt 0.001953 0.001953
vt 0.001953 0.001953
vt 0.001953 0.001953
vt 0.001953 0.001953
vt 0.001953 0.001953
vt 0.001953 0.001953
vt 0.001953 0.001953
vt 0.001953 0.001953
vt 0.001953 0.001953
vt 0.001953 0.001953
vt 0.001953 0.001953
vt 0.001953 0.001953
vt 0.001953 0.001953
vt 0.001953 0.001953
vt 0.001953 0.001953
vt 0.001953 0.001953
vt 0.001953 0.001953
vt 0.001953 0.001953
vt 0.001953 0.001953
vt 0.001953 0.001953
vt 0.001953 0.001953
vt 0.001953 0.001953
vt 0.001953 0.001953
vt 0.001953 0.001953
vt 0.001953 0.001953
vt 0.001953 0.001953
vt 0.001953 0.001953
vt 0.001953 0.001953
vt 0.001953 0.001953
vt 0.001953 0.001953
vt 0.001953 0.001953
vt 0.001953 0.001953
vt 0.001953 0.001953
vt 0.001953 0.001953
vt 0.001953 0.001953
vt 0.001953 0.001953
vt 0.001953 0.001953
vt 0.001953 0.001953
vt 0.001953 0.001953
vt 0.001953 0.001953
vt 0.001953 0.001953
vt 0.001953 0.001953
vt 0.001953 0.001953
vt 0.001953 0.001953
vt 0.001953 0.001953
vt 0.001953 0.001953
vt 0.001953 0.001953
vt 0.001953 0.001953
vt 0.001953 0.001953
vt 0.001953 0.001953
vt 0.001953 0.001953
vt 0.001953 0.001953
vt 0.001953 0.001953
vt 0.001953 0.001953
vt 0.001953 0.001953
vt 0.001953 0.001953
vt 0.001953 0.001953
vt 0.001953 0.001953
vt 0.001953 0.001953
vt 0.001953 0.001953
vt 0.001953 0.001953
vt 0.001953 0.001953
vt 0.001953 0.001953
vt 0.001953 0.001953
vt 0.001953 0.001953
vt 0.001953 0.001953
vt 0.001953 0.001953
vt 0.001953 0.001953
vt 0.001953 0.001953
vt 0.001953 0.001953
vt 0.001953 0.001953
vt 0.001953 0.001953
vt 0.001953 0.001953
vt 0.001953 0.001953
vt 0.001953 0.001953
vt 0.001953 0.001953
vt 0.001953 0.001953
vt 0.001953 0.001953
vt 0.001953 0.001953
vt 0.001953 0.001953
vt 0.001953 0.001953
vt 0.001953 0.001953
vt 0.001953 0.001953
vt 0.001953 0.001953
vt 0.001953 0.001953
vt 0.001953 0.001953
vt 0.001953 0.001953
vt 0.001953 0.001953
vt 0.001953 0.001953
vt 0.001953 0.001953
vt 0.001953 0.001953
vt 0.001953 0.001953
vt 0.001953 0.001953
vt 0.001953 0.001953
vt 0.001953 0.001953
vt 0.001953 0.001953
vt 0.001953 0.001953
vt 0.001953 0.001953
vt 0.001953 0.001953
vt 0.001953 0.001953
vt 0.001953 0.001953
vt 0.001953 0.001953
vt 0.001953 0.001953
vt 0.001953 0.001953
vt 0.001953 0.001953
vt 0.001953 0.001953
vt 0.001953 0.001953
vt 0.001953 0.001953
vt 0.001953 0.001953
vt 0.001953 0.001953
vt 0.001953 0.001953
vt 0.001953 0.001953
vt 0.001953 0.001953
vt 0.001953 0.001953
vt 0.001953 0.001953
vt 0.001953 0.001953
vt 0.001953 0.001953
vt 0.001953 0.001953
vt 0.001953 0.001953
vt 0.001953 0.001953
vt 0.001953 0.001953
vt 0.001953 0.001953
vt 0.001953 0.001953
vt 0.001953 0.001953
vt 0.001953 0.001953
vt 0.001953 0.001953
vt 0.001953 0.001953
vt 0.001953 0.001953
vt 0.001953 0.001953
vt 0.001953 0.001953
vt 0.001953 0.001953
vt 0.001953 0.001953
vt 0.001953 0.001953
vt 0.001953 0.001953
vt 0.001953 0.001953
vt 0.001953 0.001953
vt 0.001953 0.001953
vt 0.001953 0.001953
vt 0.001953 0.001953
vt 0.001953 0.001953
vt 0.001953 0.001953
vt 0.001953 0.001953
vt 0.001953 0.001953
vt 0.001953 0.001953
vt 0.001953 0.001953
vt 0.001953 0.001953
vt 0.001953 0.001953
vt 0.001953 0.001953
vt 0.001953 0.001953
vt 0.001953 0.001953
vt 0.001953 0.001953
vt 0.001953 0.001953
vt 0.001953 0.001953
vt 0.001953 0.001953
vt 0.001953 0.001953
vt 0.001953 0.001953
vt 0.001953 0.001953
vt 0.001953 0.001953
vt 0.001953 0.001953
vt 0.001953 0.001953
vt 0.001953 0.001953
vt 0.001953 0.001953
vt 0.001953 0.001953
vt 0.001953 0.001953
vt 0.001953 0.001953
vt 0.001953 0.001953
vt 0.001953 0.001953
vt 0.001953 0.001953
vt 0.001953 0.001953
vt 0.001953 0.001953
vt 0.001953 0.001953
vt 0.001953 0.001953
vt 0.001953 0.001953
vt 0.001953 0.001953
vt 0.001953 0.001953
vt 0.001953 0.001953
vt 0.001953 0.001953
vt 0.001953 0.001953
vt 0.001953 0.001953
vt 0.001953 0.001953
vt 0.001953 0.001953
vt 0.001953 0.001953
vt 0.001953 0.001953
vt 0.001953 0.001953
vt 0.001953 0.001953
vt 0.001953 0.001953
vt 0.001953 0.001953
vt 0.001953 0.001953
vt 0.001953 0.001953
vt 0.001953 0.001953
vt 0.001953 0.001953
vt 0.001953 0.001953
vt 0.001953 0.001953
vt 0.001953 0.001953
vt 0.001953 0.001953
vt 0.001953 0.001953
vt 0.001953 0.001953
vt 0.001953 0.001953
vt 0.001953 0.001953
vt 0.001953 0.001953
vt 0.001953 0.001953
vt 0.001953 0.001953
vt 0.001953 0.001953
vt 0.001953 0.001953
vt 0.001953 0.001953
vt 0.001953 0.001953
vt 0.001953 0.001953
vt 0.001953 0.001953
vt 0.001953 0.001953
vt 0.001953 0.001953
vt 0.001953 0.001953
vt 0.001953 0.001953
vt 0.001953 0.001953
vt 0.001953 0.001953
vt 0.001953 0.001953
vt 0.001953 0.001953
vt 0.001953 0.001953
vt 0.001953 0.001953
vt 0.001953 0.001953
vt 0.001953 0.001953
vt 0.001953 0.001953
vt 0.001953 0.001953
vt 0.001953 0.001953
vt 0.001953 0.001953
vt 0.001953 0.001953
vt 0.001953 0.001953
vt 0.001953 0.001953
vt 0.001953 0.001953
vt 0.001953 0.001953
vt 0.001953 0.001953
vt 0.001953 0.001953
vt 0.001953 0.001953
vt 0.001953 0.001953
vt 0.001953 0.001953
vt 0.001953 0.001953
vt 0.001953 0.001953
vt 0.001953 0.001953
vt 0.001953 0.001953
vt 0.001953 0.001953
vt 0.001953 0.001953
vt 0.001953 0.001953
vt 0.001953 0.001953
vt 0.001953 0.001953
vt 0.001953 0.001953
vt 0.001953 0.001953
vt 0.001953 0.001953
vt 0.001953 0.001953
vt 0.001953 0.001953
vt 0.001953 0.001953
vt 0.001953 0.001953
vt 0.001953 0.001953
vt 0.001953 0.001953
vt 0.001953 0.001953
vt 0.001953 0.001953
vt 0.001953 0.001953
vt 0.001953 0.001953
vt 0.001953 0.001953
vt 0.001953 0.001953
vt 0.001953 0.001953
vt 0.001953 0.001953
vt 0.001953 0.001953
vt 0.001953 0.001953
vt 0.001953 0.001953
vt 0.001953 0.001953
vt 0.001953 0.001953
vt 0.001953 0.001953
vt 0.001953 0.001953
vt 0.001953 0.001953
vt 0.001953 0.001953
vt 0.001953 0.001953
vt 0.001953 0.001953
vt 0.001953 0.001953
vt 0.001953 0.001953
vt 0.001953 0.001953
vt 0.001953 0.001953
vt 0.001953 0.001953
vt 0.001953 0.001953
vt 0.001953 0.001953
vn 0.0003 -1.0000 0.0000
vn 0.0001 0.0000 1.0000
vn -0.0001 -0.0000 -1.0000
vn 1.0000 0.0003 -0.0001
vn -0.0003 1.0000 -0.0000
vn -1.0000 -0.0003 0.0001
usemtl VRVox/StandardVertex
s 1
f 1/1/1 2/2/1 3/3/1
f 3/3/1 2/2/1 4/4/1
f 5/5/2 6/6/2 7/7/2
f 7/7/2 6/6/2 8/8/2
f 9/9/3 10/10/3 11/11/3
f 11/11/3 10/10/3 12/12/3
f 13/13/4 14/14/4 15/15/4
f 15/15/4 14/14/4 16/16/4
f 17/17/5 18/18/5 19/19/5
f 19/19/5 18/18/5 20/20/5
f 21/21/2 22/22/2 23/23/2
f 23/23/2 22/22/2 24/24/2
f 25/25/3 26/26/3 27/27/3
f 27/27/3 26/26/3 28/28/3
f 29/29/4 30/30/4 31/31/4
f 31/31/4 30/30/4 32/32/4
f 33/33/1 34/34/1 35/35/1
f 35/35/1 34/34/1 36/36/1
f 37/37/2 38/38/2 39/39/2
f 39/39/2 38/38/2 40/40/2
f 41/41/3 42/42/3 43/43/3
f 43/43/3 42/42/3 44/44/3
f 45/45/6 46/46/6 47/47/6
f 47/47/6 46/46/6 48/48/6
f 49/49/2 50/50/2 51/51/2
f 51/51/2 50/50/2 52/52/2
f 53/53/3 54/54/3 55/55/3
f 55/55/3 54/54/3 56/56/3
f 57/57/5 58/58/5 59/59/5
f 59/59/5 58/58/5 60/60/5
f 61/61/2 62/62/2 63/63/2
f 63/63/2 62/62/2 64/64/2
f 65/65/3 66/66/3 67/67/3
f 67/67/3 66/66/3 68/68/3
f 69/69/4 70/70/4 71/71/4
f 71/71/4 70/70/4 72/72/4
f 73/73/1 74/74/1 75/75/1
f 75/75/1 74/74/1 76/76/1
f 77/77/2 78/78/2 79/79/2
f 79/79/2 78/78/2 80/80/2
f 81/81/3 82/82/3 83/83/3
f 83/83/3 82/82/3 84/84/3
f 85/85/5 86/86/5 87/87/5
f 87/87/5 86/86/5 88/88/5
f 89/89/2 90/90/2 91/91/2
f 91/91/2 90/90/2 92/92/2
f 93/93/3 94/94/3 95/95/3
f 95/95/3 94/94/3 96/96/3
f 97/97/1 98/98/1 99/99/1
f 99/99/1 98/98/1 100/100/1
f 101/101/2 102/102/2 103/103/2
f 103/103/2 102/102/2 104/104/2
f 105/105/3 106/106/3 107/107/3
f 107/107/3 106/106/3 108/108/3
f 109/109/5 110/110/5 111/111/5
f 111/111/5 110/110/5 112/112/5
f 113/113/2 114/114/2 115/115/2
f 115/115/2 114/114/2 116/116/2
f 117/117/3 118/118/3 119/119/3
f 119/119/3 118/118/3 120/120/3
f 121/121/1 122/122/1 123/123/1
f 123/123/1 122/122/1 124/124/1
f 125/125/2 126/126/2 127/127/2
f 127/127/2 126/126/2 128/128/2
f 129/129/3 130/130/3 131/131/3
f 131/131/3 130/130/3 132/132/3
f 133/133/5 134/134/5 135/135/5
f 135/135/5 134/134/5 136/136/5
f 137/137/2 138/138/2 139/139/2
f 139/139/2 138/138/2 140/140/2
f 141/141/3 142/142/3 143/143/3
f 143/143/3 142/142/3 144/144/3
f 145/145/1 146/146/1 147/147/1
f 147/147/1 146/146/1 148/148/1
f 149/149/2 150/150/2 151/151/2
f 151/151/2 150/150/2 152/152/2
f 153/153/3 154/154/3 155/155/3
f 155/155/3 154/154/3 156/156/3
f 157/157/6 158/158/6 159/159/6
f 159/159/6 158/158/6 160/160/6
f 161/161/5 162/162/5 163/163/5
f 163/163/5 162/162/5 164/164/5
f 165/165/2 166/166/2 167/167/2
f 167/167/2 166/166/2 168/168/2
f 169/169/3 170/170/3 171/171/3
f 171/171/3 170/170/3 172/172/3
f 173/173/6 174/174/6 175/175/6
f 175/175/6 174/174/6 176/176/6
f 177/177/1 178/178/1 179/179/1
f 179/179/1 178/178/1 180/180/1
f 181/181/2 182/182/2 183/183/2
f 183/183/2 182/182/2 184/184/2
f 185/185/3 186/186/3 187/187/3
f 187/187/3 186/186/3 188/188/3
f 189/189/4 190/190/4 191/191/4
f 191/191/4 190/190/4 192/192/4
f 193/193/2 194/194/2 195/195/2
f 195/195/2 194/194/2 196/196/2
f 197/197/3 198/198/3 199/199/3
f 199/199/3 198/198/3 200/200/3
f 201/201/4 202/202/4 203/203/4
f 203/203/4 202/202/4 204/204/4
f 205/205/2 206/206/2 207/207/2
f 207/207/2 206/206/2 208/208/2
f 209/209/3 210/210/3 211/211/3
f 211/211/3 210/210/3 212/212/3
f 213/213/4 214/214/4 215/215/4
f 215/215/4 214/214/4 216/216/4
f 217/217/2 218/218/2 219/219/2
f 219/219/2 218/218/2 220/220/2
f 221/221/3 222/222/3 223/223/3
f 223/223/3 222/222/3 224/224/3
f 225/225/4 226/226/4 227/227/4
f 227/227/4 226/226/4 228/228/4
f 229/229/2 230/230/2 231/231/2
f 231/231/2 230/230/2 232/232/2
f 233/233/3 234/234/3 235/235/3
f 235/235/3 234/234/3 236/236/3
f 237/237/4 238/238/4 239/239/4
f 239/239/4 238/238/4 240/240/4
f 241/241/5 242/242/5 243/243/5
f 243/243/5 242/242/5 244/244/5
f 245/245/2 246/246/2 247/247/2
f 247/247/2 246/246/2 248/248/2
f 249/249/3 250/250/3 251/251/3
f 251/251/3 250/250/3 252/252/3
f 253/253/4 254/254/4 255/255/4
f 255/255/4 254/254/4 256/256/4
f 257/257/1 258/258/1 259/259/1
f 259/259/1 258/258/1 260/260/1
f 261/261/2 262/262/2 263/263/2
f 263/263/2 262/262/2 264/264/2
f 265/265/3 266/266/3 267/267/3
f 267/267/3 266/266/3 268/268/3
f 269/269/6 270/270/6 271/271/6
f 271/271/6 270/270/6 272/272/6
f 273/273/2 274/274/2 275/275/2
f 275/275/2 274/274/2 276/276/2
f 277/277/3 278/278/3 279/279/3
f 279/279/3 278/278/3 280/280/3
f 281/281/6 282/282/6 283/283/6
f 283/283/6 282/282/6 284/284/6
f 285/285/2 286/286/2 287/287/2
f 287/287/2 286/286/2 288/288/2
f 289/289/3 290/290/3 291/291/3
f 291/291/3 290/290/3 292/292/3
f 293/293/6 294/294/6 295/295/6
f 295/295/6 294/294/6 296/296/6
f 297/297/2 298/298/2 299/299/2
f 299/299/2 298/298/2 300/300/2
f 301/301/3 302/302/3 303/303/3
f 303/303/3 302/302/3 304/304/3
f 305/305/2 306/306/2 307/307/2
f 307/307/2 306/306/2 308/308/2
f 309/309/3 310/310/3 311/311/3
f 311/311/3 310/310/3 312/312/3
f 313/313/5 314/314/5 315/315/5
f 315/315/5 314/314/5 316/316/5
f 317/317/2 318/318/2 319/319/2
f 319/319/2 318/318/2 320/320/2
f 321/321/3 322/322/3 323/323/3
f 323/323/3 322/322/3 324/324/3
f 325/325/6 326/326/6 327/327/6
f 327/327/6 326/326/6 328/328/6
f 329/329/1 330/330/1 331/331/1
f 331/331/1 330/330/1 332/332/1
f 333/333/2 334/334/2 335/335/2
f 335/335/2 334/334/2 336/336/2
f 337/337/3 338/338/3 339/339/3
f 339/339/3 338/338/3 340/340/3
f 341/341/5 342/342/5 343/343/5
f 343/343/5 342/342/5 344/344/5
f 345/345/2 346/346/2 347/347/2
f 347/347/2 346/346/2 348/348/2
f 349/349/3 350/350/3 351/351/3
f 351/351/3 350/350/3 352/352/3
f 353/353/1 354/354/1 355/355/1
f 355/355/1 354/354/1 356/356/1
f 357/357/2 358/358/2 359/359/2
f 359/359/2 358/358/2 360/360/2
f 361/361/3 362/362/3 363/363/3
f 363/363/3 362/362/3 364/364/3
f 365/365/5 366/366/5 367/367/5
f 367/367/5 366/366/5 368/368/5
f 369/369/2 370/370/2 371/371/2
f 371/371/2 370/370/2 372/372/2
f 373/373/3 374/374/3 375/375/3
f 375/375/3 374/374/3 376/376/3
f 377/377/1 378/378/1 379/379/1
f 379/379/1 378/378/1 380/380/1
f 381/381/2 382/382/2 383/383/2
f 383/383/2 382/382/2 384/384/2
f 385/385/3 386/386/3 387/387/3
f 387/387/3 386/386/3 388/388/3
f 389/389/6 390/390/6 391/391/6
f 391/391/6 390/390/6 392/392/6
f 393/393/5 394/394/5 395/395/5
f 395/395/5 394/394/5 396/396/5
f 397/397/2 398/398/2 399/399/2
f 399/399/2 398/398/2 400/400/2
f 401/401/3 402/402/3 403/403/3
f 403/403/3 402/402/3 404/404/3
f 405/405/6 406/406/6 407/407/6
f 407/407/6 406/406/6 408/408/6
f 409/409/1 410/410/1 411/411/1
f 411/411/1 410/410/1 412/412/1
f 413/413/2 414/414/2 415/415/2
f 415/415/2 414/414/2 416/416/2
f 417/417/3 418/418/3 419/419/3
f 419/419/3 418/418/3 420/420/3
f 421/421/4 422/422/4 423/423/4
f 423/423/4 422/422/4 424/424/4
f 425/425/5 426/426/5 427/427/5
f 427/427/5 426/426/5 428/428/5
f 429/429/2 430/430/2 431/431/2
f 431/431/2 430/430/2 432/432/2
f 433/433/3 434/434/3 435/435/3
f 435/435/3 434/434/3 436/436/3
f 437/437/4 438/438/4 439/439/4
f 439/439/4 438/438/4 440/440/4
f 441/441/1 442/442/1 443/443/1
f 443/443/1 442/442/1 444/444/1
f 445/445/2 446/446/2 447/447/2
f 447/447/2 446/446/2 448/448/2
f 449/449/3 450/450/3 451/451/3
f 451/451/3 450/450/3 452/452/3
f 453/453/6 454/454/6 455/455/6
f 455/455/6 454/454/6 456/456/6
f 457/457/4 458/458/4 459/459/4
f 459/459/4 458/458/4 460/460/4
f 461/461/2 462/462/2 463/463/2
f 463/463/2 462/462/2 464/464/2
f 465/465/3 466/466/3 467/467/3
f 467/467/3 466/466/3 468/468/3
f 469/469/6 470/470/6 471/471/6
f 471/471/6 470/470/6 472/472/6
f 473/473/5 474/474/5 475/475/5
f 475/475/5 474/474/5 476/476/5
f 477/477/2 478/478/2 479/479/2
f 479/479/2 478/478/2 480/480/2
f 481/481/3 482/482/3 483/483/3
f 483/483/3 482/482/3 484/484/3
f 485/485/6 486/486/6 487/487/6
f 487/487/6 486/486/6 488/488/6
