# Blender v2.79 (sub 0) OBJ File: 'PIxelAlphabet.blend'
# www.blender.org
mtllib li.mtl
o Li_Chunk(Clone).024
v 0.280251 0.380976 -0.110190
v 0.501162 0.381047 -0.110211
v 0.280271 0.380983 0.110725
v 0.501184 0.381054 0.110703
v 0.280200 0.601895 0.110718
v 0.280271 0.380983 0.110725
v 0.501112 0.601965 0.110696
v 0.501184 0.381054 0.110703
v 0.501092 0.601958 -0.110218
v 0.501162 0.381047 -0.110211
v 0.280179 0.601888 -0.110196
v 0.280251 0.380976 -0.110190
v 0.501112 0.601965 0.110696
v 0.501184 0.381054 0.110703
v 0.501092 0.601958 -0.110218
v 0.501162 0.381047 -0.110211
v 0.280129 0.822806 0.110710
v 0.280200 0.601895 0.110718
v 0.501043 0.822876 0.110689
v 0.501112 0.601965 0.110696
v 0.501019 0.822870 -0.110225
v 0.501092 0.601958 -0.110218
v 0.280108 0.822800 -0.110203
v 0.280179 0.601888 -0.110196
v 0.501043 0.822876 0.110689
v 0.501112 0.601965 0.110696
v 0.501019 0.822870 -0.110225
v 0.501092 0.601958 -0.110218
v 0.280060 1.043718 0.110704
v 0.500971 1.043788 0.110682
v 0.280037 1.043711 -0.110211
v 0.500950 1.043781 -0.110232
v 0.280060 1.043718 0.110704
v 0.280129 0.822806 0.110710
v 0.500971 1.043788 0.110682
v 0.501043 0.822876 0.110689
v 0.500950 1.043781 -0.110232
v 0.501019 0.822870 -0.110225
v 0.280037 1.043711 -0.110211
v 0.280108 0.822800 -0.110203
v 0.500971 1.043788 0.110682
v 0.501043 0.822876 0.110689
v 0.500950 1.043781 -0.110232
v 0.501019 0.822870 -0.110225
v 0.059338 0.380905 -0.110168
v 0.280251 0.380976 -0.110190
v 0.059361 0.380913 0.110746
v 0.280271 0.380983 0.110725
v 0.059291 0.601824 0.110739
v 0.059361 0.380913 0.110746
v 0.280200 0.601895 0.110718
v 0.280271 0.380983 0.110725
v 0.280179 0.601888 -0.110196
v 0.280251 0.380976 -0.110190
v 0.059270 0.601817 -0.110175
v 0.059338 0.380905 -0.110168
v 0.059270 0.601817 -0.110175
v 0.059338 0.380905 -0.110168
v 0.059291 0.601824 0.110739
v 0.059361 0.380913 0.110746
v 0.059219 0.822735 0.110732
v 0.059291 0.601824 0.110739
v 0.280129 0.822806 0.110710
v 0.280200 0.601895 0.110718
v 0.280108 0.822800 -0.110203
v 0.280179 0.601888 -0.110196
v 0.059197 0.822729 -0.110182
v 0.059270 0.601817 -0.110175
v 0.059197 0.822729 -0.110182
v 0.059270 0.601817 -0.110175
v 0.059219 0.822735 0.110732
v 0.059291 0.601824 0.110739
v 0.059150 1.043647 0.110725
v 0.280060 1.043718 0.110704
v 0.059126 1.043641 -0.110189
v 0.280037 1.043711 -0.110211
v 0.059150 1.043647 0.110725
v 0.059219 0.822735 0.110732
v 0.280060 1.043718 0.110704
v 0.280129 0.822806 0.110710
v 0.280037 1.043711 -0.110211
v 0.280108 0.822800 -0.110203
v 0.059126 1.043641 -0.110189
v 0.059197 0.822729 -0.110182
v 0.059126 1.043641 -0.110189
v 0.059197 0.822729 -0.110182
v 0.059150 1.043647 0.110725
v 0.059219 0.822735 0.110732
v 0.280750 -1.165403 -0.110136
v 0.501662 -1.165332 -0.110158
v 0.280771 -1.165395 0.110778
v 0.501683 -1.165324 0.110757
v 0.280700 -0.944484 0.110771
v 0.280771 -1.165395 0.110778
v 0.501615 -0.944414 0.110750
v 0.501683 -1.165324 0.110757
v 0.501593 -0.944421 -0.110165
v 0.501662 -1.165332 -0.110158
v 0.280681 -0.944491 -0.110143
v 0.280750 -1.165403 -0.110136
v 0.501615 -0.944414 0.110750
v 0.501683 -1.165324 0.110757
v 0.501593 -0.944421 -0.110165
v 0.501662 -1.165332 -0.110158
v 0.280630 -0.723573 0.110764
v 0.280700 -0.944484 0.110771
v 0.501542 -0.723502 0.110742
v 0.501615 -0.944414 0.110750
v 0.501521 -0.723509 -0.110172
v 0.501593 -0.944421 -0.110165
v 0.280606 -0.723580 -0.110150
v 0.280681 -0.944491 -0.110143
v 0.501542 -0.723502 0.110742
v 0.501615 -0.944414 0.110750
v 0.501521 -0.723509 -0.110172
v 0.501593 -0.944421 -0.110165
v 0.280560 -0.502661 0.110757
v 0.280630 -0.723573 0.110764
v 0.501472 -0.502591 0.110735
v 0.501542 -0.723502 0.110742
v 0.501450 -0.502597 -0.110179
v 0.501521 -0.723509 -0.110172
v 0.280537 -0.502668 -0.110157
v 0.280606 -0.723580 -0.110150
v 0.501472 -0.502591 0.110735
v 0.501542 -0.723502 0.110742
v 0.501450 -0.502597 -0.110179
v 0.501521 -0.723509 -0.110172
v 0.280489 -0.281749 0.110750
v 0.280560 -0.502661 0.110757
v 0.501403 -0.281679 0.110729
v 0.501472 -0.502591 0.110735
v 0.501379 -0.281686 -0.110186
v 0.501450 -0.502597 -0.110179
v 0.280465 -0.281757 -0.110164
v 0.280537 -0.502668 -0.110157
v 0.501403 -0.281679 0.110729
v 0.501472 -0.502591 0.110735
v 0.501379 -0.281686 -0.110186
v 0.501450 -0.502597 -0.110179
v 0.280418 -0.060838 0.110743
v 0.280489 -0.281749 0.110750
v 0.501331 -0.060767 0.110722
v 0.501403 -0.281679 0.110729
v 0.501309 -0.060774 -0.110192
v 0.501379 -0.281686 -0.110186
v 0.280396 -0.060845 -0.110171
v 0.280465 -0.281757 -0.110164
v 0.501331 -0.060767 0.110722
v 0.501403 -0.281679 0.110729
v 0.501309 -0.060774 -0.110192
v 0.501379 -0.281686 -0.110186
v 0.280345 0.160073 0.110736
v 0.280418 -0.060838 0.110743
v 0.501260 0.160144 0.110715
v 0.501331 -0.060767 0.110722
v 0.501238 0.160137 -0.110199
v 0.501309 -0.060774 -0.110192
v 0.280324 0.160066 -0.110178
v 0.280396 -0.060845 -0.110171
v 0.501260 0.160144 0.110715
v 0.501331 -0.060767 0.110722
v 0.501238 0.160137 -0.110199
v 0.501309 -0.060774 -0.110192
v 0.280277 0.380985 0.110729
v 0.501190 0.381056 0.110707
v 0.280257 0.380979 -0.110185
v 0.501167 0.381049 -0.110206
v 0.280277 0.380985 0.110729
v 0.280345 0.160073 0.110736
v 0.501190 0.381056 0.110707
v 0.501260 0.160144 0.110715
v 0.501167 0.381049 -0.110206
v 0.501238 0.160137 -0.110199
v 0.280257 0.380979 -0.110185
v 0.280324 0.160066 -0.110178
v 0.501190 0.381056 0.110707
v 0.501260 0.160144 0.110715
v 0.501167 0.381049 -0.110206
v 0.501238 0.160137 -0.110199
v 0.059840 -1.165473 -0.110115
v 0.280750 -1.165403 -0.110136
v 0.059860 -1.165466 0.110800
v 0.280771 -1.165395 0.110778
v 0.059789 -0.944554 0.110792
v 0.059860 -1.165466 0.110800
v 0.280700 -0.944484 0.110771
v 0.280771 -1.165395 0.110778
v 0.280681 -0.944491 -0.110143
v 0.280750 -1.165403 -0.110136
v 0.059768 -0.944561 -0.110122
v 0.059840 -1.165473 -0.110115
v 0.059719 -0.723643 0.110785
v 0.059789 -0.944554 0.110792
v 0.280630 -0.723573 0.110764
v 0.280700 -0.944484 0.110771
v 0.280606 -0.723580 -0.110150
v 0.280681 -0.944491 -0.110143
v 0.059697 -0.723650 -0.110129
v 0.059768 -0.944561 -0.110122
v 0.059648 -0.502732 0.110778
v 0.059719 -0.723643 0.110785
v 0.280560 -0.502661 0.110757
v 0.280630 -0.723573 0.110764
v 0.280537 -0.502668 -0.110157
v 0.280606 -0.723580 -0.110150
v 0.059627 -0.502738 -0.110136
v 0.059697 -0.723650 -0.110129
v 0.059627 -0.502738 -0.110136
v 0.059697 -0.723650 -0.110129
v 0.059648 -0.502732 0.110778
v 0.059719 -0.723643 0.110785
v 0.059579 -0.281821 0.110771
v 0.059648 -0.502732 0.110778
v 0.280489 -0.281749 0.110750
v 0.280560 -0.502661 0.110757
v 0.280465 -0.281757 -0.110164
v 0.280537 -0.502668 -0.110157
v 0.059555 -0.281827 -0.110143
v 0.059627 -0.502738 -0.110136
v 0.059555 -0.281827 -0.110143
v 0.059627 -0.502738 -0.110136
v 0.059579 -0.281821 0.110771
v 0.059648 -0.502732 0.110778
v 0.059505 -0.060908 0.110765
v 0.059579 -0.281821 0.110771
v 0.280418 -0.060838 0.110743
v 0.280489 -0.281749 0.110750
v 0.280396 -0.060845 -0.110171
v 0.280465 -0.281757 -0.110164
v 0.059484 -0.060915 -0.110150
v 0.059555 -0.281827 -0.110143
v 0.059484 -0.060915 -0.110150
v 0.059555 -0.281827 -0.110143
v 0.059505 -0.060908 0.110765
v 0.059579 -0.281821 0.110771
v 0.059436 0.160003 0.110757
v 0.059505 -0.060908 0.110765
v 0.280345 0.160073 0.110736
v 0.280418 -0.060838 0.110743
v 0.280324 0.160066 -0.110178
v 0.280396 -0.060845 -0.110171
v 0.059416 0.159996 -0.110156
v 0.059484 -0.060915 -0.110150
v 0.059416 0.159996 -0.110156
v 0.059484 -0.060915 -0.110150
v 0.059436 0.160003 0.110757
v 0.059505 -0.060908 0.110765
v 0.059367 0.380915 0.110750
v 0.280277 0.380985 0.110729
v 0.059343 0.380908 -0.110164
v 0.280257 0.380979 -0.110185
v 0.059367 0.380915 0.110750
v 0.059436 0.160003 0.110757
v 0.280277 0.380985 0.110729
v 0.280345 0.160073 0.110736
v 0.280257 0.380979 -0.110185
v 0.280324 0.160066 -0.110178
v 0.059343 0.380908 -0.110164
v 0.059416 0.159996 -0.110156
v 0.059343 0.380908 -0.110164
v 0.059416 0.159996 -0.110156
v 0.059367 0.380915 0.110750
v 0.059436 0.160003 0.110757
v -0.161071 -1.165544 -0.110093
v 0.059840 -1.165473 -0.110115
v -0.161049 -1.165537 0.110820
v 0.059860 -1.165466 0.110800
v -0.161120 -0.944625 0.110814
v -0.161049 -1.165537 0.110820
v 0.059789 -0.944554 0.110792
v 0.059860 -1.165466 0.110800
v 0.059768 -0.944561 -0.110122
v 0.059840 -1.165473 -0.110115
v -0.161141 -0.944633 -0.110100
v -0.161071 -1.165544 -0.110093
v -0.161189 -0.723714 0.110807
v 0.059719 -0.723643 0.110785
v -0.161212 -0.723721 -0.110107
v 0.059697 -0.723650 -0.110129
v -0.161189 -0.723714 0.110807
v -0.161120 -0.944625 0.110814
v 0.059719 -0.723643 0.110785
v 0.059789 -0.944554 0.110792
v 0.059697 -0.723650 -0.110129
v 0.059768 -0.944561 -0.110122
v -0.161212 -0.723721 -0.110107
v -0.161141 -0.944633 -0.110100
v -0.381982 -1.165615 -0.110072
v -0.161071 -1.165544 -0.110093
v -0.381962 -1.165608 0.110842
v -0.161049 -1.165537 0.110820
v -0.382033 -0.944696 0.110836
v -0.381962 -1.165608 0.110842
v -0.161120 -0.944625 0.110814
v -0.161049 -1.165537 0.110820
v -0.161141 -0.944633 -0.110100
v -0.161071 -1.165544 -0.110093
v -0.382051 -0.944703 -0.110079
v -0.381982 -1.165615 -0.110072
v -0.382102 -0.723785 0.110829
v -0.161189 -0.723714 0.110807
v -0.382124 -0.723791 -0.110086
v -0.161212 -0.723721 -0.110107
v -0.382102 -0.723785 0.110829
v -0.382033 -0.944696 0.110836
v -0.161189 -0.723714 0.110807
v -0.161120 -0.944625 0.110814
v -0.161212 -0.723721 -0.110107
v -0.161141 -0.944633 -0.110100
v -0.382124 -0.723791 -0.110086
v -0.382051 -0.944703 -0.110079
v -0.602892 -1.165685 -0.110050
v -0.381982 -1.165615 -0.110072
v -0.602872 -1.165678 0.110863
v -0.381962 -1.165608 0.110842
v -0.602942 -0.944767 0.110857
v -0.602872 -1.165678 0.110863
v -0.382033 -0.944696 0.110836
v -0.381962 -1.165608 0.110842
v -0.382051 -0.944703 -0.110079
v -0.381982 -1.165615 -0.110072
v -0.602962 -0.944773 -0.110058
v -0.602892 -1.165685 -0.110050
v -0.603013 -0.723855 0.110850
v -0.602942 -0.944767 0.110857
v -0.382102 -0.723785 0.110829
v -0.382033 -0.944696 0.110836
v -0.382124 -0.723791 -0.110086
v -0.382051 -0.944703 -0.110079
v -0.603034 -0.723862 -0.110064
v -0.602962 -0.944773 -0.110058
v -0.603083 -0.502944 0.110843
v -0.382174 -0.502873 0.110821
v -0.603105 -0.502951 -0.110071
v -0.382195 -0.502879 -0.110093
v -0.603083 -0.502944 0.110843
v -0.603013 -0.723855 0.110850
v -0.382174 -0.502873 0.110821
v -0.382102 -0.723785 0.110829
v -0.382195 -0.502879 -0.110093
v -0.382124 -0.723791 -0.110086
v -0.603105 -0.502951 -0.110071
v -0.603034 -0.723862 -0.110064
v -0.382174 -0.502873 0.110821
v -0.382102 -0.723785 0.110829
v -0.382195 -0.502879 -0.110093
v -0.382124 -0.723791 -0.110086
v -0.823807 -1.165755 -0.110029
v -0.602892 -1.165685 -0.110050
v -0.823786 -1.165749 0.110885
v -0.602872 -1.165678 0.110863
v -0.823854 -0.944836 0.110878
v -0.823786 -1.165749 0.110885
v -0.602942 -0.944767 0.110857
v -0.602872 -1.165678 0.110863
v -0.602962 -0.944773 -0.110058
v -0.602892 -1.165685 -0.110050
v -0.823877 -0.944844 -0.110036
v -0.823807 -1.165755 -0.110029
v -0.823877 -0.944844 -0.110036
v -0.823807 -1.165755 -0.110029
v -0.823854 -0.944836 0.110878
v -0.823786 -1.165749 0.110885
v -0.823925 -0.723925 0.110871
v -0.823854 -0.944836 0.110878
v -0.603013 -0.723855 0.110850
v -0.602942 -0.944767 0.110857
v -0.603034 -0.723862 -0.110064
v -0.602962 -0.944773 -0.110058
v -0.823946 -0.723933 -0.110043
v -0.823877 -0.944844 -0.110036
v -0.823946 -0.723933 -0.110043
v -0.823877 -0.944844 -0.110036
v -0.823925 -0.723925 0.110871
v -0.823854 -0.944836 0.110878
v -0.823994 -0.503014 0.110864
v -0.603083 -0.502944 0.110843
v -0.824018 -0.503020 -0.110050
v -0.603105 -0.502951 -0.110071
v -0.823994 -0.503014 0.110864
v -0.823925 -0.723925 0.110871
v -0.603083 -0.502944 0.110843
v -0.603013 -0.723855 0.110850
v -0.603105 -0.502951 -0.110071
v -0.603034 -0.723862 -0.110064
v -0.824018 -0.503020 -0.110050
v -0.823946 -0.723933 -0.110043
v -0.824018 -0.503020 -0.110050
v -0.823946 -0.723933 -0.110043
v -0.823994 -0.503014 0.110864
v -0.823925 -0.723925 0.110871
v -0.203492 1.270482 -0.111998
v 0.017423 1.270553 -0.112020
v -0.203471 1.270490 0.108916
v 0.017438 1.270560 0.108894
v -0.203539 1.491401 0.108909
v -0.203471 1.270490 0.108916
v 0.017374 1.491472 0.108887
v 0.017438 1.270560 0.108894
v 0.017351 1.491466 -0.112027
v 0.017423 1.270553 -0.112020
v -0.203560 1.491394 -0.112005
v -0.203492 1.270482 -0.111998
v 0.017374 1.491472 0.108887
v 0.017438 1.270560 0.108894
v 0.017351 1.491466 -0.112027
v 0.017423 1.270553 -0.112020
v -0.203612 1.712312 0.108902
v 0.017301 1.712383 0.108881
v -0.203633 1.712306 -0.112012
v 0.017278 1.712377 -0.112034
v -0.203612 1.712312 0.108902
v -0.203539 1.491401 0.108909
v 0.017301 1.712383 0.108881
v 0.017374 1.491472 0.108887
v 0.017278 1.712377 -0.112034
v 0.017351 1.491466 -0.112027
v -0.203633 1.712306 -0.112012
v -0.203560 1.491394 -0.112005
v 0.017301 1.712383 0.108881
v 0.017374 1.491472 0.108887
v 0.017278 1.712377 -0.112034
v 0.017351 1.491466 -0.112027
v -0.424326 1.049499 -0.111970
v -0.203417 1.049570 -0.111991
v -0.424304 1.049507 0.108945
v -0.203396 1.049576 0.108923
v -0.424376 1.270419 0.108938
v -0.424304 1.049507 0.108945
v -0.203471 1.270490 0.108916
v -0.203396 1.049576 0.108923
v -0.203492 1.270482 -0.111998
v -0.203417 1.049570 -0.111991
v -0.424399 1.270411 -0.111976
v -0.424326 1.049499 -0.111970
v -0.424399 1.270411 -0.111976
v -0.424326 1.049499 -0.111970
v -0.424376 1.270419 0.108938
v -0.424304 1.049507 0.108945
v -0.203471 1.270490 0.108916
v -0.203396 1.049576 0.108923
v -0.203492 1.270482 -0.111998
v -0.203417 1.049570 -0.111991
v -0.424448 1.491329 0.108931
v -0.424376 1.270419 0.108938
v -0.203539 1.491401 0.108909
v -0.203471 1.270490 0.108916
v -0.203560 1.491394 -0.112005
v -0.203492 1.270482 -0.111998
v -0.424466 1.491323 -0.111983
v -0.424399 1.270411 -0.111976
v -0.424466 1.491323 -0.111983
v -0.424399 1.270411 -0.111976
v -0.424448 1.491329 0.108931
v -0.424376 1.270419 0.108938
v -0.424521 1.712241 0.108923
v -0.203612 1.712312 0.108902
v -0.424540 1.712233 -0.111990
v -0.203633 1.712306 -0.112012
v -0.424521 1.712241 0.108923
v -0.424448 1.491329 0.108931
v -0.203612 1.712312 0.108902
v -0.203539 1.491401 0.108909
v -0.203633 1.712306 -0.112012
v -0.203560 1.491394 -0.112005
v -0.424540 1.712233 -0.111990
v -0.424466 1.491323 -0.111983
v -0.424540 1.712233 -0.111990
v -0.424466 1.491323 -0.111983
v -0.424521 1.712241 0.108923
v -0.424448 1.491329 0.108931
vt 0.001953 0.001953
vt 0.001953 0.001953
vt 0.001953 0.001953
vt 0.001953 0.001953
vt 0.001953 0.001953
vt 0.001953 0.001953
vt 0.001953 0.001953
vt 0.001953 0.001953
vt 0.001953 0.001953
vt 0.001953 0.001953
vt 0.001953 0.001953
vt 0.001953 0.001953
vt 0.001953 0.001953
vt 0.001953 0.001953
vt 0.001953 0.001953
vt 0.001953 0.001953
vt 0.001953 0.001953
vt 0.001953 0.001953
vt 0.001953 0.001953
vt 0.001953 0.001953
vt 0.001953 0.001953
vt 0.001953 0.001953
vt 0.001953 0.001953
vt 0.001953 0.001953
vt 0.001953 0.001953
vt 0.001953 0.001953
vt 0.001953 0.001953
vt 0.001953 0.001953
vt 0.001953 0.001953
vt 0.001953 0.001953
vt 0.001953 0.001953
vt 0.001953 0.001953
vt 0.001953 0.001953
vt 0.001953 0.001953
vt 0.001953 0.001953
vt 0.001953 0.001953
vt 0.001953 0.001953
vt 0.001953 0.001953
vt 0.001953 0.001953
vt 0.001953 0.001953
vt 0.001953 0.001953
vt 0.001953 0.001953
vt 0.001953 0.001953
vt 0.001953 0.001953
vt 0.001953 0.001953
vt 0.001953 0.001953
vt 0.001953 0.001953
vt 0.001953 0.001953
vt 0.001953 0.001953
vt 0.001953 0.001953
vt 0.001953 0.001953
vt 0.001953 0.001953
vt 0.001953 0.001953
vt 0.001953 0.001953
vt 0.001953 0.001953
vt 0.001953 0.001953
vt 0.001953 0.001953
vt 0.001953 0.001953
vt 0.001953 0.001953
vt 0.001953 0.001953
vt 0.001953 0.001953
vt 0.001953 0.001953
vt 0.001953 0.001953
vt 0.001953 0.001953
vt 0.001953 0.001953
vt 0.001953 0.001953
vt 0.001953 0.001953
vt 0.001953 0.001953
vt 0.001953 0.001953
vt 0.001953 0.001953
vt 0.001953 0.001953
vt 0.001953 0.001953
vt 0.001953 0.001953
vt 0.001953 0.001953
vt 0.001953 0.001953
vt 0.001953 0.001953
vt 0.001953 0.001953
vt 0.001953 0.001953
vt 0.001953 0.001953
vt 0.001953 0.001953
vt 0.001953 0.001953
vt 0.001953 0.001953
vt 0.001953 0.001953
vt 0.001953 0.001953
vt 0.001953 0.001953
vt 0.001953 0.001953
vt 0.001953 0.001953
vt 0.001953 0.001953
vt 0.001953 0.001953
vt 0.001953 0.001953
vt 0.001953 0.001953
vt 0.001953 0.001953
vt 0.001953 0.001953
vt 0.001953 0.001953
vt 0.001953 0.001953
vt 0.001953 0.001953
vt 0.001953 0.001953
vt 0.001953 0.001953
vt 0.001953 0.001953
vt 0.001953 0.001953
vt 0.001953 0.001953
vt 0.001953 0.001953
vt 0.001953 0.001953
vt 0.001953 0.001953
vt 0.001953 0.001953
vt 0.001953 0.001953
vt 0.001953 0.001953
vt 0.001953 0.001953
vt 0.001953 0.001953
vt 0.001953 0.001953
vt 0.001953 0.001953
vt 0.001953 0.001953
vt 0.001953 0.001953
vt 0.001953 0.001953
vt 0.001953 0.001953
vt 0.001953 0.001953
vt 0.001953 0.001953
vt 0.001953 0.001953
vt 0.001953 0.001953
vt 0.001953 0.001953
vt 0.001953 0.001953
vt 0.001953 0.001953
vt 0.001953 0.001953
vt 0.001953 0.001953
vt 0.001953 0.001953
vt 0.001953 0.001953
vt 0.001953 0.001953
vt 0.001953 0.001953
vt 0.001953 0.001953
vt 0.001953 0.001953
vt 0.001953 0.001953
vt 0.001953 0.001953
vt 0.001953 0.001953
vt 0.001953 0.001953
vt 0.001953 0.001953
vt 0.001953 0.001953
vt 0.001953 0.001953
vt 0.001953 0.001953
vt 0.001953 0.001953
vt 0.001953 0.001953
vt 0.001953 0.001953
vt 0.001953 0.001953
vt 0.001953 0.001953
vt 0.001953 0.001953
vt 0.001953 0.001953
vt 0.001953 0.001953
vt 0.001953 0.001953
vt 0.001953 0.001953
vt 0.001953 0.001953
vt 0.001953 0.001953
vt 0.001953 0.001953
vt 0.001953 0.001953
vt 0.001953 0.001953
vt 0.001953 0.001953
vt 0.001953 0.001953
vt 0.001953 0.001953
vt 0.001953 0.001953
vt 0.001953 0.001953
vt 0.001953 0.001953
vt 0.001953 0.001953
vt 0.001953 0.001953
vt 0.001953 0.001953
vt 0.001953 0.001953
vt 0.001953 0.001953
vt 0.001953 0.001953
vt 0.001953 0.001953
vt 0.001953 0.001953
vt 0.001953 0.001953
vt 0.001953 0.001953
vt 0.001953 0.001953
vt 0.001953 0.001953
vt 0.001953 0.001953
vt 0.001953 0.001953
vt 0.001953 0.001953
vt 0.001953 0.001953
vt 0.001953 0.001953
vt 0.001953 0.001953
vt 0.001953 0.001953
vt 0.001953 0.001953
vt 0.001953 0.001953
vt 0.001953 0.001953
vt 0.001953 0.001953
vt 0.001953 0.001953
vt 0.001953 0.001953
vt 0.001953 0.001953
vt 0.001953 0.001953
vt 0.001953 0.001953
vt 0.001953 0.001953
vt 0.001953 0.001953
vt 0.001953 0.001953
vt 0.001953 0.001953
vt 0.001953 0.001953
vt 0.001953 0.001953
vt 0.001953 0.001953
vt 0.001953 0.001953
vt 0.001953 0.001953
vt 0.001953 0.001953
vt 0.001953 0.001953
vt 0.001953 0.001953
vt 0.001953 0.001953
vt 0.001953 0.001953
vt 0.001953 0.001953
vt 0.001953 0.001953
vt 0.001953 0.001953
vt 0.001953 0.001953
vt 0.001953 0.001953
vt 0.001953 0.001953
vt 0.001953 0.001953
vt 0.001953 0.001953
vt 0.001953 0.001953
vt 0.001953 0.001953
vt 0.001953 0.001953
vt 0.001953 0.001953
vt 0.001953 0.001953
vt 0.001953 0.001953
vt 0.001953 0.001953
vt 0.001953 0.001953
vt 0.001953 0.001953
vt 0.001953 0.001953
vt 0.001953 0.001953
vt 0.001953 0.001953
vt 0.001953 0.001953
vt 0.001953 0.001953
vt 0.001953 0.001953
vt 0.001953 0.001953
vt 0.001953 0.001953
vt 0.001953 0.001953
vt 0.001953 0.001953
vt 0.001953 0.001953
vt 0.001953 0.001953
vt 0.001953 0.001953
vt 0.001953 0.001953
vt 0.001953 0.001953
vt 0.001953 0.001953
vt 0.001953 0.001953
vt 0.001953 0.001953
vt 0.001953 0.001953
vt 0.001953 0.001953
vt 0.001953 0.001953
vt 0.001953 0.001953
vt 0.001953 0.001953
vt 0.001953 0.001953
vt 0.001953 0.001953
vt 0.001953 0.001953
vt 0.001953 0.001953
vt 0.001953 0.001953
vt 0.001953 0.001953
vt 0.001953 0.001953
vt 0.001953 0.001953
vt 0.001953 0.001953
vt 0.001953 0.001953
vt 0.001953 0.001953
vt 0.001953 0.001953
vt 0.001953 0.001953
vt 0.001953 0.001953
vt 0.001953 0.001953
vt 0.001953 0.001953
vt 0.001953 0.001953
vt 0.001953 0.001953
vt 0.001953 0.001953
vt 0.001953 0.001953
vt 0.001953 0.001953
vt 0.001953 0.001953
vt 0.001953 0.001953
vt 0.001953 0.001953
vt 0.001953 0.001953
vt 0.001953 0.001953
vt 0.001953 0.001953
vt 0.001953 0.001953
vt 0.001953 0.001953
vt 0.001953 0.001953
vt 0.001953 0.001953
vt 0.001953 0.001953
vt 0.001953 0.001953
vt 0.001953 0.001953
vt 0.001953 0.001953
vt 0.001953 0.001953
vt 0.001953 0.001953
vt 0.001953 0.001953
vt 0.001953 0.001953
vt 0.001953 0.001953
vt 0.001953 0.001953
vt 0.001953 0.001953
vt 0.001953 0.001953
vt 0.001953 0.001953
vt 0.001953 0.001953
vt 0.001953 0.001953
vt 0.001953 0.001953
vt 0.001953 0.001953
vt 0.001953 0.001953
vt 0.001953 0.001953
vt 0.001953 0.001953
vt 0.001953 0.001953
vt 0.001953 0.001953
vt 0.001953 0.001953
vt 0.001953 0.001953
vt 0.001953 0.001953
vt 0.001953 0.001953
vt 0.001953 0.001953
vt 0.001953 0.001953
vt 0.001953 0.001953
vt 0.001953 0.001953
vt 0.001953 0.001953
vt 0.001953 0.001953
vt 0.001953 0.001953
vt 0.001953 0.001953
vt 0.001953 0.001953
vt 0.001953 0.001953
vt 0.001953 0.001953
vt 0.001953 0.001953
vt 0.001953 0.001953
vt 0.001953 0.001953
vt 0.001953 0.001953
vt 0.001953 0.001953
vt 0.001953 0.001953
vt 0.001953 0.001953
vt 0.001953 0.001953
vt 0.001953 0.001953
vt 0.001953 0.001953
vt 0.001953 0.001953
vt 0.001953 0.001953
vt 0.001953 0.001953
vt 0.001953 0.001953
vt 0.001953 0.001953
vt 0.001953 0.001953
vt 0.001953 0.001953
vt 0.001953 0.001953
vt 0.001953 0.001953
vt 0.001953 0.001953
vt 0.001953 0.001953
vt 0.001953 0.001953
vt 0.001953 0.001953
vt 0.001953 0.001953
vt 0.001953 0.001953
vt 0.001953 0.001953
vt 0.001953 0.001953
vt 0.001953 0.001953
vt 0.001953 0.001953
vt 0.001953 0.001953
vt 0.001953 0.001953
vt 0.001953 0.001953
vt 0.001953 0.001953
vt 0.001953 0.001953
vt 0.001953 0.001953
vt 0.001953 0.001953
vt 0.001953 0.001953
vt 0.001953 0.001953
vt 0.001953 0.001953
vt 0.001953 0.001953
vt 0.001953 0.001953
vt 0.001953 0.001953
vt 0.001953 0.001953
vt 0.001953 0.001953
vt 0.001953 0.001953
vt 0.001953 0.001953
vt 0.001953 0.001953
vt 0.001953 0.001953
vt 0.001953 0.001953
vt 0.001953 0.001953
vt 0.001953 0.001953
vt 0.001953 0.001953
vt 0.001953 0.001953
vt 0.001953 0.001953
vt 0.001953 0.001953
vt 0.001953 0.001953
vt 0.001953 0.001953
vt 0.001953 0.001953
vt 0.001953 0.001953
vt 0.001953 0.001953
vt 0.001953 0.001953
vt 0.001953 0.001953
vt 0.001953 0.001953
vt 0.001953 0.001953
vt 0.001953 0.001953
vt 0.001953 0.001953
vt 0.001953 0.001953
vt 0.001953 0.001953
vt 0.001953 0.001953
vt 0.001953 0.001953
vt 0.001953 0.001953
vt 0.001953 0.001953
vt 0.001953 0.001953
vt 0.001953 0.001953
vt 0.001953 0.001953
vt 0.001953 0.001953
vt 0.001953 0.001953
vt 0.001953 0.001953
vt 0.001953 0.001953
vt 0.001953 0.001953
vt 0.001953 0.001953
vt 0.001953 0.001953
vt 0.001953 0.001953
vt 0.001953 0.001953
vt 0.001953 0.001953
vt 0.001953 0.001953
vt 0.001953 0.001953
vt 0.001953 0.001953
vt 0.001953 0.001953
vt 0.001953 0.001953
vt 0.001953 0.001953
vt 0.001953 0.001953
vt 0.001953 0.001953
vt 0.001953 0.001953
vt 0.001953 0.001953
vt 0.001953 0.001953
vt 0.001953 0.001953
vt 0.001953 0.001953
vt 0.001953 0.001953
vt 0.001953 0.001953
vt 0.001953 0.001953
vt 0.001953 0.001953
vt 0.001953 0.001953
vt 0.001953 0.001953
vt 0.001953 0.001953
vt 0.001953 0.001953
vt 0.001953 0.001953
vt 0.001953 0.001953
vt 0.001953 0.001953
vt 0.001953 0.001953
vt 0.001953 0.001953
vt 0.001953 0.001953
vt 0.001953 0.001953
vt 0.001953 0.001953
vt 0.001953 0.001953
vt 0.001953 0.001953
vt 0.001953 0.001953
vt 0.001953 0.001953
vt 0.001953 0.001953
vt 0.001953 0.001953
vt 0.001953 0.001953
vt 0.001953 0.001953
vt 0.001953 0.001953
vt 0.001953 0.001953
vt 0.001953 0.001953
vt 0.001953 0.001953
vt 0.001953 0.001953
vt 0.001953 0.001953
vt 0.001953 0.001953
vt 0.001953 0.001953
vt 0.001953 0.001953
vt 0.001953 0.001953
vt 0.001953 0.001953
vt 0.001953 0.001953
vt 0.001953 0.001953
vt 0.001953 0.001953
vt 0.001953 0.001953
vt 0.001953 0.001953
vt 0.001953 0.001953
vt 0.001953 0.001953
vt 0.001953 0.001953
vt 0.001953 0.001953
vt 0.001953 0.001953
vt 0.001953 0.001953
vt 0.001953 0.001953
vt 0.001953 0.001953
vt 0.001953 0.001953
vt 0.001953 0.001953
vt 0.001953 0.001953
vt 0.001953 0.001953
vt 0.001953 0.001953
vt 0.001953 0.001953
vt 0.001953 0.001953
vt 0.001953 0.001953
vt 0.001953 0.001953
vt 0.001953 0.001953
vt 0.001953 0.001953
vt 0.001953 0.001953
vt 0.001953 0.001953
vt 0.001953 0.001953
vt 0.001953 0.001953
vt 0.001953 0.001953
vt 0.001953 0.001953
vn 0.0003 -1.0000 0.0000
vn 0.0001 0.0000 1.0000
vn -0.0001 -0.0000 -1.0000
vn 1.0000 0.0003 -0.0001
vn -0.0003 1.0000 -0.0000
vn -1.0000 -0.0003 0.0001
usemtl VRVox/StandardVertex
s 1
f 1/1/1 2/2/1 3/3/1
f 3/3/1 2/2/1 4/4/1
f 5/5/2 6/6/2 7/7/2
f 7/7/2 6/6/2 8/8/2
f 9/9/3 10/10/3 11/11/3
f 11/11/3 10/10/3 12/12/3
f 13/13/4 14/14/4 15/15/4
f 15/15/4 14/14/4 16/16/4
f 17/17/2 18/18/2 19/19/2
f 19/19/2 18/18/2 20/20/2
f 21/21/3 22/22/3 23/23/3
f 23/23/3 22/22/3 24/24/3
f 25/25/4 26/26/4 27/27/4
f 27/27/4 26/26/4 28/28/4
f 29/29/5 30/30/5 31/31/5
f 31/31/5 30/30/5 32/32/5
f 33/33/2 34/34/2 35/35/2
f 35/35/2 34/34/2 36/36/2
f 37/37/3 38/38/3 39/39/3
f 39/39/3 38/38/3 40/40/3
f 41/41/4 42/42/4 43/43/4
f 43/43/4 42/42/4 44/44/4
f 45/45/1 46/46/1 47/47/1
f 47/47/1 46/46/1 48/48/1
f 49/49/2 50/50/2 51/51/2
f 51/51/2 50/50/2 52/52/2
f 53/53/3 54/54/3 55/55/3
f 55/55/3 54/54/3 56/56/3
f 57/57/6 58/58/6 59/59/6
f 59/59/6 58/58/6 60/60/6
f 61/61/2 62/62/2 63/63/2
f 63/63/2 62/62/2 64/64/2
f 65/65/3 66/66/3 67/67/3
f 67/67/3 66/66/3 68/68/3
f 69/69/6 70/70/6 71/71/6
f 71/71/6 70/70/6 72/72/6
f 73/73/5 74/74/5 75/75/5
f 75/75/5 74/74/5 76/76/5
f 77/77/2 78/78/2 79/79/2
f 79/79/2 78/78/2 80/80/2
f 81/81/3 82/82/3 83/83/3
f 83/83/3 82/82/3 84/84/3
f 85/85/6 86/86/6 87/87/6
f 87/87/6 86/86/6 88/88/6
f 89/89/1 90/90/1 91/91/1
f 91/91/1 90/90/1 92/92/1
f 93/93/2 94/94/2 95/95/2
f 95/95/2 94/94/2 96/96/2
f 97/97/3 98/98/3 99/99/3
f 99/99/3 98/98/3 100/100/3
f 101/101/4 102/102/4 103/103/4
f 103/103/4 102/102/4 104/104/4
f 105/105/2 106/106/2 107/107/2
f 107/107/2 106/106/2 108/108/2
f 109/109/3 110/110/3 111/111/3
f 111/111/3 110/110/3 112/112/3
f 113/113/4 114/114/4 115/115/4
f 115/115/4 114/114/4 116/116/4
f 117/117/2 118/118/2 119/119/2
f 119/119/2 118/118/2 120/120/2
f 121/121/3 122/122/3 123/123/3
f 123/123/3 122/122/3 124/124/3
f 125/125/4 126/126/4 127/127/4
f 127/127/4 126/126/4 128/128/4
f 129/129/2 130/130/2 131/131/2
f 131/131/2 130/130/2 132/132/2
f 133/133/3 134/134/3 135/135/3
f 135/135/3 134/134/3 136/136/3
f 137/137/4 138/138/4 139/139/4
f 139/139/4 138/138/4 140/140/4
f 141/141/2 142/142/2 143/143/2
f 143/143/2 142/142/2 144/144/2
f 145/145/3 146/146/3 147/147/3
f 147/147/3 146/146/3 148/148/3
f 149/149/4 150/150/4 151/151/4
f 151/151/4 150/150/4 152/152/4
f 153/153/2 154/154/2 155/155/2
f 155/155/2 154/154/2 156/156/2
f 157/157/3 158/158/3 159/159/3
f 159/159/3 158/158/3 160/160/3
f 161/161/4 162/162/4 163/163/4
f 163/163/4 162/162/4 164/164/4
f 165/165/5 166/166/5 167/167/5
f 167/167/5 166/166/5 168/168/5
f 169/169/2 170/170/2 171/171/2
f 171/171/2 170/170/2 172/172/2
f 173/173/3 174/174/3 175/175/3
f 175/175/3 174/174/3 176/176/3
f 177/177/4 178/178/4 179/179/4
f 179/179/4 178/178/4 180/180/4
f 181/181/1 182/182/1 183/183/1
f 183/183/1 182/182/1 184/184/1
f 185/185/2 186/186/2 187/187/2
f 187/187/2 186/186/2 188/188/2
f 189/189/3 190/190/3 191/191/3
f 191/191/3 190/190/3 192/192/3
f 193/193/2 194/194/2 195/195/2
f 195/195/2 194/194/2 196/196/2
f 197/197/3 198/198/3 199/199/3
f 199/199/3 198/198/3 200/200/3
f 201/201/2 202/202/2 203/203/2
f 203/203/2 202/202/2 204/204/2
f 205/205/3 206/206/3 207/207/3
f 207/207/3 206/206/3 208/208/3
f 209/209/6 210/210/6 211/211/6
f 211/211/6 210/210/6 212/212/6
f 213/213/2 214/214/2 215/215/2
f 215/215/2 214/214/2 216/216/2
f 217/217/3 218/218/3 219/219/3
f 219/219/3 218/218/3 220/220/3
f 221/221/6 222/222/6 223/223/6
f 223/223/6 222/222/6 224/224/6
f 225/225/2 226/226/2 227/227/2
f 227/227/2 226/226/2 228/228/2
f 229/229/3 230/230/3 231/231/3
f 231/231/3 230/230/3 232/232/3
f 233/233/6 234/234/6 235/235/6
f 235/235/6 234/234/6 236/236/6
f 237/237/2 238/238/2 239/239/2
f 239/239/2 238/238/2 240/240/2
f 241/241/3 242/242/3 243/243/3
f 243/243/3 242/242/3 244/244/3
f 245/245/6 246/246/6 247/247/6
f 247/247/6 246/246/6 248/248/6
f 249/249/5 250/250/5 251/251/5
f 251/251/5 250/250/5 252/252/5
f 253/253/2 254/254/2 255/255/2
f 255/255/2 254/254/2 256/256/2
f 257/257/3 258/258/3 259/259/3
f 259/259/3 258/258/3 260/260/3
f 261/261/6 262/262/6 263/263/6
f 263/263/6 262/262/6 264/264/6
f 265/265/1 266/266/1 267/267/1
f 267/267/1 266/266/1 268/268/1
f 269/269/2 270/270/2 271/271/2
f 271/271/2 270/270/2 272/272/2
f 273/273/3 274/274/3 275/275/3
f 275/275/3 274/274/3 276/276/3
f 277/277/5 278/278/5 279/279/5
f 279/279/5 278/278/5 280/280/5
f 281/281/2 282/282/2 283/283/2
f 283/283/2 282/282/2 284/284/2
f 285/285/3 286/286/3 287/287/3
f 287/287/3 286/286/3 288/288/3
f 289/289/1 290/290/1 291/291/1
f 291/291/1 290/290/1 292/292/1
f 293/293/2 294/294/2 295/295/2
f 295/295/2 294/294/2 296/296/2
f 297/297/3 298/298/3 299/299/3
f 299/299/3 298/298/3 300/300/3
f 301/301/5 302/302/5 303/303/5
f 303/303/5 302/302/5 304/304/5
f 305/305/2 306/306/2 307/307/2
f 307/307/2 306/306/2 308/308/2
f 309/309/3 310/310/3 311/311/3
f 311/311/3 310/310/3 312/312/3
f 313/313/1 314/314/1 315/315/1
f 315/315/1 314/314/1 316/316/1
f 317/317/2 318/318/2 319/319/2
f 319/319/2 318/318/2 320/320/2
f 321/321/3 322/322/3 323/323/3
f 323/323/3 322/322/3 324/324/3
f 325/325/2 326/326/2 327/327/2
f 327/327/2 326/326/2 328/328/2
f 329/329/3 330/330/3 331/331/3
f 331/331/3 330/330/3 332/332/3
f 333/333/5 334/334/5 335/335/5
f 335/335/5 334/334/5 336/336/5
f 337/337/2 338/338/2 339/339/2
f 339/339/2 338/338/2 340/340/2
f 341/341/3 342/342/3 343/343/3
f 343/343/3 342/342/3 344/344/3
f 345/345/4 346/346/4 347/347/4
f 347/347/4 346/346/4 348/348/4
f 349/349/1 350/350/1 351/351/1
f 351/351/1 350/350/1 352/352/1
f 353/353/2 354/354/2 355/355/2
f 355/355/2 354/354/2 356/356/2
f 357/357/3 358/358/3 359/359/3
f 359/359/3 358/358/3 360/360/3
f 361/361/6 362/362/6 363/363/6
f 363/363/6 362/362/6 364/364/6
f 365/365/2 366/366/2 367/367/2
f 367/367/2 366/366/2 368/368/2
f 369/369/3 370/370/3 371/371/3
f 371/371/3 370/370/3 372/372/3
f 373/373/6 374/374/6 375/375/6
f 375/375/6 374/374/6 376/376/6
f 377/377/5 378/378/5 379/379/5
f 379/379/5 378/378/5 380/380/5
f 381/381/2 382/382/2 383/383/2
f 383/383/2 382/382/2 384/384/2
f 385/385/3 386/386/3 387/387/3
f 387/387/3 386/386/3 388/388/3
f 389/389/6 390/390/6 391/391/6
f 391/391/6 390/390/6 392/392/6
f 393/393/1 394/394/1 395/395/1
f 395/395/1 394/394/1 396/396/1
f 397/397/2 398/398/2 399/399/2
f 399/399/2 398/398/2 400/400/2
f 401/401/3 402/402/3 403/403/3
f 403/403/3 402/402/3 404/404/3
f 405/405/4 406/406/4 407/407/4
f 407/407/4 406/406/4 408/408/4
f 409/409/5 410/410/5 411/411/5
f 411/411/5 410/410/5 412/412/5
f 413/413/2 414/414/2 415/415/2
f 415/415/2 414/414/2 416/416/2
f 417/417/3 418/418/3 419/419/3
f 419/419/3 418/418/3 420/420/3
f 421/421/4 422/422/4 423/423/4
f 423/423/4 422/422/4 424/424/4
f 425/425/1 426/426/1 427/427/1
f 427/427/1 426/426/1 428/428/1
f 429/429/2 430/430/2 431/431/2
f 431/431/2 430/430/2 432/432/2
f 433/433/3 434/434/3 435/435/3
f 435/435/3 434/434/3 436/436/3
f 437/437/6 438/438/6 439/439/6
f 439/439/6 438/438/6 440/440/6
f 441/441/4 442/442/4 443/443/4
f 443/443/4 442/442/4 444/444/4
f 445/445/2 446/446/2 447/447/2
f 447/447/2 446/446/2 448/448/2
f 449/449/3 450/450/3 451/451/3
f 451/451/3 450/450/3 452/452/3
f 453/453/6 454/454/6 455/455/6
f 455/455/6 454/454/6 456/456/6
f 457/457/5 458/458/5 459/459/5
f 459/459/5 458/458/5 460/460/5
f 461/461/2 462/462/2 463/463/2
f 463/463/2 462/462/2 464/464/2
f 465/465/3 466/466/3 467/467/3
f 467/467/3 466/466/3 468/468/3
f 469/469/6 470/470/6 471/471/6
f 471/471/6 470/470/6 472/472/6
