# Blender v2.79 (sub 0) OBJ File: 'PIxelAlphabet.blend'
# www.blender.org
mtllib m.mtl
o M_Chunk(Clone).025
v 0.662588 0.432189 -0.110535
v 0.883501 0.432260 -0.110557
v 0.662607 0.432196 0.110379
v 0.883522 0.432267 0.110357
v 0.662539 0.653107 0.110372
v 0.662607 0.432196 0.110379
v 0.883451 0.653179 0.110350
v 0.883522 0.432267 0.110357
v 0.883429 0.653171 -0.110564
v 0.883501 0.432260 -0.110557
v 0.662516 0.653101 -0.110543
v 0.662588 0.432189 -0.110535
v 0.883451 0.653179 0.110350
v 0.883522 0.432267 0.110357
v 0.883429 0.653171 -0.110564
v 0.883501 0.432260 -0.110557
v 0.662466 0.874019 0.110365
v 0.883381 0.874090 0.110344
v 0.662449 0.874012 -0.110549
v 0.883360 0.874083 -0.110571
v 0.662466 0.874019 0.110365
v 0.662539 0.653107 0.110372
v 0.883381 0.874090 0.110344
v 0.883451 0.653179 0.110350
v 0.883360 0.874083 -0.110571
v 0.883429 0.653171 -0.110564
v 0.662449 0.874012 -0.110549
v 0.662516 0.653101 -0.110543
v 0.883381 0.874090 0.110344
v 0.883451 0.653179 0.110350
v 0.883360 0.874083 -0.110571
v 0.883429 0.653171 -0.110564
v 0.441677 0.432118 -0.110514
v 0.662588 0.432189 -0.110535
v 0.441698 0.432126 0.110400
v 0.662607 0.432196 0.110379
v 0.441629 0.653037 0.110393
v 0.441698 0.432126 0.110400
v 0.662539 0.653107 0.110372
v 0.662607 0.432196 0.110379
v 0.662516 0.653101 -0.110543
v 0.662588 0.432189 -0.110535
v 0.441607 0.653030 -0.110521
v 0.441677 0.432118 -0.110514
v 0.441607 0.653030 -0.110521
v 0.441677 0.432118 -0.110514
v 0.441629 0.653037 0.110393
v 0.441698 0.432126 0.110400
v 0.441556 0.873949 0.110387
v 0.441629 0.653037 0.110393
v 0.662466 0.874019 0.110365
v 0.662539 0.653107 0.110372
v 0.662449 0.874012 -0.110549
v 0.662516 0.653101 -0.110543
v 0.441538 0.873942 -0.110528
v 0.441607 0.653030 -0.110521
v 0.441487 1.094860 0.110380
v 0.662395 1.094931 0.110358
v 0.441466 1.094853 -0.110534
v 0.662375 1.094924 -0.110556
v 0.441487 1.094860 0.110380
v 0.441556 0.873949 0.110387
v 0.662395 1.094931 0.110358
v 0.662466 0.874019 0.110365
v 0.662375 1.094924 -0.110556
v 0.662449 0.874012 -0.110549
v 0.441466 1.094853 -0.110534
v 0.441538 0.873942 -0.110528
v 0.662395 1.094931 0.110358
v 0.662466 0.874019 0.110365
v 0.662375 1.094924 -0.110556
v 0.662449 0.874012 -0.110549
v 0.220695 0.652959 -0.110499
v 0.441607 0.653030 -0.110521
v 0.220716 0.652966 0.110414
v 0.441629 0.653037 0.110393
v 0.220645 0.873878 0.110408
v 0.220716 0.652966 0.110414
v 0.441556 0.873949 0.110387
v 0.441629 0.653037 0.110393
v 0.441538 0.873942 -0.110528
v 0.441607 0.653030 -0.110521
v 0.220622 0.873871 -0.110507
v 0.220695 0.652959 -0.110499
v 0.220574 1.094789 0.110401
v 0.441487 1.094860 0.110380
v 0.220551 1.094783 -0.110513
v 0.441466 1.094853 -0.110534
v 0.220574 1.094789 0.110401
v 0.220645 0.873878 0.110408
v 0.441487 1.094860 0.110380
v 0.441556 0.873949 0.110387
v 0.441466 1.094853 -0.110534
v 0.441538 0.873942 -0.110528
v 0.220551 1.094783 -0.110513
v 0.220622 0.873871 -0.110507
v 0.220551 1.094783 -0.110513
v 0.220622 0.873871 -0.110507
v 0.220574 1.094789 0.110401
v 0.220645 0.873878 0.110408
v -0.000145 0.431977 -0.110471
v 0.220766 0.432047 -0.110492
v -0.000124 0.431985 0.110443
v 0.220783 0.432055 0.110422
v -0.000195 0.652896 0.110436
v -0.000124 0.431985 0.110443
v 0.220716 0.652966 0.110414
v 0.220783 0.432055 0.110422
v 0.220695 0.652959 -0.110499
v 0.220766 0.432047 -0.110492
v -0.000217 0.652889 -0.110478
v -0.000145 0.431977 -0.110471
v 0.220716 0.652966 0.110414
v 0.220783 0.432055 0.110422
v 0.220695 0.652959 -0.110499
v 0.220766 0.432047 -0.110492
v -0.000266 0.873807 0.110429
v 0.220645 0.873878 0.110408
v -0.000287 0.873800 -0.110485
v 0.220622 0.873871 -0.110507
v -0.000266 0.873807 0.110429
v -0.000195 0.652896 0.110436
v 0.220645 0.873878 0.110408
v 0.220716 0.652966 0.110414
v 0.220622 0.873871 -0.110507
v 0.220695 0.652959 -0.110499
v -0.000287 0.873800 -0.110485
v -0.000217 0.652889 -0.110478
v -0.221056 0.431907 -0.110449
v -0.000145 0.431977 -0.110471
v -0.221033 0.431913 0.110465
v -0.000124 0.431985 0.110443
v -0.221105 0.652825 0.110458
v -0.221033 0.431913 0.110465
v -0.000195 0.652896 0.110436
v -0.000124 0.431985 0.110443
v -0.000217 0.652889 -0.110478
v -0.000145 0.431977 -0.110471
v -0.221126 0.652818 -0.110456
v -0.221056 0.431907 -0.110449
v -0.221126 0.652818 -0.110456
v -0.221056 0.431907 -0.110449
v -0.221105 0.652825 0.110458
v -0.221033 0.431913 0.110465
v -0.221177 0.873737 0.110451
v -0.000266 0.873807 0.110429
v -0.221198 0.873730 -0.110464
v -0.000287 0.873800 -0.110485
v -0.221177 0.873737 0.110451
v -0.221105 0.652825 0.110458
v -0.000266 0.873807 0.110429
v -0.000195 0.652896 0.110436
v -0.000287 0.873800 -0.110485
v -0.000217 0.652889 -0.110478
v -0.221198 0.873730 -0.110464
v -0.221126 0.652818 -0.110456
v -0.442040 0.652748 -0.110435
v -0.221126 0.652818 -0.110456
v -0.442019 0.652754 0.110479
v -0.221105 0.652825 0.110458
v -0.442090 0.873666 0.110472
v -0.442019 0.652754 0.110479
v -0.221177 0.873737 0.110451
v -0.221105 0.652825 0.110458
v -0.221198 0.873730 -0.110464
v -0.221126 0.652818 -0.110456
v -0.442111 0.873659 -0.110442
v -0.442040 0.652748 -0.110435
v -0.442161 1.094578 0.110466
v -0.221246 1.094648 0.110444
v -0.442180 1.094570 -0.110449
v -0.221267 1.094641 -0.110471
v -0.442161 1.094578 0.110466
v -0.442090 0.873666 0.110472
v -0.221246 1.094648 0.110444
v -0.221177 0.873737 0.110451
v -0.221267 1.094641 -0.110471
v -0.221198 0.873730 -0.110464
v -0.442180 1.094570 -0.110449
v -0.442111 0.873659 -0.110442
v -0.221246 1.094648 0.110444
v -0.221177 0.873737 0.110451
v -0.221267 1.094641 -0.110471
v -0.221198 0.873730 -0.110464
v -0.662878 0.431766 -0.110406
v -0.441967 0.431836 -0.110428
v -0.662855 0.431772 0.110508
v -0.441948 0.431843 0.110486
v -0.662927 0.652684 0.110501
v -0.662855 0.431772 0.110508
v -0.442019 0.652754 0.110479
v -0.441948 0.431843 0.110486
v -0.442040 0.652748 -0.110435
v -0.441967 0.431836 -0.110428
v -0.662950 0.652677 -0.110413
v -0.662878 0.431766 -0.110406
v -0.442019 0.652754 0.110479
v -0.441948 0.431843 0.110486
v -0.442040 0.652748 -0.110435
v -0.441967 0.431836 -0.110428
v -0.662997 0.873595 0.110494
v -0.662927 0.652684 0.110501
v -0.442090 0.873666 0.110472
v -0.442019 0.652754 0.110479
v -0.442111 0.873659 -0.110442
v -0.442040 0.652748 -0.110435
v -0.663018 0.873589 -0.110420
v -0.662950 0.652677 -0.110413
v -0.663068 1.094507 0.110486
v -0.442161 1.094578 0.110466
v -0.663089 1.094500 -0.110428
v -0.442180 1.094570 -0.110449
v -0.663068 1.094507 0.110486
v -0.662997 0.873595 0.110494
v -0.442161 1.094578 0.110466
v -0.442090 0.873666 0.110472
v -0.442180 1.094570 -0.110449
v -0.442111 0.873659 -0.110442
v -0.663089 1.094500 -0.110428
v -0.663018 0.873589 -0.110420
v -0.663089 1.094500 -0.110428
v -0.663018 0.873589 -0.110420
v -0.663068 1.094507 0.110486
v -0.662997 0.873595 0.110494
v -0.883790 0.431695 -0.110386
v -0.662878 0.431766 -0.110406
v -0.883771 0.431702 0.110529
v -0.662855 0.431772 0.110508
v -0.883842 0.652613 0.110522
v -0.883771 0.431702 0.110529
v -0.662927 0.652684 0.110501
v -0.662855 0.431772 0.110508
v -0.662950 0.652677 -0.110413
v -0.662878 0.431766 -0.110406
v -0.883862 0.652607 -0.110392
v -0.883790 0.431695 -0.110386
v -0.883862 0.652607 -0.110392
v -0.883790 0.431695 -0.110386
v -0.883842 0.652613 0.110522
v -0.883771 0.431702 0.110529
v -0.883910 0.873525 0.110515
v -0.662997 0.873595 0.110494
v -0.883933 0.873518 -0.110399
v -0.663018 0.873589 -0.110420
v -0.883910 0.873525 0.110515
v -0.883842 0.652613 0.110522
v -0.662997 0.873595 0.110494
v -0.662927 0.652684 0.110501
v -0.663018 0.873589 -0.110420
v -0.662950 0.652677 -0.110413
v -0.883933 0.873518 -0.110399
v -0.883862 0.652607 -0.110392
v -0.883933 0.873518 -0.110399
v -0.883862 0.652607 -0.110392
v -0.883910 0.873525 0.110515
v -0.883842 0.652613 0.110522
v 0.663084 -1.114192 -0.110487
v 0.883995 -1.114122 -0.110508
v 0.663103 -1.114185 0.110428
v 0.884016 -1.114114 0.110407
v 0.663031 -0.893273 0.110421
v 0.663103 -1.114185 0.110428
v 0.883945 -0.893203 0.110400
v 0.884016 -1.114114 0.110407
v 0.883923 -0.893210 -0.110515
v 0.883995 -1.114122 -0.110508
v 0.663010 -0.893280 -0.110493
v 0.663084 -1.114192 -0.110487
v 0.883945 -0.893203 0.110400
v 0.884016 -1.114114 0.110407
v 0.883923 -0.893210 -0.110515
v 0.883995 -1.114122 -0.110508
v 0.662962 -0.672361 0.110414
v 0.663031 -0.893273 0.110421
v 0.883875 -0.672292 0.110392
v 0.883945 -0.893203 0.110400
v 0.883852 -0.672298 -0.110522
v 0.883923 -0.893210 -0.110515
v 0.662941 -0.672368 -0.110500
v 0.663010 -0.893280 -0.110493
v 0.883875 -0.672292 0.110392
v 0.883945 -0.893203 0.110400
v 0.883852 -0.672298 -0.110522
v 0.883923 -0.893210 -0.110515
v 0.662891 -0.451450 0.110406
v 0.662962 -0.672361 0.110414
v 0.883804 -0.451380 0.110385
v 0.883875 -0.672292 0.110392
v 0.883783 -0.451386 -0.110529
v 0.883852 -0.672298 -0.110522
v 0.662868 -0.451457 -0.110507
v 0.662941 -0.672368 -0.110500
v 0.883804 -0.451380 0.110385
v 0.883875 -0.672292 0.110392
v 0.883783 -0.451386 -0.110529
v 0.883852 -0.672298 -0.110522
v 0.662819 -0.230538 0.110400
v 0.662891 -0.451450 0.110406
v 0.883732 -0.230468 0.110379
v 0.883804 -0.451380 0.110385
v 0.883711 -0.230475 -0.110536
v 0.883783 -0.451386 -0.110529
v 0.662798 -0.230546 -0.110515
v 0.662868 -0.451457 -0.110507
v 0.883732 -0.230468 0.110379
v 0.883804 -0.451380 0.110385
v 0.883711 -0.230475 -0.110536
v 0.883783 -0.451386 -0.110529
v 0.662748 -0.009627 0.110393
v 0.662819 -0.230538 0.110400
v 0.883663 -0.009557 0.110372
v 0.883732 -0.230468 0.110379
v 0.883642 -0.009563 -0.110542
v 0.883711 -0.230475 -0.110536
v 0.662725 -0.009634 -0.110521
v 0.662798 -0.230546 -0.110515
v 0.883663 -0.009557 0.110372
v 0.883732 -0.230468 0.110379
v 0.883642 -0.009563 -0.110542
v 0.883711 -0.230475 -0.110536
v 0.662678 0.211284 0.110386
v 0.662748 -0.009627 0.110393
v 0.883591 0.211355 0.110364
v 0.883663 -0.009557 0.110372
v 0.883570 0.211348 -0.110550
v 0.883642 -0.009563 -0.110542
v 0.662659 0.211277 -0.110528
v 0.662725 -0.009634 -0.110521
v 0.883591 0.211355 0.110364
v 0.883663 -0.009557 0.110372
v 0.883570 0.211348 -0.110550
v 0.883642 -0.009563 -0.110542
v 0.662607 0.432196 0.110380
v 0.883522 0.432267 0.110358
v 0.662588 0.432189 -0.110535
v 0.883501 0.432260 -0.110557
v 0.662607 0.432196 0.110380
v 0.662678 0.211284 0.110386
v 0.883522 0.432267 0.110358
v 0.883591 0.211355 0.110364
v 0.883501 0.432260 -0.110557
v 0.883570 0.211348 -0.110550
v 0.662588 0.432189 -0.110535
v 0.662659 0.211277 -0.110528
v 0.883522 0.432267 0.110358
v 0.883591 0.211355 0.110364
v 0.883501 0.432260 -0.110557
v 0.883570 0.211348 -0.110550
v 0.442171 -1.114263 -0.110465
v 0.663084 -1.114192 -0.110487
v 0.442192 -1.114255 0.110450
v 0.663103 -1.114185 0.110428
v 0.442122 -0.893344 0.110442
v 0.442192 -1.114255 0.110450
v 0.663031 -0.893273 0.110421
v 0.663103 -1.114185 0.110428
v 0.663010 -0.893280 -0.110493
v 0.663084 -1.114192 -0.110487
v 0.442101 -0.893351 -0.110472
v 0.442171 -1.114263 -0.110465
v 0.442101 -0.893351 -0.110472
v 0.442171 -1.114263 -0.110465
v 0.442122 -0.893344 0.110442
v 0.442192 -1.114255 0.110450
v 0.442053 -0.672432 0.110436
v 0.442122 -0.893344 0.110442
v 0.662962 -0.672361 0.110414
v 0.663031 -0.893273 0.110421
v 0.662941 -0.672368 -0.110500
v 0.663010 -0.893280 -0.110493
v 0.442030 -0.672439 -0.110478
v 0.442101 -0.893351 -0.110472
v 0.442030 -0.672439 -0.110478
v 0.442101 -0.893351 -0.110472
v 0.442053 -0.672432 0.110436
v 0.442122 -0.893344 0.110442
v 0.441982 -0.451521 0.110428
v 0.442053 -0.672432 0.110436
v 0.662891 -0.451450 0.110406
v 0.662962 -0.672361 0.110414
v 0.662868 -0.451457 -0.110507
v 0.662941 -0.672368 -0.110500
v 0.441959 -0.451528 -0.110486
v 0.442030 -0.672439 -0.110478
v 0.441959 -0.451528 -0.110486
v 0.442030 -0.672439 -0.110478
v 0.441982 -0.451521 0.110428
v 0.442053 -0.672432 0.110436
v 0.441910 -0.230610 0.110422
v 0.441982 -0.451521 0.110428
v 0.662819 -0.230538 0.110400
v 0.662891 -0.451450 0.110406
v 0.662798 -0.230546 -0.110515
v 0.662868 -0.451457 -0.110507
v 0.441889 -0.230616 -0.110493
v 0.441959 -0.451528 -0.110486
v 0.441889 -0.230616 -0.110493
v 0.441959 -0.451528 -0.110486
v 0.441910 -0.230610 0.110422
v 0.441982 -0.451521 0.110428
v 0.441839 -0.009698 0.110415
v 0.441910 -0.230610 0.110422
v 0.662748 -0.009627 0.110393
v 0.662819 -0.230538 0.110400
v 0.662725 -0.009634 -0.110521
v 0.662798 -0.230546 -0.110515
v 0.441818 -0.009705 -0.110500
v 0.441889 -0.230616 -0.110493
v 0.441818 -0.009705 -0.110500
v 0.441889 -0.230616 -0.110493
v 0.441839 -0.009698 0.110415
v 0.441910 -0.230610 0.110422
v 0.441771 0.211213 0.110408
v 0.441839 -0.009698 0.110415
v 0.662678 0.211284 0.110386
v 0.662748 -0.009627 0.110393
v 0.662659 0.211277 -0.110528
v 0.662725 -0.009634 -0.110521
v 0.441750 0.211207 -0.110506
v 0.441818 -0.009705 -0.110500
v 0.441750 0.211207 -0.110506
v 0.441818 -0.009705 -0.110500
v 0.441771 0.211213 0.110408
v 0.441839 -0.009698 0.110415
v 0.441698 0.432125 0.110400
v 0.662607 0.432196 0.110380
v 0.441677 0.432118 -0.110514
v 0.662588 0.432189 -0.110535
v 0.441698 0.432125 0.110400
v 0.441771 0.211213 0.110408
v 0.662607 0.432196 0.110380
v 0.662678 0.211284 0.110386
v 0.662588 0.432189 -0.110535
v 0.662659 0.211277 -0.110528
v 0.441677 0.432118 -0.110514
v 0.441750 0.211207 -0.110506
v 0.441677 0.432118 -0.110514
v 0.441750 0.211207 -0.110506
v 0.441698 0.432125 0.110400
v 0.441771 0.211213 0.110408
v 0.000351 -1.114404 -0.110422
v 0.221260 -1.114333 -0.110444
v 0.000368 -1.114397 0.110492
v 0.221279 -1.114325 0.110471
v 0.000299 -0.893485 0.110486
v 0.000368 -1.114397 0.110492
v 0.221210 -0.893414 0.110464
v 0.221279 -1.114325 0.110471
v 0.221188 -0.893422 -0.110451
v 0.221260 -1.114333 -0.110444
v 0.000278 -0.893492 -0.110429
v 0.000351 -1.114404 -0.110422
v 0.221210 -0.893414 0.110464
v 0.221279 -1.114325 0.110471
v 0.221188 -0.893422 -0.110451
v 0.221260 -1.114333 -0.110444
v 0.000229 -0.672573 0.110478
v 0.000299 -0.893485 0.110486
v 0.221142 -0.672504 0.110457
v 0.221210 -0.893414 0.110464
v 0.221117 -0.672510 -0.110457
v 0.221188 -0.893422 -0.110451
v 0.000206 -0.672580 -0.110436
v 0.000278 -0.893492 -0.110429
v 0.221142 -0.672504 0.110457
v 0.221210 -0.893414 0.110464
v 0.221117 -0.672510 -0.110457
v 0.221188 -0.893422 -0.110451
v 0.000158 -0.451662 0.110471
v 0.000229 -0.672573 0.110478
v 0.221069 -0.451592 0.110449
v 0.221142 -0.672504 0.110457
v 0.221046 -0.451598 -0.110464
v 0.221117 -0.672510 -0.110457
v 0.000135 -0.451668 -0.110443
v 0.000206 -0.672580 -0.110436
v 0.221069 -0.451592 0.110449
v 0.221142 -0.672504 0.110457
v 0.221046 -0.451598 -0.110464
v 0.221117 -0.672510 -0.110457
v 0.000086 -0.230751 0.110464
v 0.000158 -0.451662 0.110471
v 0.220999 -0.230679 0.110443
v 0.221069 -0.451592 0.110449
v 0.220978 -0.230687 -0.110472
v 0.221046 -0.451598 -0.110464
v 0.000065 -0.230757 -0.110450
v 0.000135 -0.451668 -0.110443
v 0.220999 -0.230679 0.110443
v 0.221069 -0.451592 0.110449
v 0.220978 -0.230687 -0.110472
v 0.221046 -0.451598 -0.110464
v 0.000017 -0.009839 0.110458
v 0.000086 -0.230751 0.110464
v 0.220928 -0.009768 0.110436
v 0.220999 -0.230679 0.110443
v 0.220907 -0.009775 -0.110478
v 0.220978 -0.230687 -0.110472
v -0.000006 -0.009847 -0.110457
v 0.000065 -0.230757 -0.110450
v 0.220928 -0.009768 0.110436
v 0.220999 -0.230679 0.110443
v 0.220907 -0.009775 -0.110478
v 0.220978 -0.230687 -0.110472
v -0.000055 0.211072 0.110450
v 0.000017 -0.009839 0.110458
v 0.220856 0.211143 0.110429
v 0.220928 -0.009768 0.110436
v 0.220837 0.211136 -0.110485
v 0.220907 -0.009775 -0.110478
v -0.000078 0.211066 -0.110464
v -0.000006 -0.009847 -0.110457
v 0.220856 0.211143 0.110429
v 0.220928 -0.009768 0.110436
v 0.220837 0.211136 -0.110485
v 0.220907 -0.009775 -0.110478
v -0.000126 0.431984 0.110443
v 0.220783 0.432055 0.110422
v -0.000145 0.431977 -0.110471
v 0.220766 0.432047 -0.110492
v -0.000126 0.431984 0.110443
v -0.000055 0.211072 0.110450
v 0.220783 0.432055 0.110422
v 0.220856 0.211143 0.110429
v 0.220766 0.432047 -0.110492
v 0.220837 0.211136 -0.110485
v -0.000145 0.431977 -0.110471
v -0.000078 0.211066 -0.110464
v 0.220783 0.432055 0.110422
v 0.220856 0.211143 0.110429
v 0.220766 0.432047 -0.110492
v 0.220837 0.211136 -0.110485
v -0.220562 -1.114475 -0.110401
v 0.000351 -1.114404 -0.110422
v -0.220539 -1.114468 0.110514
v 0.000368 -1.114397 0.110492
v -0.220610 -0.893555 0.110507
v -0.220539 -1.114468 0.110514
v 0.000299 -0.893485 0.110486
v 0.000368 -1.114397 0.110492
v 0.000278 -0.893492 -0.110429
v 0.000351 -1.114404 -0.110422
v -0.220633 -0.893563 -0.110408
v -0.220562 -1.114475 -0.110401
v -0.220633 -0.893563 -0.110408
v -0.220562 -1.114475 -0.110401
v -0.220610 -0.893555 0.110507
v -0.220539 -1.114468 0.110514
v -0.220680 -0.672644 0.110500
v -0.220610 -0.893555 0.110507
v 0.000229 -0.672573 0.110478
v 0.000299 -0.893485 0.110486
v 0.000206 -0.672580 -0.110436
v 0.000278 -0.893492 -0.110429
v -0.220703 -0.672651 -0.110414
v -0.220633 -0.893563 -0.110408
v -0.220703 -0.672651 -0.110414
v -0.220633 -0.893563 -0.110408
v -0.220680 -0.672644 0.110500
v -0.220610 -0.893555 0.110507
v -0.220751 -0.451732 0.110493
v -0.220680 -0.672644 0.110500
v 0.000158 -0.451662 0.110471
v 0.000229 -0.672573 0.110478
v 0.000135 -0.451668 -0.110443
v 0.000206 -0.672580 -0.110436
v -0.220774 -0.451740 -0.110421
v -0.220703 -0.672651 -0.110414
v -0.220774 -0.451740 -0.110421
v -0.220703 -0.672651 -0.110414
v -0.220751 -0.451732 0.110493
v -0.220680 -0.672644 0.110500
v -0.220823 -0.230821 0.110485
v -0.220751 -0.451732 0.110493
v 0.000086 -0.230751 0.110464
v 0.000158 -0.451662 0.110471
v 0.000065 -0.230757 -0.110450
v 0.000135 -0.451668 -0.110443
v -0.220842 -0.230828 -0.110428
v -0.220774 -0.451740 -0.110421
v -0.220842 -0.230828 -0.110428
v -0.220774 -0.451740 -0.110421
v -0.220823 -0.230821 0.110485
v -0.220751 -0.451732 0.110493
v -0.220892 -0.009909 0.110479
v -0.220823 -0.230821 0.110485
v 0.000017 -0.009839 0.110458
v 0.000086 -0.230751 0.110464
v -0.000006 -0.009847 -0.110457
v 0.000065 -0.230757 -0.110450
v -0.220915 -0.009917 -0.110435
v -0.220842 -0.230828 -0.110428
v -0.220915 -0.009917 -0.110435
v -0.220842 -0.230828 -0.110428
v -0.220892 -0.009909 0.110479
v -0.220823 -0.230821 0.110485
v -0.220963 0.211002 0.110472
v -0.220892 -0.009909 0.110479
v -0.000055 0.211072 0.110450
v 0.000017 -0.009839 0.110458
v -0.000078 0.211066 -0.110464
v -0.000006 -0.009847 -0.110457
v -0.220984 0.210995 -0.110442
v -0.220915 -0.009917 -0.110435
v -0.220984 0.210995 -0.110442
v -0.220915 -0.009917 -0.110435
v -0.220963 0.211002 0.110472
v -0.220892 -0.009909 0.110479
v -0.221033 0.431913 0.110465
v -0.000126 0.431984 0.110443
v -0.221056 0.431906 -0.110449
v -0.000145 0.431977 -0.110471
v -0.221033 0.431913 0.110465
v -0.220963 0.211002 0.110472
v -0.000126 0.431984 0.110443
v -0.000055 0.211072 0.110450
v -0.000145 0.431977 -0.110471
v -0.000078 0.211066 -0.110464
v -0.221056 0.431906 -0.110449
v -0.220984 0.210995 -0.110442
v -0.221056 0.431906 -0.110449
v -0.220984 0.210995 -0.110442
v -0.221033 0.431913 0.110465
v -0.220963 0.211002 0.110472
v -0.662384 -1.114615 -0.110358
v -0.441475 -1.114545 -0.110379
v -0.662361 -1.114609 0.110556
v -0.441452 -1.114538 0.110535
v -0.662432 -0.893697 0.110549
v -0.662361 -1.114609 0.110556
v -0.441523 -0.893626 0.110529
v -0.441452 -1.114538 0.110535
v -0.441545 -0.893634 -0.110386
v -0.441475 -1.114545 -0.110379
v -0.662455 -0.893704 -0.110365
v -0.662384 -1.114615 -0.110358
v -0.441523 -0.893626 0.110529
v -0.441452 -1.114538 0.110535
v -0.441545 -0.893634 -0.110386
v -0.441475 -1.114545 -0.110379
v -0.662504 -0.672785 0.110543
v -0.662432 -0.893697 0.110549
v -0.441593 -0.672714 0.110521
v -0.441523 -0.893626 0.110529
v -0.441616 -0.672722 -0.110392
v -0.441545 -0.893634 -0.110386
v -0.662525 -0.672792 -0.110372
v -0.662455 -0.893704 -0.110365
v -0.441593 -0.672714 0.110521
v -0.441523 -0.893626 0.110529
v -0.441616 -0.672722 -0.110392
v -0.441545 -0.893634 -0.110386
v -0.662573 -0.451873 0.110536
v -0.662504 -0.672785 0.110543
v -0.441662 -0.451804 0.110514
v -0.441593 -0.672714 0.110521
v -0.441687 -0.451810 -0.110400
v -0.441616 -0.672722 -0.110392
v -0.662596 -0.451881 -0.110378
v -0.662525 -0.672792 -0.110372
v -0.441662 -0.451804 0.110514
v -0.441593 -0.672714 0.110521
v -0.441687 -0.451810 -0.110400
v -0.441616 -0.672722 -0.110392
v -0.662645 -0.230962 0.110528
v -0.662573 -0.451873 0.110536
v -0.441738 -0.230892 0.110507
v -0.441662 -0.451804 0.110514
v -0.441757 -0.230898 -0.110407
v -0.441687 -0.451810 -0.110400
v -0.662666 -0.230969 -0.110385
v -0.662596 -0.451881 -0.110378
v -0.441738 -0.230892 0.110507
v -0.441662 -0.451804 0.110514
v -0.441757 -0.230898 -0.110407
v -0.441687 -0.451810 -0.110400
v -0.662714 -0.010050 0.110522
v -0.662645 -0.230962 0.110528
v -0.441805 -0.009980 0.110501
v -0.441738 -0.230892 0.110507
v -0.441830 -0.009988 -0.110414
v -0.441757 -0.230898 -0.110407
v -0.662735 -0.010058 -0.110393
v -0.662666 -0.230969 -0.110385
v -0.441805 -0.009980 0.110501
v -0.441738 -0.230892 0.110507
v -0.441830 -0.009988 -0.110414
v -0.441757 -0.230898 -0.110407
v -0.662786 0.210861 0.110515
v -0.662714 -0.010050 0.110522
v -0.441877 0.210931 0.110493
v -0.441805 -0.009980 0.110501
v -0.441900 0.210925 -0.110421
v -0.441830 -0.009988 -0.110414
v -0.662807 0.210853 -0.110400
v -0.662735 -0.010058 -0.110393
v -0.441877 0.210931 0.110493
v -0.441805 -0.009980 0.110501
v -0.441900 0.210925 -0.110421
v -0.441830 -0.009988 -0.110414
v -0.662855 0.431772 0.110508
v -0.441948 0.431843 0.110486
v -0.662878 0.431765 -0.110406
v -0.441967 0.431836 -0.110428
v -0.662855 0.431772 0.110508
v -0.662786 0.210861 0.110515
v -0.441948 0.431843 0.110486
v -0.441877 0.210931 0.110493
v -0.441967 0.431836 -0.110428
v -0.441900 0.210925 -0.110421
v -0.662878 0.431765 -0.110406
v -0.662807 0.210853 -0.110400
v -0.441948 0.431843 0.110486
v -0.441877 0.210931 0.110493
v -0.441967 0.431836 -0.110428
v -0.441900 0.210925 -0.110421
v -0.883295 -1.114686 -0.110336
v -0.662384 -1.114615 -0.110358
v -0.883274 -1.114679 0.110578
v -0.662361 -1.114609 0.110556
v -0.883345 -0.893768 0.110571
v -0.883274 -1.114679 0.110578
v -0.662432 -0.893697 0.110549
v -0.662361 -1.114609 0.110556
v -0.662455 -0.893704 -0.110365
v -0.662384 -1.114615 -0.110358
v -0.883368 -0.893775 -0.110343
v -0.883295 -1.114686 -0.110336
v -0.883368 -0.893775 -0.110343
v -0.883295 -1.114686 -0.110336
v -0.883345 -0.893768 0.110571
v -0.883274 -1.114679 0.110578
v -0.883417 -0.672856 0.110564
v -0.883345 -0.893768 0.110571
v -0.662504 -0.672785 0.110543
v -0.662432 -0.893697 0.110549
v -0.662525 -0.672792 -0.110372
v -0.662455 -0.893704 -0.110365
v -0.883438 -0.672863 -0.110350
v -0.883368 -0.893775 -0.110343
v -0.883438 -0.672863 -0.110350
v -0.883368 -0.893775 -0.110343
v -0.883417 -0.672856 0.110564
v -0.883345 -0.893768 0.110571
v -0.883486 -0.451944 0.110557
v -0.883417 -0.672856 0.110564
v -0.662573 -0.451873 0.110536
v -0.662504 -0.672785 0.110543
v -0.662596 -0.451881 -0.110378
v -0.662525 -0.672792 -0.110372
v -0.883511 -0.451951 -0.110357
v -0.883438 -0.672863 -0.110350
v -0.883511 -0.451951 -0.110357
v -0.883438 -0.672863 -0.110350
v -0.883486 -0.451944 0.110557
v -0.883417 -0.672856 0.110564
v -0.883556 -0.231033 0.110550
v -0.883486 -0.451944 0.110557
v -0.662645 -0.230962 0.110528
v -0.662573 -0.451873 0.110536
v -0.662666 -0.230969 -0.110385
v -0.662596 -0.451881 -0.110378
v -0.883579 -0.231040 -0.110364
v -0.883511 -0.451951 -0.110357
v -0.883579 -0.231040 -0.110364
v -0.883511 -0.451951 -0.110357
v -0.883556 -0.231033 0.110550
v -0.883486 -0.451944 0.110557
v -0.883629 -0.010121 0.110543
v -0.883556 -0.231033 0.110550
v -0.662714 -0.010050 0.110522
v -0.662645 -0.230962 0.110528
v -0.662735 -0.010058 -0.110393
v -0.662666 -0.230969 -0.110385
v -0.883648 -0.010129 -0.110371
v -0.883579 -0.231040 -0.110364
v -0.883648 -0.010129 -0.110371
v -0.883579 -0.231040 -0.110364
v -0.883629 -0.010121 0.110543
v -0.883556 -0.231033 0.110550
v -0.883699 0.210790 0.110536
v -0.883629 -0.010121 0.110543
v -0.662786 0.210861 0.110515
v -0.662714 -0.010050 0.110522
v -0.662807 0.210853 -0.110400
v -0.662735 -0.010058 -0.110393
v -0.883720 0.210784 -0.110378
v -0.883648 -0.010129 -0.110371
v -0.883720 0.210784 -0.110378
v -0.883648 -0.010129 -0.110371
v -0.883699 0.210790 0.110536
v -0.883629 -0.010121 0.110543
v -0.883771 0.431702 0.110529
v -0.662855 0.431772 0.110508
v -0.883790 0.431695 -0.110385
v -0.662878 0.431765 -0.110406
v -0.883771 0.431702 0.110529
v -0.883699 0.210790 0.110536
v -0.662855 0.431772 0.110508
v -0.662786 0.210861 0.110515
v -0.662878 0.431765 -0.110406
v -0.662807 0.210853 -0.110400
v -0.883790 0.431695 -0.110385
v -0.883720 0.210784 -0.110378
v -0.883790 0.431695 -0.110385
v -0.883720 0.210784 -0.110378
v -0.883771 0.431702 0.110529
v -0.883699 0.210790 0.110536
vt 0.001953 0.001953
vt 0.001953 0.001953
vt 0.001953 0.001953
vt 0.001953 0.001953
vt 0.001953 0.001953
vt 0.001953 0.001953
vt 0.001953 0.001953
vt 0.001953 0.001953
vt 0.001953 0.001953
vt 0.001953 0.001953
vt 0.001953 0.001953
vt 0.001953 0.001953
vt 0.001953 0.001953
vt 0.001953 0.001953
vt 0.001953 0.001953
vt 0.001953 0.001953
vt 0.001953 0.001953
vt 0.001953 0.001953
vt 0.001953 0.001953
vt 0.001953 0.001953
vt 0.001953 0.001953
vt 0.001953 0.001953
vt 0.001953 0.001953
vt 0.001953 0.001953
vt 0.001953 0.001953
vt 0.001953 0.001953
vt 0.001953 0.001953
vt 0.001953 0.001953
vt 0.001953 0.001953
vt 0.001953 0.001953
vt 0.001953 0.001953
vt 0.001953 0.001953
vt 0.001953 0.001953
vt 0.001953 0.001953
vt 0.001953 0.001953
vt 0.001953 0.001953
vt 0.001953 0.001953
vt 0.001953 0.001953
vt 0.001953 0.001953
vt 0.001953 0.001953
vt 0.001953 0.001953
vt 0.001953 0.001953
vt 0.001953 0.001953
vt 0.001953 0.001953
vt 0.001953 0.001953
vt 0.001953 0.001953
vt 0.001953 0.001953
vt 0.001953 0.001953
vt 0.001953 0.001953
vt 0.001953 0.001953
vt 0.001953 0.001953
vt 0.001953 0.001953
vt 0.001953 0.001953
vt 0.001953 0.001953
vt 0.001953 0.001953
vt 0.001953 0.001953
vt 0.001953 0.001953
vt 0.001953 0.001953
vt 0.001953 0.001953
vt 0.001953 0.001953
vt 0.001953 0.001953
vt 0.001953 0.001953
vt 0.001953 0.001953
vt 0.001953 0.001953
vt 0.001953 0.001953
vt 0.001953 0.001953
vt 0.001953 0.001953
vt 0.001953 0.001953
vt 0.001953 0.001953
vt 0.001953 0.001953
vt 0.001953 0.001953
vt 0.001953 0.001953
vt 0.001953 0.001953
vt 0.001953 0.001953
vt 0.001953 0.001953
vt 0.001953 0.001953
vt 0.001953 0.001953
vt 0.001953 0.001953
vt 0.001953 0.001953
vt 0.001953 0.001953
vt 0.001953 0.001953
vt 0.001953 0.001953
vt 0.001953 0.001953
vt 0.001953 0.001953
vt 0.001953 0.001953
vt 0.001953 0.001953
vt 0.001953 0.001953
vt 0.001953 0.001953
vt 0.001953 0.001953
vt 0.001953 0.001953
vt 0.001953 0.001953
vt 0.001953 0.001953
vt 0.001953 0.001953
vt 0.001953 0.001953
vt 0.001953 0.001953
vt 0.001953 0.001953
vt 0.001953 0.001953
vt 0.001953 0.001953
vt 0.001953 0.001953
vt 0.001953 0.001953
vt 0.001953 0.001953
vt 0.001953 0.001953
vt 0.001953 0.001953
vt 0.001953 0.001953
vt 0.001953 0.001953
vt 0.001953 0.001953
vt 0.001953 0.001953
vt 0.001953 0.001953
vt 0.001953 0.001953
vt 0.001953 0.001953
vt 0.001953 0.001953
vt 0.001953 0.001953
vt 0.001953 0.001953
vt 0.001953 0.001953
vt 0.001953 0.001953
vt 0.001953 0.001953
vt 0.001953 0.001953
vt 0.001953 0.001953
vt 0.001953 0.001953
vt 0.001953 0.001953
vt 0.001953 0.001953
vt 0.001953 0.001953
vt 0.001953 0.001953
vt 0.001953 0.001953
vt 0.001953 0.001953
vt 0.001953 0.001953
vt 0.001953 0.001953
vt 0.001953 0.001953
vt 0.001953 0.001953
vt 0.001953 0.001953
vt 0.001953 0.001953
vt 0.001953 0.001953
vt 0.001953 0.001953
vt 0.001953 0.001953
vt 0.001953 0.001953
vt 0.001953 0.001953
vt 0.001953 0.001953
vt 0.001953 0.001953
vt 0.001953 0.001953
vt 0.001953 0.001953
vt 0.001953 0.001953
vt 0.001953 0.001953
vt 0.001953 0.001953
vt 0.001953 0.001953
vt 0.001953 0.001953
vt 0.001953 0.001953
vt 0.001953 0.001953
vt 0.001953 0.001953
vt 0.001953 0.001953
vt 0.001953 0.001953
vt 0.001953 0.001953
vt 0.001953 0.001953
vt 0.001953 0.001953
vt 0.001953 0.001953
vt 0.001953 0.001953
vt 0.001953 0.001953
vt 0.001953 0.001953
vt 0.001953 0.001953
vt 0.001953 0.001953
vt 0.001953 0.001953
vt 0.001953 0.001953
vt 0.001953 0.001953
vt 0.001953 0.001953
vt 0.001953 0.001953
vt 0.001953 0.001953
vt 0.001953 0.001953
vt 0.001953 0.001953
vt 0.001953 0.001953
vt 0.001953 0.001953
vt 0.001953 0.001953
vt 0.001953 0.001953
vt 0.001953 0.001953
vt 0.001953 0.001953
vt 0.001953 0.001953
vt 0.001953 0.001953
vt 0.001953 0.001953
vt 0.001953 0.001953
vt 0.001953 0.001953
vt 0.001953 0.001953
vt 0.001953 0.001953
vt 0.001953 0.001953
vt 0.001953 0.001953
vt 0.001953 0.001953
vt 0.001953 0.001953
vt 0.001953 0.001953
vt 0.001953 0.001953
vt 0.001953 0.001953
vt 0.001953 0.001953
vt 0.001953 0.001953
vt 0.001953 0.001953
vt 0.001953 0.001953
vt 0.001953 0.001953
vt 0.001953 0.001953
vt 0.001953 0.001953
vt 0.001953 0.001953
vt 0.001953 0.001953
vt 0.001953 0.001953
vt 0.001953 0.001953
vt 0.001953 0.001953
vt 0.001953 0.001953
vt 0.001953 0.001953
vt 0.001953 0.001953
vt 0.001953 0.001953
vt 0.001953 0.001953
vt 0.001953 0.001953
vt 0.001953 0.001953
vt 0.001953 0.001953
vt 0.001953 0.001953
vt 0.001953 0.001953
vt 0.001953 0.001953
vt 0.001953 0.001953
vt 0.001953 0.001953
vt 0.001953 0.001953
vt 0.001953 0.001953
vt 0.001953 0.001953
vt 0.001953 0.001953
vt 0.001953 0.001953
vt 0.001953 0.001953
vt 0.001953 0.001953
vt 0.001953 0.001953
vt 0.001953 0.001953
vt 0.001953 0.001953
vt 0.001953 0.001953
vt 0.001953 0.001953
vt 0.001953 0.001953
vt 0.001953 0.001953
vt 0.001953 0.001953
vt 0.001953 0.001953
vt 0.001953 0.001953
vt 0.001953 0.001953
vt 0.001953 0.001953
vt 0.001953 0.001953
vt 0.001953 0.001953
vt 0.001953 0.001953
vt 0.001953 0.001953
vt 0.001953 0.001953
vt 0.001953 0.001953
vt 0.001953 0.001953
vt 0.001953 0.001953
vt 0.001953 0.001953
vt 0.001953 0.001953
vt 0.001953 0.001953
vt 0.001953 0.001953
vt 0.001953 0.001953
vt 0.001953 0.001953
vt 0.001953 0.001953
vt 0.001953 0.001953
vt 0.001953 0.001953
vt 0.001953 0.001953
vt 0.001953 0.001953
vt 0.001953 0.001953
vt 0.001953 0.001953
vt 0.001953 0.001953
vt 0.001953 0.001953
vt 0.001953 0.001953
vt 0.001953 0.001953
vt 0.001953 0.001953
vt 0.001953 0.001953
vt 0.001953 0.001953
vt 0.001953 0.001953
vt 0.001953 0.001953
vt 0.001953 0.001953
vt 0.001953 0.001953
vt 0.001953 0.001953
vt 0.001953 0.001953
vt 0.001953 0.001953
vt 0.001953 0.001953
vt 0.001953 0.001953
vt 0.001953 0.001953
vt 0.001953 0.001953
vt 0.001953 0.001953
vt 0.001953 0.001953
vt 0.001953 0.001953
vt 0.001953 0.001953
vt 0.001953 0.001953
vt 0.001953 0.001953
vt 0.001953 0.001953
vt 0.001953 0.001953
vt 0.001953 0.001953
vt 0.001953 0.001953
vt 0.001953 0.001953
vt 0.001953 0.001953
vt 0.001953 0.001953
vt 0.001953 0.001953
vt 0.001953 0.001953
vt 0.001953 0.001953
vt 0.001953 0.001953
vt 0.001953 0.001953
vt 0.001953 0.001953
vt 0.001953 0.001953
vt 0.001953 0.001953
vt 0.001953 0.001953
vt 0.001953 0.001953
vt 0.001953 0.001953
vt 0.001953 0.001953
vt 0.001953 0.001953
vt 0.001953 0.001953
vt 0.001953 0.001953
vt 0.001953 0.001953
vt 0.001953 0.001953
vt 0.001953 0.001953
vt 0.001953 0.001953
vt 0.001953 0.001953
vt 0.001953 0.001953
vt 0.001953 0.001953
vt 0.001953 0.001953
vt 0.001953 0.001953
vt 0.001953 0.001953
vt 0.001953 0.001953
vt 0.001953 0.001953
vt 0.001953 0.001953
vt 0.001953 0.001953
vt 0.001953 0.001953
vt 0.001953 0.001953
vt 0.001953 0.001953
vt 0.001953 0.001953
vt 0.001953 0.001953
vt 0.001953 0.001953
vt 0.001953 0.001953
vt 0.001953 0.001953
vt 0.001953 0.001953
vt 0.001953 0.001953
vt 0.001953 0.001953
vt 0.001953 0.001953
vt 0.001953 0.001953
vt 0.001953 0.001953
vt 0.001953 0.001953
vt 0.001953 0.001953
vt 0.001953 0.001953
vt 0.001953 0.001953
vt 0.001953 0.001953
vt 0.001953 0.001953
vt 0.001953 0.001953
vt 0.001953 0.001953
vt 0.001953 0.001953
vt 0.001953 0.001953
vt 0.001953 0.001953
vt 0.001953 0.001953
vt 0.001953 0.001953
vt 0.001953 0.001953
vt 0.001953 0.001953
vt 0.001953 0.001953
vt 0.001953 0.001953
vt 0.001953 0.001953
vt 0.001953 0.001953
vt 0.001953 0.001953
vt 0.001953 0.001953
vt 0.001953 0.001953
vt 0.001953 0.001953
vt 0.001953 0.001953
vt 0.001953 0.001953
vt 0.001953 0.001953
vt 0.001953 0.001953
vt 0.001953 0.001953
vt 0.001953 0.001953
vt 0.001953 0.001953
vt 0.001953 0.001953
vt 0.001953 0.001953
vt 0.001953 0.001953
vt 0.001953 0.001953
vt 0.001953 0.001953
vt 0.001953 0.001953
vt 0.001953 0.001953
vt 0.001953 0.001953
vt 0.001953 0.001953
vt 0.001953 0.001953
vt 0.001953 0.001953
vt 0.001953 0.001953
vt 0.001953 0.001953
vt 0.001953 0.001953
vt 0.001953 0.001953
vt 0.001953 0.001953
vt 0.001953 0.001953
vt 0.001953 0.001953
vt 0.001953 0.001953
vt 0.001953 0.001953
vt 0.001953 0.001953
vt 0.001953 0.001953
vt 0.001953 0.001953
vt 0.001953 0.001953
vt 0.001953 0.001953
vt 0.001953 0.001953
vt 0.001953 0.001953
vt 0.001953 0.001953
vt 0.001953 0.001953
vt 0.001953 0.001953
vt 0.001953 0.001953
vt 0.001953 0.001953
vt 0.001953 0.001953
vt 0.001953 0.001953
vt 0.001953 0.001953
vt 0.001953 0.001953
vt 0.001953 0.001953
vt 0.001953 0.001953
vt 0.001953 0.001953
vt 0.001953 0.001953
vt 0.001953 0.001953
vt 0.001953 0.001953
vt 0.001953 0.001953
vt 0.001953 0.001953
vt 0.001953 0.001953
vt 0.001953 0.001953
vt 0.001953 0.001953
vt 0.001953 0.001953
vt 0.001953 0.001953
vt 0.001953 0.001953
vt 0.001953 0.001953
vt 0.001953 0.001953
vt 0.001953 0.001953
vt 0.001953 0.001953
vt 0.001953 0.001953
vt 0.001953 0.001953
vt 0.001953 0.001953
vt 0.001953 0.001953
vt 0.001953 0.001953
vt 0.001953 0.001953
vt 0.001953 0.001953
vt 0.001953 0.001953
vt 0.001953 0.001953
vt 0.001953 0.001953
vt 0.001953 0.001953
vt 0.001953 0.001953
vt 0.001953 0.001953
vt 0.001953 0.001953
vt 0.001953 0.001953
vt 0.001953 0.001953
vt 0.001953 0.001953
vt 0.001953 0.001953
vt 0.001953 0.001953
vt 0.001953 0.001953
vt 0.001953 0.001953
vt 0.001953 0.001953
vt 0.001953 0.001953
vt 0.001953 0.001953
vt 0.001953 0.001953
vt 0.001953 0.001953
vt 0.001953 0.001953
vt 0.001953 0.001953
vt 0.001953 0.001953
vt 0.001953 0.001953
vt 0.001953 0.001953
vt 0.001953 0.001953
vt 0.001953 0.001953
vt 0.001953 0.001953
vt 0.001953 0.001953
vt 0.001953 0.001953
vt 0.001953 0.001953
vt 0.001953 0.001953
vt 0.001953 0.001953
vt 0.001953 0.001953
vt 0.001953 0.001953
vt 0.001953 0.001953
vt 0.001953 0.001953
vt 0.001953 0.001953
vt 0.001953 0.001953
vt 0.001953 0.001953
vt 0.001953 0.001953
vt 0.001953 0.001953
vt 0.001953 0.001953
vt 0.001953 0.001953
vt 0.001953 0.001953
vt 0.001953 0.001953
vt 0.001953 0.001953
vt 0.001953 0.001953
vt 0.001953 0.001953
vt 0.001953 0.001953
vt 0.001953 0.001953
vt 0.001953 0.001953
vt 0.001953 0.001953
vt 0.001953 0.001953
vt 0.001953 0.001953
vt 0.001953 0.001953
vt 0.001953 0.001953
vt 0.001953 0.001953
vt 0.001953 0.001953
vt 0.001953 0.001953
vt 0.001953 0.001953
vt 0.001953 0.001953
vt 0.001953 0.001953
vt 0.001953 0.001953
vt 0.001953 0.001953
vt 0.001953 0.001953
vt 0.001953 0.001953
vt 0.001953 0.001953
vt 0.001953 0.001953
vt 0.001953 0.001953
vt 0.001953 0.001953
vt 0.001953 0.001953
vt 0.001953 0.001953
vt 0.001953 0.001953
vt 0.001953 0.001953
vt 0.001953 0.001953
vt 0.001953 0.001953
vt 0.001953 0.001953
vt 0.001953 0.001953
vt 0.001953 0.001953
vt 0.001953 0.001953
vt 0.001953 0.001953
vt 0.001953 0.001953
vt 0.001953 0.001953
vt 0.001953 0.001953
vt 0.001953 0.001953
vt 0.001953 0.001953
vt 0.001953 0.001953
vt 0.001953 0.001953
vt 0.001953 0.001953
vt 0.001953 0.001953
vt 0.001953 0.001953
vt 0.001953 0.001953
vt 0.001953 0.001953
vt 0.001953 0.001953
vt 0.001953 0.001953
vt 0.001953 0.001953
vt 0.001953 0.001953
vt 0.001953 0.001953
vt 0.001953 0.001953
vt 0.001953 0.001953
vt 0.001953 0.001953
vt 0.001953 0.001953
vt 0.001953 0.001953
vt 0.001953 0.001953
vt 0.001953 0.001953
vt 0.001953 0.001953
vt 0.001953 0.001953
vt 0.001953 0.001953
vt 0.001953 0.001953
vt 0.001953 0.001953
vt 0.001953 0.001953
vt 0.001953 0.001953
vt 0.001953 0.001953
vt 0.001953 0.001953
vt 0.001953 0.001953
vt 0.001953 0.001953
vt 0.001953 0.001953
vt 0.001953 0.001953
vt 0.001953 0.001953
vt 0.001953 0.001953
vt 0.001953 0.001953
vt 0.001953 0.001953
vt 0.001953 0.001953
vt 0.001953 0.001953
vt 0.001953 0.001953
vt 0.001953 0.001953
vt 0.001953 0.001953
vt 0.001953 0.001953
vt 0.001953 0.001953
vt 0.001953 0.001953
vt 0.001953 0.001953
vt 0.001953 0.001953
vt 0.001953 0.001953
vt 0.001953 0.001953
vt 0.001953 0.001953
vt 0.001953 0.001953
vt 0.001953 0.001953
vt 0.001953 0.001953
vt 0.001953 0.001953
vt 0.001953 0.001953
vt 0.001953 0.001953
vt 0.001953 0.001953
vt 0.001953 0.001953
vt 0.001953 0.001953
vt 0.001953 0.001953
vt 0.001953 0.001953
vt 0.001953 0.001953
vt 0.001953 0.001953
vt 0.001953 0.001953
vt 0.001953 0.001953
vt 0.001953 0.001953
vt 0.001953 0.001953
vt 0.001953 0.001953
vt 0.001953 0.001953
vt 0.001953 0.001953
vt 0.001953 0.001953
vt 0.001953 0.001953
vt 0.001953 0.001953
vt 0.001953 0.001953
vt 0.001953 0.001953
vt 0.001953 0.001953
vt 0.001953 0.001953
vt 0.001953 0.001953
vt 0.001953 0.001953
vt 0.001953 0.001953
vt 0.001953 0.001953
vt 0.001953 0.001953
vt 0.001953 0.001953
vt 0.001953 0.001953
vt 0.001953 0.001953
vt 0.001953 0.001953
vt 0.001953 0.001953
vt 0.001953 0.001953
vt 0.001953 0.001953
vt 0.001953 0.001953
vt 0.001953 0.001953
vt 0.001953 0.001953
vt 0.001953 0.001953
vt 0.001953 0.001953
vt 0.001953 0.001953
vt 0.001953 0.001953
vt 0.001953 0.001953
vt 0.001953 0.001953
vt 0.001953 0.001953
vt 0.001953 0.001953
vt 0.001953 0.001953
vt 0.001953 0.001953
vt 0.001953 0.001953
vt 0.001953 0.001953
vt 0.001953 0.001953
vt 0.001953 0.001953
vt 0.001953 0.001953
vt 0.001953 0.001953
vt 0.001953 0.001953
vt 0.001953 0.001953
vt 0.001953 0.001953
vt 0.001953 0.001953
vt 0.001953 0.001953
vt 0.001953 0.001953
vt 0.001953 0.001953
vt 0.001953 0.001953
vt 0.001953 0.001953
vt 0.001953 0.001953
vt 0.001953 0.001953
vt 0.001953 0.001953
vt 0.001953 0.001953
vt 0.001953 0.001953
vt 0.001953 0.001953
vt 0.001953 0.001953
vt 0.001953 0.001953
vt 0.001953 0.001953
vt 0.001953 0.001953
vt 0.001953 0.001953
vt 0.001953 0.001953
vt 0.001953 0.001953
vt 0.001953 0.001953
vt 0.001953 0.001953
vt 0.001953 0.001953
vt 0.001953 0.001953
vt 0.001953 0.001953
vt 0.001953 0.001953
vt 0.001953 0.001953
vt 0.001953 0.001953
vt 0.001953 0.001953
vt 0.001953 0.001953
vt 0.001953 0.001953
vt 0.001953 0.001953
vt 0.001953 0.001953
vt 0.001953 0.001953
vt 0.001953 0.001953
vt 0.001953 0.001953
vt 0.001953 0.001953
vt 0.001953 0.001953
vt 0.001953 0.001953
vt 0.001953 0.001953
vt 0.001953 0.001953
vt 0.001953 0.001953
vt 0.001953 0.001953
vt 0.001953 0.001953
vt 0.001953 0.001953
vt 0.001953 0.001953
vt 0.001953 0.001953
vt 0.001953 0.001953
vt 0.001953 0.001953
vt 0.001953 0.001953
vt 0.001953 0.001953
vt 0.001953 0.001953
vt 0.001953 0.001953
vt 0.001953 0.001953
vt 0.001953 0.001953
vt 0.001953 0.001953
vt 0.001953 0.001953
vt 0.001953 0.001953
vt 0.001953 0.001953
vt 0.001953 0.001953
vt 0.001953 0.001953
vt 0.001953 0.001953
vt 0.001953 0.001953
vt 0.001953 0.001953
vt 0.001953 0.001953
vt 0.001953 0.001953
vt 0.001953 0.001953
vt 0.001953 0.001953
vt 0.001953 0.001953
vt 0.001953 0.001953
vt 0.001953 0.001953
vt 0.001953 0.001953
vt 0.001953 0.001953
vt 0.001953 0.001953
vt 0.001953 0.001953
vt 0.001953 0.001953
vt 0.001953 0.001953
vt 0.001953 0.001953
vt 0.001953 0.001953
vt 0.001953 0.001953
vt 0.001953 0.001953
vt 0.001953 0.001953
vt 0.001953 0.001953
vt 0.001953 0.001953
vt 0.001953 0.001953
vt 0.001953 0.001953
vt 0.001953 0.001953
vt 0.001953 0.001953
vt 0.001953 0.001953
vt 0.001953 0.001953
vt 0.001953 0.001953
vt 0.001953 0.001953
vt 0.001953 0.001953
vt 0.001953 0.001953
vt 0.001953 0.001953
vt 0.001953 0.001953
vt 0.001953 0.001953
vt 0.001953 0.001953
vt 0.001953 0.001953
vt 0.001953 0.001953
vt 0.001953 0.001953
vt 0.001953 0.001953
vt 0.001953 0.001953
vt 0.001953 0.001953
vt 0.001953 0.001953
vt 0.001953 0.001953
vt 0.001953 0.001953
vt 0.001953 0.001953
vt 0.001953 0.001953
vt 0.001953 0.001953
vt 0.001953 0.001953
vt 0.001953 0.001953
vt 0.001953 0.001953
vt 0.001953 0.001953
vt 0.001953 0.001953
vt 0.001953 0.001953
vt 0.001953 0.001953
vt 0.001953 0.001953
vt 0.001953 0.001953
vt 0.001953 0.001953
vt 0.001953 0.001953
vt 0.001953 0.001953
vt 0.001953 0.001953
vt 0.001953 0.001953
vt 0.001953 0.001953
vt 0.001953 0.001953
vt 0.001953 0.001953
vt 0.001953 0.001953
vt 0.001953 0.001953
vt 0.001953 0.001953
vt 0.001953 0.001953
vt 0.001953 0.001953
vt 0.001953 0.001953
vt 0.001953 0.001953
vt 0.001953 0.001953
vt 0.001953 0.001953
vt 0.001953 0.001953
vt 0.001953 0.001953
vt 0.001953 0.001953
vt 0.001953 0.001953
vt 0.001953 0.001953
vt 0.001953 0.001953
vt 0.001953 0.001953
vt 0.001953 0.001953
vt 0.001953 0.001953
vt 0.001953 0.001953
vt 0.001953 0.001953
vt 0.001953 0.001953
vt 0.001953 0.001953
vt 0.001953 0.001953
vt 0.001953 0.001953
vt 0.001953 0.001953
vt 0.001953 0.001953
vt 0.001953 0.001953
vt 0.001953 0.001953
vt 0.001953 0.001953
vt 0.001953 0.001953
vt 0.001953 0.001953
vt 0.001953 0.001953
vt 0.001953 0.001953
vt 0.001953 0.001953
vt 0.001953 0.001953
vt 0.001953 0.001953
vt 0.001953 0.001953
vt 0.001953 0.001953
vt 0.001953 0.001953
vt 0.001953 0.001953
vt 0.001953 0.001953
vt 0.001953 0.001953
vt 0.001953 0.001953
vt 0.001953 0.001953
vt 0.001953 0.001953
vt 0.001953 0.001953
vt 0.001953 0.001953
vt 0.001953 0.001953
vt 0.001953 0.001953
vt 0.001953 0.001953
vt 0.001953 0.001953
vt 0.001953 0.001953
vt 0.001953 0.001953
vt 0.001953 0.001953
vt 0.001953 0.001953
vt 0.001953 0.001953
vt 0.001953 0.001953
vt 0.001953 0.001953
vt 0.001953 0.001953
vt 0.001953 0.001953
vt 0.001953 0.001953
vt 0.001953 0.001953
vt 0.001953 0.001953
vt 0.001953 0.001953
vt 0.001953 0.001953
vt 0.001953 0.001953
vt 0.001953 0.001953
vt 0.001953 0.001953
vt 0.001953 0.001953
vn 0.0003 -1.0000 0.0000
vn 0.0001 0.0000 1.0000
vn -0.0001 -0.0000 -1.0000
vn 1.0000 0.0003 -0.0001
vn -0.0003 1.0000 -0.0000
vn -1.0000 -0.0003 0.0001
usemtl VRVox/StandardVertex
s 1
f 1/1/1 2/2/1 3/3/1
f 3/3/1 2/2/1 4/4/1
f 5/5/2 6/6/2 7/7/2
f 7/7/2 6/6/2 8/8/2
f 9/9/3 10/10/3 11/11/3
f 11/11/3 10/10/3 12/12/3
f 13/13/4 14/14/4 15/15/4
f 15/15/4 14/14/4 16/16/4
f 17/17/5 18/18/5 19/19/5
f 19/19/5 18/18/5 20/20/5
f 21/21/2 22/22/2 23/23/2
f 23/23/2 22/22/2 24/24/2
f 25/25/3 26/26/3 27/27/3
f 27/27/3 26/26/3 28/28/3
f 29/29/4 30/30/4 31/31/4
f 31/31/4 30/30/4 32/32/4
f 33/33/1 34/34/1 35/35/1
f 35/35/1 34/34/1 36/36/1
f 37/37/2 38/38/2 39/39/2
f 39/39/2 38/38/2 40/40/2
f 41/41/3 42/42/3 43/43/3
f 43/43/3 42/42/3 44/44/3
f 45/45/6 46/46/6 47/47/6
f 47/47/6 46/46/6 48/48/6
f 49/49/2 50/50/2 51/51/2
f 51/51/2 50/50/2 52/52/2
f 53/53/3 54/54/3 55/55/3
f 55/55/3 54/54/3 56/56/3
f 57/57/5 58/58/5 59/59/5
f 59/59/5 58/58/5 60/60/5
f 61/61/2 62/62/2 63/63/2
f 63/63/2 62/62/2 64/64/2
f 65/65/3 66/66/3 67/67/3
f 67/67/3 66/66/3 68/68/3
f 69/69/4 70/70/4 71/71/4
f 71/71/4 70/70/4 72/72/4
f 73/73/1 74/74/1 75/75/1
f 75/75/1 74/74/1 76/76/1
f 77/77/2 78/78/2 79/79/2
f 79/79/2 78/78/2 80/80/2
f 81/81/3 82/82/3 83/83/3
f 83/83/3 82/82/3 84/84/3
f 85/85/5 86/86/5 87/87/5
f 87/87/5 86/86/5 88/88/5
f 89/89/2 90/90/2 91/91/2
f 91/91/2 90/90/2 92/92/2
f 93/93/3 94/94/3 95/95/3
f 95/95/3 94/94/3 96/96/3
f 97/97/6 98/98/6 99/99/6
f 99/99/6 98/98/6 100/100/6
f 101/101/1 102/102/1 103/103/1
f 103/103/1 102/102/1 104/104/1
f 105/105/2 106/106/2 107/107/2
f 107/107/2 106/106/2 108/108/2
f 109/109/3 110/110/3 111/111/3
f 111/111/3 110/110/3 112/112/3
f 113/113/4 114/114/4 115/115/4
f 115/115/4 114/114/4 116/116/4
f 117/117/5 118/118/5 119/119/5
f 119/119/5 118/118/5 120/120/5
f 121/121/2 122/122/2 123/123/2
f 123/123/2 122/122/2 124/124/2
f 125/125/3 126/126/3 127/127/3
f 127/127/3 126/126/3 128/128/3
f 129/129/1 130/130/1 131/131/1
f 131/131/1 130/130/1 132/132/1
f 133/133/2 134/134/2 135/135/2
f 135/135/2 134/134/2 136/136/2
f 137/137/3 138/138/3 139/139/3
f 139/139/3 138/138/3 140/140/3
f 141/141/6 142/142/6 143/143/6
f 143/143/6 142/142/6 144/144/6
f 145/145/5 146/146/5 147/147/5
f 147/147/5 146/146/5 148/148/5
f 149/149/2 150/150/2 151/151/2
f 151/151/2 150/150/2 152/152/2
f 153/153/3 154/154/3 155/155/3
f 155/155/3 154/154/3 156/156/3
f 157/157/1 158/158/1 159/159/1
f 159/159/1 158/158/1 160/160/1
f 161/161/2 162/162/2 163/163/2
f 163/163/2 162/162/2 164/164/2
f 165/165/3 166/166/3 167/167/3
f 167/167/3 166/166/3 168/168/3
f 169/169/5 170/170/5 171/171/5
f 171/171/5 170/170/5 172/172/5
f 173/173/2 174/174/2 175/175/2
f 175/175/2 174/174/2 176/176/2
f 177/177/3 178/178/3 179/179/3
f 179/179/3 178/178/3 180/180/3
f 181/181/4 182/182/4 183/183/4
f 183/183/4 182/182/4 184/184/4
f 185/185/1 186/186/1 187/187/1
f 187/187/1 186/186/1 188/188/1
f 189/189/2 190/190/2 191/191/2
f 191/191/2 190/190/2 192/192/2
f 193/193/3 194/194/3 195/195/3
f 195/195/3 194/194/3 196/196/3
f 197/197/4 198/198/4 199/199/4
f 199/199/4 198/198/4 200/200/4
f 201/201/2 202/202/2 203/203/2
f 203/203/2 202/202/2 204/204/2
f 205/205/3 206/206/3 207/207/3
f 207/207/3 206/206/3 208/208/3
f 209/209/5 210/210/5 211/211/5
f 211/211/5 210/210/5 212/212/5
f 213/213/2 214/214/2 215/215/2
f 215/215/2 214/214/2 216/216/2
f 217/217/3 218/218/3 219/219/3
f 219/219/3 218/218/3 220/220/3
f 221/221/6 222/222/6 223/223/6
f 223/223/6 222/222/6 224/224/6
f 225/225/1 226/226/1 227/227/1
f 227/227/1 226/226/1 228/228/1
f 229/229/2 230/230/2 231/231/2
f 231/231/2 230/230/2 232/232/2
f 233/233/3 234/234/3 235/235/3
f 235/235/3 234/234/3 236/236/3
f 237/237/6 238/238/6 239/239/6
f 239/239/6 238/238/6 240/240/6
f 241/241/5 242/242/5 243/243/5
f 243/243/5 242/242/5 244/244/5
f 245/245/2 246/246/2 247/247/2
f 247/247/2 246/246/2 248/248/2
f 249/249/3 250/250/3 251/251/3
f 251/251/3 250/250/3 252/252/3
f 253/253/6 254/254/6 255/255/6
f 255/255/6 254/254/6 256/256/6
f 257/257/1 258/258/1 259/259/1
f 259/259/1 258/258/1 260/260/1
f 261/261/2 262/262/2 263/263/2
f 263/263/2 262/262/2 264/264/2
f 265/265/3 266/266/3 267/267/3
f 267/267/3 266/266/3 268/268/3
f 269/269/4 270/270/4 271/271/4
f 271/271/4 270/270/4 272/272/4
f 273/273/2 274/274/2 275/275/2
f 275/275/2 274/274/2 276/276/2
f 277/277/3 278/278/3 279/279/3
f 279/279/3 278/278/3 280/280/3
f 281/281/4 282/282/4 283/283/4
f 283/283/4 282/282/4 284/284/4
f 285/285/2 286/286/2 287/287/2
f 287/287/2 286/286/2 288/288/2
f 289/289/3 290/290/3 291/291/3
f 291/291/3 290/290/3 292/292/3
f 293/293/4 294/294/4 295/295/4
f 295/295/4 294/294/4 296/296/4
f 297/297/2 298/298/2 299/299/2
f 299/299/2 298/298/2 300/300/2
f 301/301/3 302/302/3 303/303/3
f 303/303/3 302/302/3 304/304/3
f 305/305/4 306/306/4 307/307/4
f 307/307/4 306/306/4 308/308/4
f 309/309/2 310/310/2 311/311/2
f 311/311/2 310/310/2 312/312/2
f 313/313/3 314/314/3 315/315/3
f 315/315/3 314/314/3 316/316/3
f 317/317/4 318/318/4 319/319/4
f 319/319/4 318/318/4 320/320/4
f 321/321/2 322/322/2 323/323/2
f 323/323/2 322/322/2 324/324/2
f 325/325/3 326/326/3 327/327/3
f 327/327/3 326/326/3 328/328/3
f 329/329/4 330/330/4 331/331/4
f 331/331/4 330/330/4 332/332/4
f 333/333/5 334/334/5 335/335/5
f 335/335/5 334/334/5 336/336/5
f 337/337/2 338/338/2 339/339/2
f 339/339/2 338/338/2 340/340/2
f 341/341/3 342/342/3 343/343/3
f 343/343/3 342/342/3 344/344/3
f 345/345/4 346/346/4 347/347/4
f 347/347/4 346/346/4 348/348/4
f 349/349/1 350/350/1 351/351/1
f 351/351/1 350/350/1 352/352/1
f 353/353/2 354/354/2 355/355/2
f 355/355/2 354/354/2 356/356/2
f 357/357/3 358/358/3 359/359/3
f 359/359/3 358/358/3 360/360/3
f 361/361/6 362/362/6 363/363/6
f 363/363/6 362/362/6 364/364/6
f 365/365/2 366/366/2 367/367/2
f 367/367/2 366/366/2 368/368/2
f 369/369/3 370/370/3 371/371/3
f 371/371/3 370/370/3 372/372/3
f 373/373/6 374/374/6 375/375/6
f 375/375/6 374/374/6 376/376/6
f 377/377/2 378/378/2 379/379/2
f 379/379/2 378/378/2 380/380/2
f 381/381/3 382/382/3 383/383/3
f 383/383/3 382/382/3 384/384/3
f 385/385/6 386/386/6 387/387/6
f 387/387/6 386/386/6 388/388/6
f 389/389/2 390/390/2 391/391/2
f 391/391/2 390/390/2 392/392/2
f 393/393/3 394/394/3 395/395/3
f 395/395/3 394/394/3 396/396/3
f 397/397/6 398/398/6 399/399/6
f 399/399/6 398/398/6 400/400/6
f 401/401/2 402/402/2 403/403/2
f 403/403/2 402/402/2 404/404/2
f 405/405/3 406/406/3 407/407/3
f 407/407/3 406/406/3 408/408/3
f 409/409/6 410/410/6 411/411/6
f 411/411/6 410/410/6 412/412/6
f 413/413/2 414/414/2 415/415/2
f 415/415/2 414/414/2 416/416/2
f 417/417/3 418/418/3 419/419/3
f 419/419/3 418/418/3 420/420/3
f 421/421/6 422/422/6 423/423/6
f 423/423/6 422/422/6 424/424/6
f 425/425/5 426/426/5 427/427/5
f 427/427/5 426/426/5 428/428/5
f 429/429/2 430/430/2 431/431/2
f 431/431/2 430/430/2 432/432/2
f 433/433/3 434/434/3 435/435/3
f 435/435/3 434/434/3 436/436/3
f 437/437/6 438/438/6 439/439/6
f 439/439/6 438/438/6 440/440/6
f 441/441/1 442/442/1 443/443/1
f 443/443/1 442/442/1 444/444/1
f 445/445/2 446/446/2 447/447/2
f 447/447/2 446/446/2 448/448/2
f 449/449/3 450/450/3 451/451/3
f 451/451/3 450/450/3 452/452/3
f 453/453/4 454/454/4 455/455/4
f 455/455/4 454/454/4 456/456/4
f 457/457/2 458/458/2 459/459/2
f 459/459/2 458/458/2 460/460/2
f 461/461/3 462/462/3 463/463/3
f 463/463/3 462/462/3 464/464/3
f 465/465/4 466/466/4 467/467/4
f 467/467/4 466/466/4 468/468/4
f 469/469/2 470/470/2 471/471/2
f 471/471/2 470/470/2 472/472/2
f 473/473/3 474/474/3 475/475/3
f 475/475/3 474/474/3 476/476/3
f 477/477/4 478/478/4 479/479/4
f 479/479/4 478/478/4 480/480/4
f 481/481/2 482/482/2 483/483/2
f 483/483/2 482/482/2 484/484/2
f 485/485/3 486/486/3 487/487/3
f 487/487/3 486/486/3 488/488/3
f 489/489/4 490/490/4 491/491/4
f 491/491/4 490/490/4 492/492/4
f 493/493/2 494/494/2 495/495/2
f 495/495/2 494/494/2 496/496/2
f 497/497/3 498/498/3 499/499/3
f 499/499/3 498/498/3 500/500/3
f 501/501/4 502/502/4 503/503/4
f 503/503/4 502/502/4 504/504/4
f 505/505/2 506/506/2 507/507/2
f 507/507/2 506/506/2 508/508/2
f 509/509/3 510/510/3 511/511/3
f 511/511/3 510/510/3 512/512/3
f 513/513/4 514/514/4 515/515/4
f 515/515/4 514/514/4 516/516/4
f 517/517/5 518/518/5 519/519/5
f 519/519/5 518/518/5 520/520/5
f 521/521/2 522/522/2 523/523/2
f 523/523/2 522/522/2 524/524/2
f 525/525/3 526/526/3 527/527/3
f 527/527/3 526/526/3 528/528/3
f 529/529/4 530/530/4 531/531/4
f 531/531/4 530/530/4 532/532/4
f 533/533/1 534/534/1 535/535/1
f 535/535/1 534/534/1 536/536/1
f 537/537/2 538/538/2 539/539/2
f 539/539/2 538/538/2 540/540/2
f 541/541/3 542/542/3 543/543/3
f 543/543/3 542/542/3 544/544/3
f 545/545/6 546/546/6 547/547/6
f 547/547/6 546/546/6 548/548/6
f 549/549/2 550/550/2 551/551/2
f 551/551/2 550/550/2 552/552/2
f 553/553/3 554/554/3 555/555/3
f 555/555/3 554/554/3 556/556/3
f 557/557/6 558/558/6 559/559/6
f 559/559/6 558/558/6 560/560/6
f 561/561/2 562/562/2 563/563/2
f 563/563/2 562/562/2 564/564/2
f 565/565/3 566/566/3 567/567/3
f 567/567/3 566/566/3 568/568/3
f 569/569/6 570/570/6 571/571/6
f 571/571/6 570/570/6 572/572/6
f 573/573/2 574/574/2 575/575/2
f 575/575/2 574/574/2 576/576/2
f 577/577/3 578/578/3 579/579/3
f 579/579/3 578/578/3 580/580/3
f 581/581/6 582/582/6 583/583/6
f 583/583/6 582/582/6 584/584/6
f 585/585/2 586/586/2 587/587/2
f 587/587/2 586/586/2 588/588/2
f 589/589/3 590/590/3 591/591/3
f 591/591/3 590/590/3 592/592/3
f 593/593/6 594/594/6 595/595/6
f 595/595/6 594/594/6 596/596/6
f 597/597/2 598/598/2 599/599/2
f 599/599/2 598/598/2 600/600/2
f 601/601/3 602/602/3 603/603/3
f 603/603/3 602/602/3 604/604/3
f 605/605/6 606/606/6 607/607/6
f 607/607/6 606/606/6 608/608/6
f 609/609/5 610/610/5 611/611/5
f 611/611/5 610/610/5 612/612/5
f 613/613/2 614/614/2 615/615/2
f 615/615/2 614/614/2 616/616/2
f 617/617/3 618/618/3 619/619/3
f 619/619/3 618/618/3 620/620/3
f 621/621/6 622/622/6 623/623/6
f 623/623/6 622/622/6 624/624/6
f 625/625/1 626/626/1 627/627/1
f 627/627/1 626/626/1 628/628/1
f 629/629/2 630/630/2 631/631/2
f 631/631/2 630/630/2 632/632/2
f 633/633/3 634/634/3 635/635/3
f 635/635/3 634/634/3 636/636/3
f 637/637/4 638/638/4 639/639/4
f 639/639/4 638/638/4 640/640/4
f 641/641/2 642/642/2 643/643/2
f 643/643/2 642/642/2 644/644/2
f 645/645/3 646/646/3 647/647/3
f 647/647/3 646/646/3 648/648/3
f 649/649/4 650/650/4 651/651/4
f 651/651/4 650/650/4 652/652/4
f 653/653/2 654/654/2 655/655/2
f 655/655/2 654/654/2 656/656/2
f 657/657/3 658/658/3 659/659/3
f 659/659/3 658/658/3 660/660/3
f 661/661/4 662/662/4 663/663/4
f 663/663/4 662/662/4 664/664/4
f 665/665/2 666/666/2 667/667/2
f 667/667/2 666/666/2 668/668/2
f 669/669/3 670/670/3 671/671/3
f 671/671/3 670/670/3 672/672/3
f 673/673/4 674/674/4 675/675/4
f 675/675/4 674/674/4 676/676/4
f 677/677/2 678/678/2 679/679/2
f 679/679/2 678/678/2 680/680/2
f 681/681/3 682/682/3 683/683/3
f 683/683/3 682/682/3 684/684/3
f 685/685/4 686/686/4 687/687/4
f 687/687/4 686/686/4 688/688/4
f 689/689/2 690/690/2 691/691/2
f 691/691/2 690/690/2 692/692/2
f 693/693/3 694/694/3 695/695/3
f 695/695/3 694/694/3 696/696/3
f 697/697/4 698/698/4 699/699/4
f 699/699/4 698/698/4 700/700/4
f 701/701/5 702/702/5 703/703/5
f 703/703/5 702/702/5 704/704/5
f 705/705/2 706/706/2 707/707/2
f 707/707/2 706/706/2 708/708/2
f 709/709/3 710/710/3 711/711/3
f 711/711/3 710/710/3 712/712/3
f 713/713/4 714/714/4 715/715/4
f 715/715/4 714/714/4 716/716/4
f 717/717/1 718/718/1 719/719/1
f 719/719/1 718/718/1 720/720/1
f 721/721/2 722/722/2 723/723/2
f 723/723/2 722/722/2 724/724/2
f 725/725/3 726/726/3 727/727/3
f 727/727/3 726/726/3 728/728/3
f 729/729/6 730/730/6 731/731/6
f 731/731/6 730/730/6 732/732/6
f 733/733/2 734/734/2 735/735/2
f 735/735/2 734/734/2 736/736/2
f 737/737/3 738/738/3 739/739/3
f 739/739/3 738/738/3 740/740/3
f 741/741/6 742/742/6 743/743/6
f 743/743/6 742/742/6 744/744/6
f 745/745/2 746/746/2 747/747/2
f 747/747/2 746/746/2 748/748/2
f 749/749/3 750/750/3 751/751/3
f 751/751/3 750/750/3 752/752/3
f 753/753/6 754/754/6 755/755/6
f 755/755/6 754/754/6 756/756/6
f 757/757/2 758/758/2 759/759/2
f 759/759/2 758/758/2 760/760/2
f 761/761/3 762/762/3 763/763/3
f 763/763/3 762/762/3 764/764/3
f 765/765/6 766/766/6 767/767/6
f 767/767/6 766/766/6 768/768/6
f 769/769/2 770/770/2 771/771/2
f 771/771/2 770/770/2 772/772/2
f 773/773/3 774/774/3 775/775/3
f 775/775/3 774/774/3 776/776/3
f 777/777/6 778/778/6 779/779/6
f 779/779/6 778/778/6 780/780/6
f 781/781/2 782/782/2 783/783/2
f 783/783/2 782/782/2 784/784/2
f 785/785/3 786/786/3 787/787/3
f 787/787/3 786/786/3 788/788/3
f 789/789/6 790/790/6 791/791/6
f 791/791/6 790/790/6 792/792/6
f 793/793/5 794/794/5 795/795/5
f 795/795/5 794/794/5 796/796/5
f 797/797/2 798/798/2 799/799/2
f 799/799/2 798/798/2 800/800/2
f 801/801/3 802/802/3 803/803/3
f 803/803/3 802/802/3 804/804/3
f 805/805/6 806/806/6 807/807/6
f 807/807/6 806/806/6 808/808/6
